"Resource/UI/CharInfoArmorySubPanel.res"
{
	"armory_panel"
	{
		"ControlName"	"Frame"
		"fieldName"		"armory_panel"
		"wide"			"f0"
		"zpos"			"501"
		"visible"		"1"
		"autoResize"	"0"
		"pinCorner"		"0"
		"enabled"		"1"
		"tabPosition"	"0"
		"settitlebarvisible"	"0"
		"PaintBackgroundType"	"0"
		"bgcolor_override"	"40 40 40 255"
		"infocus_bgcolor_override" "40 40 40 255"
		"outoffocus_bgcolor_override" "40 40 40 255"
		
		"thumbnail_bgcolor"			"51 47 46 255"
		"thumbnail_bgcolor_mouseover"	"156 146 128 255"
		"thumbnail_bgcolor_selected"	"176 166 148 255"
		
		"thumbnails_rows"		"4"
		"thumbnails_columns"	"4"
		
		"thumbnails_x"			"c-300"
		"thumbnails_y"			"120"
		"thumbnails_delta_x"	"8"
		"thumbnails_delta_y"	"8"
		
		"thumbnail_modelpanels_kv"
		{
			"ControlName"	"CItemModelPanel"
			"zpos"			"13"
			"wide"			"70"
			"tall"			"49"
			"visible"		"0"
			"bgcolor_override"		"0 0 0 255"
			"noitem_textcolor"		"117 107 94 255"
			"PaintBackgroundType"	"2"
			"paintborder"	"0"
			
			"model_xpos"	"7"
			"model_ypos"	"5"
			"model_wide"	"58"
			"model_tall"	"38"
			"text_ypos"		"60"
			"text_center"	"1"
			"name_only"		"1"
			
			"inset_eq_x"	"2"
			"inset_eq_y"	"2"
			
			"itemmodelpanel"
			{
				"use_item_rendertarget" "0"
				"allow_rot"				"0"
			}
		}
	}

	"CaratLabel"
	{
		"ControlName"		"CExLabel"
		"fieldName"		"CaratLabel"
		"font"			"HudFontSmallestBold"
		"labelText"		">>"
		"textAlignment"	"west"
		"xpos"			"9999"
		"ypos"			"9999"
		"zpos"			"1"
		"wide"			"20"
		"tall"			"15"
		"autoResize"	"1"
		"pinCorner"		"0"
		"visible"		"0"
		"enabled"		"0"
		"fgcolor_override" "200 80 60 255"
	}
	"ArmoryLabel"
	{
		"ControlName"	"Label"
		"fieldName"		"ArmoryLabel"
		"font"			"nüBold30"
		"labelText"		"Mann Co. Catalog"
		"textAlignment"	"west"
		"xpos"			"c-300"
		"ypos"			"30"
		"zpos"			"1"
		"wide"			"560"
		"tall"			"32"
		"autoResize"	"0"
		"pinCorner"		"0"
		"visible"		"1"
		"enabled"		"1"
		"fgcolor_override"	"nüWhite"
	}
	"ArmoryLabelShadow"
	{
		"ControlName"	"Label"
		"fieldName"		"ArmoryLabelShadow"
		"font"			"nüBold30"
		"labelText"		"Mann Co. Catalog"
		"textAlignment"	"west"
		"xpos"			"0"
		"ypos"			"-1"
		"zpos"			"1"
		"wide"			"560"
		"tall"			"32"
		"autoResize"	"0"
		"pinCorner"		"0"
		"visible"		"1"
		"enabled"		"1"
		"fgcolor_override"	"ShadowBlack"

		"pin_to_sibling"	"ArmoryLabel"
        "pin_corner_to_sibling"		"1"
        "pin_to_sibling_corner"		"1"
	}

	"FiltersLabel"
	{
		"ControlName"	"CExLabel"
		"fieldName"		"FiltersLabel"
		"font"			"HudFontSmallestBold"
		"labelText"		"#Store_FilterLabel"
		"textAlignment"	"west"
		"xpos"			"9999"
		"ypos"			"9999"
		"zpos"			"1"
		"wide"			"60"
		"tall"			"20"
		"autoResize"	"1"
		"pinCorner"		"0"
		"visible"		"0"
		"enabled"		"0"
	}
	
	"FilterComboBox"
	{
		"ControlName"		"ComboBox"
		"fieldName"			"FilterComboBox"
		"Font"				"HudFontSmallestBold"
		"xpos"				"c-300"
		"ypos"				"97"
		"zpos"				"1"
		"wide"				"150"
		"tall"				"15"
		"autoResize"		"0"
		"pinCorner"			"0"
		"visible"			"1"
		"enabled"			"1"
		"tabPosition"		"1"
		"textHidden"		"0"
		"editable"			"0"
		"maxchars"			"-1"
		"NumericInputOnly"	"0"
		"unicode"			"0"
		"border_override"	"ButtonBorder"
		"paintborder"		"1"
		
		"fgcolor_override"	"nüWhite"
		"bgcolor_override"	"30 30 30 255"
		"disabledFgColor_override" "nüWhite"
		"disabledBgColor_override" "30 30 30 255"
		"selectionColor_override" "30 30 30 255"
		"selectionTextColor_override" "nüWhite"
		"defaultSelectionBG2Color_override" "30 30 30 255"
	}
	
	"DataPanel"
	{
		"ControlName"	"EditablePanel"
		"fieldName"		"DataPanel"
		"xpos"			"c20"
		"ypos"			"90"
		"zpos"			"0"
		"wide"			"270"
		"tall"			"253"
		"visible"		"1"
		"PaintBackgroundType"	"0"
		"paintborder"	"1"
		"border"		"NoBorder"

		"Data_TextRichText"
		{
			"ControlName"	"CEconItemDetailsRichText"
			"fieldName"		"Data_TextRichText"
			"font"			"ScoreboardSmall"
			"labelText"		"%datatext%"
			"textAlignment"	"north-west"
			"xpos"			"5"
			"ypos"			"138"
			"wide"			"260"
			"tall"			"125"
			"autoResize"	"0"
			"pinCorner"		"0"
			"visible"		"1"
			"enabled"		"1"
			"fgcolor"		"TanLight"
			"wrap"			"1"
			"highlight_color"	"177 168 149 255"
			"itemset_color"		"216 244 9 255"
			"link_color"		"252 191 27 255"
			"image_up_arrow"				"scroll_up_off"
			"image_up_arrow_mouseover"		"scroll_up_on"
			"image_down_arrow"				"scroll_down_off"
			"image_down_arrow_mouseover"	"scroll_down_on"
			"image_line"		"ArmoryScrollbarWell"
			"image_box"			"ArmoryScrollbarBox"
		}
	}
	
	"SelectedItemModelPanel"
	{		
		"ControlName"	"CItemModelPanel"
		"fieldName"		"SelectedItemModelPanel"
		"xpos"			"c25"
		"ypos"			"100"
		"zpos"			"1"
		"wide"			"260"
		"tall"			"135"
		"visible"		"1"
		"bgcolor_override"		"0 0 0 0"
		"PaintBackgroundType"	"2"
		"paintborder"	"0"
		
		"model_hide"	"1"
		"text_center"	"1"
		"resize_to_text" "1"
		
		"itemmodelpanel"
		{
			"use_item_rendertarget" "0"
			"inventory_image_type" "1"
			"allow_rot"				"0"
		}
	}	
	"SelectedItemImageModelPanel"
	{		
		"ControlName"	"CItemModelPanel"
		"fieldName"		"SelectedItemImageModelPanel"
		"xpos"			"c-280"		// Slightly right of center, because the photo background is
		"ypos"			"220"
		"zpos"			"1"
		"wide"			"290"
		"tall"			"140"
		"visible"		"0"
		"bgcolor_override"		"0 0 0 0"
		"PaintBackgroundType"	"2"
		"paintborder"	"0"
		
		"model_ypos"	"10"
		"model_tall"	"120"
		"name_only"		"0"
		"attrib_only"	"0"
		"model_only"	"1"
		"paint_icon_hide"	"1"
		
		"itemmodelpanel"
		{
			"use_item_rendertarget" "0"
			"inventory_image_type" "1"
			"allow_rot"				"0"
		}
	}	
	
	"mouseoveritempanel"
	{
		"ControlName"	"CItemModelPanel"
		"fieldName"		"mouseoveritempanel"
		"xpos"			"c-70"
		"ypos"			"270"
		"zpos"			"10000"
		"wide"			"250"
		"tall"			"180"
		"visible"		"0"
		"bgcolor_override"		"0 0 0 0"
		"noitem_textcolor"		"117 107 94 255"
		"PaintBackgroundType"	"2"
		"paintborder"	"1"
		
		"text_ypos"			"20"
		"text_center"		"1"
		"model_hide"		"0"
		"resize_to_text"	"0"
		"padding_height"	"15"
		"name_only"			"1"
		
		"model_ypos"	"40"
		"model_xpos"	"50"
		"model_wide"	"156"
		"model_tall"	"100"
		
		"text_forcesize"	"1"
		"is_mouseover"		"1"
		
		"itemmodelpanel"
		{
			"use_item_rendertarget" "0"
			"inventory_image_type" "1"
			"allow_rot"				"0"
		}
	}
	
	"PrevPageButton"
	{
		"ControlName"	"CExButton"
		"fieldName"		"PrevPageButton"
		"xpos"			"c-88"
		"ypos"			"350"
		"zpos"			"5"
		"wide"			"20"
		"tall"			"20"
		"autoResize"	"0"
		"pinCorner"		"0"
		"visible"		"1"
		"enabled"		"1"
		"tabPosition"	"0"
		"labelText"		"&A"
		"font"			"HudFontSmallBold"
		"textAlignment"	"center"
		"dulltext"		"0"
		"brighttext"	"0"
		"Command"		"prevpage"
		"sound_depressed"	"UI/buttonclick.wav"
		"sound_released"	"UI/buttonclickrelease.wav"
	}		
	
	"CurPageLabel"
	{
		"ControlName"	"CExLabel"
		"fieldName"		"CurPageLabel"
		"font"			"HudFontSmallBold"
		"labelText"		"%thumbnailpage%"
		"textAlignment"	"center"
		"xpos"			"c-62"
		"ypos"			"350"
		"zpos"			"5"
		"wide"			"40"
		"tall"			"20"
		"autoResize"	"1"
		"pinCorner"		"0"
		"visible"		"1"
		"enabled"		"1"
		"fgcolor_override" "200 80 60 255"
	}
	
	"NextPageButton"
	{
		"ControlName"	"CExButton"
		"fieldName"		"NextPageButton"
		"xpos"			"c-17"
		"ypos"			"350"
		"zpos"			"5"
		"wide"			"20"
		"tall"			"20"
		"autoResize"	"0"
		"pinCorner"		"0"
		"visible"		"1"
		"enabled"		"1"
		"tabPosition"	"0"
		"labelText"		"&D"
		"font"			"HudFontSmallBold"
		"textAlignment"	"center"
		"dulltext"		"0"
		"brighttext"	"0"
		"Command"		"nextpage"
		"sound_depressed"	"UI/buttonclick.wav"
		"sound_released"	"UI/buttonclickrelease.wav"
	}	
		
	"WikiButton"
	{
		"ControlName"	"CExButton"
		"fieldName"		"WikiButton"
		"xpos"			"c130"
		"ypos"			"350"
		"zpos"			"20"
		"wide"			"160"
		"tall"			"20"
		"autoResize"	"0"
		"pinCorner"		"0"
		"visible"		"1"
		"enabled"		"1"
		"tabPosition"	"0"
		"labelText"		"#ArmoryButton_Wiki"
		"font"			"HudFontSmallBold"
		"textAlignment"	"center"
		"textinsetx"	"50"
		"dulltext"		"0"
		"brighttext"	"0"
		"Command"		"wiki"
		"sound_depressed"	"UI/buttonclick.wav"
		"sound_released"	"UI/buttonclickrelease.wav"
	}		
	
	"ViewSetButton"
	{
		"ControlName"	"CExButton"
		"fieldName"		"ViewSetButton"
		"xpos"			"c20"
		"ypos"			"350"
		"zpos"			"20"
		"wide"			"100"
		"tall"			"20"
		"autoResize"	"0"
		"pinCorner"		"0"
		"visible"		"1"
		"enabled"		"1"
		"tabPosition"	"0"
		"labelText"		"#ArmoryButton_SetDetails"
		"font"			"HudFontSmallBold"
		"textAlignment"	"center"
		"textinsetx"	"50"
		"dulltext"		"0"
		"brighttext"	"0"
		"Command"		"viewset"
		"sound_depressed"	"UI/buttonclick.wav"
		"sound_released"	"UI/buttonclickrelease.wav"
	}		
	
	"StoreButton"
	{
		"ControlName"	"CExButton"
		"fieldName"		"StoreButton"
		"xpos"			"c-300"
		"ypos"			"350"
		"zpos"			"20"
		"wide"			"150"
		"tall"			"20"
		"autoResize"	"0"
		"pinCorner"		"0"
		"visible"		"0"
		"enabled"		"1"
		"tabPosition"	"0"
		"labelText"		"#ArmoryButton_Store"
		"font"			"HudFontSmallBold"
		"textAlignment"	"center"
		"dulltext"		"0"
		"brighttext"	"0"
		"Command"		"openstore"
		"sound_depressed"	"UI/buttonclick.wav"
		"sound_released"	"UI/buttonclickrelease.wav"
	}		
	
	"ReloadSchemeButton"
	{
		"ControlName"	"CExButton"
		"fieldName"		"ReloadSchemeButton"
		"xpos"			"c-180"
		"ypos"			"345"
		"zpos"			"25"
		"wide"			"100"
		"tall"			"15"
		"autoResize"	"0"
		"pinCorner"		"0"
		"visible"		"0"
		"enabled"		"1"
		"tabPosition"	"0"
		"labelText"		"RELOADSCHEME"
		"font"			"HudFontSmallestBold"
		"textAlignment"	"center"
		"textinsetx"	"50"
		"dulltext"		"0"
		"brighttext"	"0"
		"Command"		"reloadscheme"
		"sound_depressed"	"UI/buttonclick.wav"
		"sound_released"	"UI/buttonclickrelease.wav"
	}
}
