#base "../../resource/extras/menu_tabs.res"

"Resource/UI/ClassSelection.res"
{
	"class"
	{
		"ControlName"	"Frame"
		"fieldName"		"class"
		"xpos"			"0"
		"ypos"			"0"
		"wide"			"f0"
		"tall"			"480"
		"autoResize"	"0"
		"pinCorner"		"0"
		"visible"		"1"
		"enabled"		"1"
		"tabPosition"	"0"
	}
	
	"SysMenu"
	{
		"ControlName"	"Menu"
		"fieldName"		"SysMenu"
		"xpos"			"0"
		"ypos"			"0"
		"wide"			"64"
		"tall"			"24"
		"autoResize"	"0"
		"pinCorner"		"0"
		"visible"		"0"
		"enabled"		"0"
		"tabPosition"	"0"
	}
	
	"MainPanelBG"
	{
		"ControlName"	"ImagePanel"
		"fieldName"		"MainPanelBG"
		"xpos"			"0"
		"ypos"			"0"
		"zpos"			"-1000"
		"wide"			"1920"
		"tall"			"1080"
		"visible"		"1"
		"enabled"		"1"
		"scaleImage"	"1"
		"fillcolor"		"15 15 15 245"
	}
	
	"TitleLabel_Class_Select"
	{
		"ControlName"	"CExLabel"
		"fieldName"		"TitleLabel_Class_Select"
		"font"			"nü16"
		"labelText"		"Class Selection"
		"textAlignment"	"west"
		"xpos"			"23"
		"ypos"			"4"
		"zpos"			"-2"
		"wide"			"100"
		"tall"			"16"
		"autoResize"	"0"
		"pinCorner"		"0"
		"visible"		"1"
		"enabled"		"1"
		"fgcolor_override"	"white"
		"auto_wide_tocontents" "1"
		"AllCaps"		"1"
	}
	
	
	"CenterAnchor"
	{
		"ControlName"	"EditablePanel"
		"fieldName"		"CenterAnchor"
		"xpos"			"c-1"
		"ypos"			"c-1"
		"zpos"			"-200"
		"wide"			"2"
		"tall"			"2"
		"visible"		"1"
		"bgcolor_override"	"255 0 0 0"
	}	
	
	"scout"
	{
		"ControlName"		"CExImageButton"
		"fieldName"			"scout"
		"xpos"				"0"
		"ypos"				"0"
		"zpos"				"6"
		"wide"				"60"
		"tall"				"60"
		"autoResize"		"0"
		"pinCorner"			"2"
		"visible"			"1"
		"enabled"			"1"
		"tabPosition"		"0"
		"labelText"			"1"	[$WIN32]
		"textAlignment"		"center"
		"Command"			"select 1"
		"font"				"nü50"	
		"scaleImage"		"1"
		"paintbackground"	"0"
		"paintbackgroundtype"	"0"
		"paintborder"		"1"
		"border_default"			"noborder"
		"border_armed"				"noborder"
		
		"fgcolor"					"grey"
		"defaultFgColor_override" 	"grey"
		"armedFgColor_override"		"white"
		"depressedFgColor_override" "white"
		"selectedFgColor_override" 	"white"
		
		"defaultBgColor_override" 	"black"
		"armedBgColor_override"		"black"
		"depressedBgColor_override" "black"
		"selectedBgColor_override" 	"black"
		
		"sound_depressed"	"UI/buttonclick.wav"
		"sound_released"	"UI/buttonclickrelease.wav"
		"sound_armed"		"UI/buttonrollover.wav"
		
		
		"stayselectedonclick"	"1"
		"Default"				"1"
		"selectonhover"			"1"
		"keyboardinputenabled"	"0"
		
		"SubImage"
		{
			"ControlName"	"ImagePanel"
			"fieldName"		"SubImage"
			"xpos"			"0"
			"ypos"			"0"
			"zpos"			"7"
			"wide"			"0"
			"tall"			"0"
			"visible"		"1"
			"enabled"		"1"
			"image"			"class_sel_sm_sniper_inactive"
			"scaleImage"	"1"
		}
		
		"pin_to_sibling" "soldier"
		"pin_corner_to_sibling" "PIN_TOPRIGHT" // Corner of this Element
		"pin_to_sibling_corner" "PIN_TOPLEFT" // Corner of Element you are pinning to

	}
	
	"soldier"
	{
		"ControlName"		"CExImageButton"
		"fieldName"			"soldier"
		"xpos"				"0"
		"ypos"				"0"
		"zpos"				"6"
		"wide"				"60"
		"tall"				"60"
		"autoResize"		"0"
		"pinCorner"			"2"
		"visible"			"1"
		"enabled"			"1"
		"tabPosition"		"0"
		"labelText"			"2"	[$WIN32]
		"textAlignment"		"center"
		"Command"			"select 3"
		"font"				"nü50"	
		"scaleImage"		"1"
		"paintbackground"	"0"
		"paintbackgroundtype"	"0"
		"paintborder"		"1"
		"border_default"			"noborder"
		"border_armed"				"noborder"
		
		"fgcolor"					"grey"
		"defaultFgColor_override" 	"grey"
		"armedFgColor_override"		"white"
		"depressedFgColor_override" "white"
		"selectedFgColor_override" 	"white"
		
		"defaultBgColor_override" 	"NavigationBar"
		"armedBgColor_override"		"NavigationBar"
		"depressedBgColor_override" "NavigationBar"
		"selectedBgColor_override" 	"NavigationBar"
		
		"sound_depressed"	"UI/buttonclick.wav"
		"sound_released"	"UI/buttonclickrelease.wav"
		"sound_armed"		"UI/buttonrollover.wav"
		
		
		"stayselectedonclick"	"1"
		"Default"				"1"
		"selectonhover"			"1"
		"keyboardinputenabled"	"0"
		
		"SubImage"
		{
			"ControlName"	"ImagePanel"
			"fieldName"		"SubImage"
			"xpos"			"0"
			"ypos"			"0"
			"zpos"			"7"
			"wide"			"0"
			"tall"			"0"
			"visible"		"1"
			"enabled"		"1"
			"image"			"class_sel_sm_sniper_inactive"
			"scaleImage"	"1"
		}
		
		"pin_to_sibling" "pyro"
		"pin_corner_to_sibling" "PIN_TOPRIGHT" // Corner of this Element
		"pin_to_sibling_corner" "PIN_TOPLEFT" // Corner of Element you are pinning to
	}
	
	"pyro"
	{
		"ControlName"		"CExImageButton"
		"fieldName"			"pyro"
		"xpos"				"0"
		"ypos"				"0"
		"zpos"				"6"
		"wide"				"60"
		"tall"				"60"
		"autoResize"		"0"
		"pinCorner"			"2"
		"visible"			"1"
		"enabled"			"1"
		"tabPosition"		"0"
		"labelText"			"3"	[$WIN32]
		"textAlignment"		"center"
		"Command"			"select 7"
		"font"				"nü50"	
		"scaleImage"		"1"
		"paintbackground"	"0"
		"paintbackgroundtype"	"0"
		"paintborder"		"1"
		"border_default"			"noborder"
		"border_armed"				"noborder"
		
		"fgcolor"					"grey"
		"defaultFgColor_override" 	"grey"
		"armedFgColor_override"		"white"
		"depressedFgColor_override" "white"
		"selectedFgColor_override" 	"white"
		
		"defaultBgColor_override" 	"black"
		"armedBgColor_override"		"black"
		"depressedBgColor_override" "black"
		"selectedBgColor_override" 	"black"
		
		"sound_depressed"	"UI/buttonclick.wav"
		"sound_released"	"UI/buttonclickrelease.wav"
		"sound_armed"		"UI/buttonrollover.wav"
		
		
		"stayselectedonclick"	"1"
		"Default"				"1"
		"selectonhover"			"1"
		"keyboardinputenabled"	"0"
		
		"SubImage"
		{
			"ControlName"	"ImagePanel"
			"fieldName"		"SubImage"
			"xpos"			"0"
			"ypos"			"0"
			"zpos"			"7"
			"wide"			"0"
			"tall"			"0"
			"visible"		"1"
			"enabled"		"1"
			"image"			"class_sel_sm_sniper_inactive"
			"scaleImage"	"1"
		}
		
		"pin_to_sibling" "demoman"
		"pin_corner_to_sibling" "PIN_TOPRIGHT" // Corner of this Element
		"pin_to_sibling_corner" "PIN_TOPLEFT" // Corner of Element you are pinning to
	}
	
	
	"demoman"
	{
		"ControlName"		"CExImageButton"
		"fieldName"			"demoman"
		"xpos"				"0"
		"ypos"				"0"
		"zpos"				"6"
		"wide"				"60"
		"tall"				"60"
		"autoResize"		"0"
		"pinCorner"			"2"
		"visible"			"1"
		"enabled"			"1"
		"tabPosition"		"0"
		"labelText"			"4"	[$WIN32]
		"textAlignment"		"center"
		"Command"			"select 4"
		"font"				"nü50"	
		"scaleImage"		"1"
		"paintbackground"	"0"
		"paintbackgroundtype"	"0"
		"paintborder"		"1"
		"border_default"			"noborder"
		"border_armed"				"noborder"
		
		"fgcolor"					"grey"
		"defaultFgColor_override" 	"grey"
		"armedFgColor_override"		"white"
		"depressedFgColor_override" "white"
		"selectedFgColor_override" 	"white"
		
		"defaultBgColor_override" 	"NavigationBar"
		"armedBgColor_override"		"NavigationBar"
		"depressedBgColor_override" "NavigationBar"
		"selectedBgColor_override" 	"NavigationBar"
		
		"sound_depressed"	"UI/buttonclick.wav"
		"sound_released"	"UI/buttonclickrelease.wav"
		"sound_armed"		"UI/buttonrollover.wav"
		
		
		"stayselectedonclick"	"1"
		"Default"				"1"
		"selectonhover"			"1"
		"keyboardinputenabled"	"0"
		
		"SubImage"
		{
			"ControlName"	"ImagePanel"
			"fieldName"		"SubImage"
			"xpos"			"0"
			"ypos"			"0"
			"zpos"			"7"
			"wide"			"0"
			"tall"			"0"
			"visible"		"1"
			"enabled"		"1"
			"image"			"class_sel_sm_sniper_inactive"
			"scaleImage"	"1"
		}
		
		"pin_to_sibling" "heavyweapons"
		"pin_corner_to_sibling" "PIN_TOPRIGHT" // Corner of this Element
		"pin_to_sibling_corner" "PIN_TOPLEFT" // Corner of Element you are pinning to
	}	
	"heavyweapons"
	{
		"ControlName"		"CExImageButton"
		"fieldName"			"heavyweapons"
		"xpos"				"0"
		"ypos"				"34"
		"zpos"				"6"
		"wide"				"60"
		"tall"				"60"
		"autoResize"		"0"
		"pinCorner"			"2"
		"visible"			"1"
		"enabled"			"1"
		"tabPosition"		"0"
		"labelText"			"5"	[$WIN32]
		"textAlignment"		"center"
		"Command"			"select 6"
		"font"				"nü50"	
		"scaleImage"		"1"
		"paintbackground"	"0"
		"paintbackgroundtype"	"0"
		"paintborder"		"1"
		"border_default"			"noborder"
		"border_armed"				"noborder"
		
		"fgcolor"					"grey"
		"defaultFgColor_override" 	"grey"
		"armedFgColor_override"		"white"
		"depressedFgColor_override" "white"
		"selectedFgColor_override" 	"white"
		
		"defaultBgColor_override" 	"black"
		"armedBgColor_override"		"black"
		"depressedBgColor_override" "black"
		"selectedBgColor_override" 	"black"
		
		"sound_depressed"	"UI/buttonclick.wav"
		"sound_released"	"UI/buttonclickrelease.wav"
		"sound_armed"		"UI/buttonrollover.wav"
		
		
		"stayselectedonclick"	"1"
		"Default"				"1"
		"selectonhover"			"1"
		"keyboardinputenabled"	"0"
		
		"SubImage"
		{
			"ControlName"	"ImagePanel"
			"fieldName"		"SubImage"
			"xpos"			"0"
			"ypos"			"0"
			"zpos"			"7"
			"wide"			"0"
			"tall"			"0"
			"visible"		"1"
			"enabled"		"1"
			"image"			"class_sel_sm_sniper_inactive"
			"scaleImage"	"1"
		}
		
		"pin_to_sibling" "CenterAnchor"
		"pin_corner_to_sibling" "6" // Corner of this Element
		"pin_to_sibling_corner" "6" // Corner of Element you are pinning to
	}
	"engineer"
	{
		"ControlName"		"CExImageButton"
		"fieldName"			"engineer"
		"xpos"				"0"
		"ypos"				"0"
		"zpos"				"10"
		"wide"				"60"
		"tall"				"60"
		"autoResize"		"0"
		"pinCorner"			"2"
		"visible"			"1"
		"enabled"			"1"
		"tabPosition"		"0"
		"labelText"			"6"	[$WIN32]
		"textAlignment"		"center"
		"Command"			"select 9"
		"font"				"nü50"	
		"scaleImage"		"1"
		"paintbackground"	"0"
		"paintbackgroundtype"	"0"
		"paintborder"		"1"
		"border_default"			"noborder"
		"border_armed"				"noborder"
		
		"fgcolor"					"grey"
		"defaultFgColor_override" 	"grey"
		"armedFgColor_override"		"white"
		"depressedFgColor_override" "white"
		"selectedFgColor_override" 	"white"
		
		"defaultBgColor_override" 	"NavigationBar"
		"armedBgColor_override"		"NavigationBar"
		"depressedBgColor_override" "NavigationBar"
		"selectedBgColor_override" 	"NavigationBar"
		
		"sound_depressed"	"UI/buttonclick.wav"
		"sound_released"	"UI/buttonclickrelease.wav"
		"sound_armed"		"UI/buttonrollover.wav"
		
		
		"stayselectedonclick"	"1"
		"Default"				"1"
		"selectonhover"			"1"
		"keyboardinputenabled"	"0"
		
		"SubImage"
		{
			"ControlName"	"ImagePanel"
			"fieldName"		"SubImage"
			"xpos"			"0"
			"ypos"			"0"
			"zpos"			"7"
			"wide"			"0"
			"tall"			"0"
			"visible"		"1"
			"enabled"		"1"
			"image"			"class_sel_sm_sniper_inactive"
			"scaleImage"	"1"
		}
		
		"pin_to_sibling" "heavyweapons"
		"pin_corner_to_sibling" "PIN_TOPLEFT" // Corner of this Element
		"pin_to_sibling_corner" "PIN_TOPRIGHT" // Corner of Element you are pinning to
	}	
	
	"medic"
	{
		"ControlName"		"CExImageButton"
		"fieldName"			"medic"
		"xpos"				"0"
		"ypos"				"0"
		"zpos"				"10"
		"wide"				"60"
		"tall"				"60"
		"autoResize"		"0"
		"pinCorner"			"2"
		"visible"			"1"
		"enabled"			"1"
		"tabPosition"		"0"
		"labelText"			"7"	[$WIN32]
		"textAlignment"		"center"
		"Command"			"select 5"
		"font"				"nü50"	
		"scaleImage"		"1"
		"paintbackground"	"0"
		"paintbackgroundtype"	"0"
		"paintborder"		"1"
		"border_default"			"noborder"
		"border_armed"				"noborder"
		
		"fgcolor"					"grey"
		"defaultFgColor_override" 	"grey"
		"armedFgColor_override"		"white"
		"depressedFgColor_override" "white"
		"selectedFgColor_override" 	"white"
		
		"defaultBgColor_override" 	"black"
		"armedBgColor_override"		"black"
		"depressedBgColor_override" "black"
		"selectedBgColor_override" 	"black"
		
		"sound_depressed"	"UI/buttonclick.wav"
		"sound_released"	"UI/buttonclickrelease.wav"
		"sound_armed"		"UI/buttonrollover.wav"
		
		
		"stayselectedonclick"	"1"
		"Default"				"1"
		"selectonhover"			"1"
		"keyboardinputenabled"	"0"
		
		"SubImage"
		{
			"ControlName"	"ImagePanel"
			"fieldName"		"SubImage"
			"xpos"			"0"
			"ypos"			"0"
			"zpos"			"7"
			"wide"			"0"
			"tall"			"0"
			"visible"		"1"
			"enabled"		"1"
			"image"			"class_sel_sm_sniper_inactive"
			"scaleImage"	"1"
		}
		
		"pin_to_sibling" "engineer"
		"pin_corner_to_sibling" "PIN_TOPLEFT" // Corner of this Element
		"pin_to_sibling_corner" "PIN_TOPRIGHT" // Corner of Element you are pinning to
	}	
	"sniper"
	{
		"ControlName"		"CExImageButton"
		"fieldName"			"sniper"
		"xpos"				"0"
		"ypos"				"0"
		"zpos"				"10"
		"wide"				"60"
		"tall"				"60"
		"autoResize"		"0"
		"pinCorner"			"2"
		"visible"			"1"
		"enabled"			"1"
		"tabPosition"		"0"
		"labelText"			"8"	[$WIN32]
		"textAlignment"		"center"
		"Command"			"select 2"
		"font"				"nü50"	
		"scaleImage"		"1"
		"paintbackground"	"0"
		"paintbackgroundtype"	"0"
		"paintborder"		"1"
		"border_default"			"noborder"
		"border_armed"				"noborder"
		
		"fgcolor"					"grey"
		"defaultFgColor_override" 	"grey"
		"armedFgColor_override"		"white"
		"depressedFgColor_override" "white"
		"selectedFgColor_override" 	"white"
		
		"defaultBgColor_override" 	"NavigationBar"
		"armedBgColor_override"		"NavigationBar"
		"depressedBgColor_override" "NavigationBar"
		"selectedBgColor_override" 	"NavigationBar"
		
		"sound_depressed"	"UI/buttonclick.wav"
		"sound_released"	"UI/buttonclickrelease.wav"
		"sound_armed"		"UI/buttonrollover.wav"
		
		
		"stayselectedonclick"	"1"
		"Default"				"1"
		"selectonhover"			"1"
		"keyboardinputenabled"	"0"
		
		"SubImage"
		{
			"ControlName"	"ImagePanel"
			"fieldName"		"SubImage"
			"xpos"			"0"
			"ypos"			"0"
			"zpos"			"7"
			"wide"			"0"
			"tall"			"0"
			"visible"		"1"
			"enabled"		"1"
			"image"			"class_sel_sm_sniper_inactive"
			"scaleImage"	"1"
		}
		
		"pin_to_sibling" "medic"
		"pin_corner_to_sibling" "PIN_TOPLEFT" // Corner of this Element
		"pin_to_sibling_corner" "PIN_TOPRIGHT" // Corner of Element you are pinning to
	}	
	"spy"
	{
		"ControlName"		"CExImageButton"
		"fieldName"			"spy"
		"xpos"				"0"
		"ypos"				"0"
		"zpos"				"10"
		"wide"				"60"
		"tall"				"60"
		"autoResize"		"0"
		"pinCorner"			"2"
		"visible"			"1"
		"enabled"			"1"
		"tabPosition"		"0"
		"labelText"			"9"	[$WIN32]
		"textAlignment"		"center"
		"Command"			"select 8"
		"font"				"nü50"	
		"scaleImage"		"1"
		"paintbackground"	"0"
		"paintbackgroundtype"	"0"
		"paintborder"		"1"
		"border_default"			"noborder"
		"border_armed"				"noborder"
		
		"fgcolor"					"grey"
		"defaultFgColor_override" 	"grey"
		"armedFgColor_override"		"white"
		"depressedFgColor_override" "white"
		"selectedFgColor_override" 	"white"
		
		"defaultBgColor_override" 	"black"
		"armedBgColor_override"		"black"
		"depressedBgColor_override" "black"
		"selectedBgColor_override" 	"black"
		
		"sound_depressed"	"UI/buttonclick.wav"
		"sound_released"	"UI/buttonclickrelease.wav"
		"sound_armed"		"UI/buttonrollover.wav"
		
		
		"stayselectedonclick"	"1"
		"Default"				"1"
		"selectonhover"			"1"
		"keyboardinputenabled"	"0"
		
		"SubImage"
		{
			"ControlName"	"ImagePanel"
			"fieldName"		"SubImage"
			"xpos"			"0"
			"ypos"			"0"
			"zpos"			"7"
			"wide"			"0"
			"tall"			"0"
			"visible"		"1"
			"enabled"		"1"
			"image"			"class_sel_sm_sniper_inactive"
			"scaleImage"	"1"
		}
		
		"pin_to_sibling" "sniper"
		"pin_corner_to_sibling" "PIN_TOPLEFT" // Corner of this Element
		"pin_to_sibling_corner" "PIN_TOPRIGHT" // Corner of Element you are pinning to
	}

	"CancelButton" [$WIN32] 
	{
		"ControlName"	"CExButton"
		"fieldName"		"CancelButton"
		"xpos"			"r63"
		"ypos"			"2"
		"zpos"			"6"
		"wide"			"60"
		"tall"			"20"
		"autoResize"	"0"
		"pinCorner"		"2"
		"visible"		"1"
		"enabled"		"1"
		"tabPosition"	"0"
		"labelText"		"Cancel"
		"textAlignment"	"center"
		"Command"		"vguicancel"
		"font"			"Size 11"
		"fgcolor_override" "200 80 60 255"
		
		"AllCaps"			"1"
		"border_default"	"ButtonDefaultLight"
		"border_armed"		"ButtonHoverLight"
		"paintborder"		"1"
		"paintbackground"	"0"
	}
	
	"random"
	{
		"ControlName"		"CExImageButton"
		"fieldName"			"random"
		"xpos"				"r-10"
		"xpos_lodef"				"r-10"
		"xpos_hidef"				"r-10"
		"ypos"				"0"
		"ypos_lodef"				"0"
		"ypos_hidef"				"0"
		"zpos"				"6"
		"wide"				"50"
		"tall"				"100"
		"autoResize"		"0"
		"pinCorner"			"2"
		"visible"			"1"
		"enabled"			"1"
		"tabPosition"		"0"
		"labelText"			""
		"textAlignment"		"south-west"
		"Command"			"select 12"
		"Default"			"1"
		"font"				"nü18"
		"scaleImage"		"1"
		
		"image_default"		"class_sel_sm_random_inactive"
		"image_armed"		"class_sel_sm_random_inactive"
		
		"fgcolor"			"TanDark"
		"defaultFgColor_override" "TanDark"
		"armedFgColor_override" "TanDark"
		"depressedFgColor_override" "TanDark"
		
		"sound_depressed"	"UI/buttonclick.wav"
		"sound_released"	"UI/buttonclickrelease.wav"
		"sound_armed"		"UI/buttonrollover.wav"
		
		"image_drawcolor"		"255 255 255 180"
		"image_armedcolor"		"255 255 255 255"
		"image_selectedcolor"	"255 255 255 255"
		
		"stayselectedonclick"	"1"
		"selectonhover"			"1"
		"keyboardinputenabled"	"0"
		
		"AllCaps"			"1"
		"border_default"	"ButtonDefaultLight"
		"border_armed"		"ButtonHoverLight"
		"paintborder"		"1"
		"paintbackground"	"0"
		
		"SubImage"
		{
			"ControlName"	"ImagePanel"
			"fieldName"		"SubImage"
			"xpos"			"0"
			"ypos"			"0"
			"zpos"			"7"
			"wide"			"0"
			"tall"			"0"
			"visible"		"0"
			"enabled"		"1"
			"image"			"class_sel_sm_random_inactive"
			"scaleImage"	"1"
		}				
	}
	
	"EditLoadoutButton" [$WIN32] 
	{
		"ControlName"	"CExButton"
		"fieldName"		"EditLoadoutButton"
		"xpos"			"0"
		"ypos"			"0"
		"zpos"			"6"
		"wide"			"60"
		"tall"			"20"
		"autoResize"	"0"
		"pinCorner"		"2"
		"visible"		"1"
		"enabled"		"1"
		"tabPosition"	"0"
		"labelText"		"Loadout"
		"textAlignment"	"center"
		"Command"		"openloadout"
		"font"			"Size 11"
		
		"AllCaps"			"1"
		"border_default"	"ButtonDefaultLight"
		"border_armed"		"ButtonHoverLight"
		"paintborder"		"1"
		"paintbackground"	"0"
		
		"pin_to_sibling" "CancelButton"
		"pin_corner_to_sibling" "PIN_TOPRIGHT" // Corner of this Element
		"pin_to_sibling_corner" "PIN_TOPLEFT" // Corner of Element you are pinning to
	}
	
	"Random_Custom" [$WIN32] 
	{
		"ControlName"	"CExButton"
		"fieldName"		"Random_Custom"
		"xpos"			"0"
		"ypos"			"0"
		"zpos"			"6"
		"wide"			"60"
		"tall"			"20"
		"autoResize"	"0"
		"pinCorner"		"2"
		"visible"		"1"
		"enabled"		"1"
		"tabPosition"	"0"
		"labelText"		"Random"
		"textAlignment"	"center"
		"Command"		"select 12"
		"font"			"nü12"
		
		"AllCaps"			"1"
		"border_default"	"ButtonDefaultLight"
		"border_armed"		"ButtonHoverLight"
		"paintborder"		"1"
		"paintbackground"	"0"
		
		"pin_to_sibling" "EditLoadoutButton"
		"pin_corner_to_sibling" "PIN_TOPRIGHT" // Corner of this Element
		"pin_to_sibling_corner" "PIN_TOPLEFT" // Corner of Element you are pinning to
	}

	

	"ClassMenuSelect"
	{
		"ControlName"	"CExLabel"
		"fieldName"		"ClassMenuSelect"
		"xpos"			"30"
		"xpos_lodef"			"62"
		"xpos_hidef"			"72"
		"ypos"			"r40"
		"ypos_lodef"			"r60"
		"ypos_hidef"			"r54"
		"zpos"			"5"
		"wide"			"450"
		"tall"			"30"
		"autoResize"	"0"
		"pinCorner"		"0"
		"visible"		"1"
		"visible_lodef"	"0"
		"enabled"		"1"
		"labelText"		"#TF_SelectAClass"
		"textAlignment"	"west"
		"font"			"MenuMainTitle"
		"fgcolor"		"HudOffWhite"
	}
	
	"MenuBG"
	{
		"ControlName"	"CModelPanel"
		"fieldName"		"MenuBG"
		"xpos"			"r-10"
		"ypos"			"0"
		"zpos"			"0"		
		"wide"			"f0"
		"tall"			"480"
		"autoResize"	"0"
		"pinCorner"		"0"
		"visible"		"0"
		"enabled"		"1"
		"fov"			"16"
		
		"model"
		{
			"modelname"	"models/vgui/UI_class01.mdl"
			"skin"		"0"
			"angles_x" "0"
			"angles_y" "180"
			"angles_z" "0"
			"origin_x" "365"
			"origin_x_lodef" "415"
			"origin_x_hidef" "380"
			"origin_y" "0"
			"origin_z" "-40"
		}
	}	

	"Hint"
	{	
		"ControlName"	"CExLabel"
		"fieldName"		"Hint"
		"xpos"			"c-300"
		"xpos_hidef"	"c-287"
		"xpos_lodef"	"c-260"
		"ypos"			"95"
		"ypos_hidef"	"101"
		"ypos_lodef"	"115"
		"zpos"			"2"
		"wide"			"600"
		"tall"			"50"
		"tall_lodef"	"30"
		"autoResize"	"1"
		"pinCorner"		"2"
		"visible"		"0"
		"enabled"		"1"
		"tabPosition"	"0"
		"labelText"		"%hint%"
		"textAlignment"	"left"
		"wrap"			"1"
		"font"			"HudFontMediumSmallSecondary"
		"font_lodef"	"HudFontMediumSmallSecondary"
		"fgcolor"		"HudTrainingHint"
		"fgcolor_lodef"	"HudTrainingHint"
	}
	
	"ShadedBar"
	{
		"ControlName"	"ImagePanel"
		"fieldName"		"ShadedBar"
		"xpos"			"0"
		"ypos"			"r50"
		"ypos_lodef"			"r74"
		"ypos_hidef"			"r65"
		"zpos"			"4"
		"wide"			"f0"
		"tall"			"50"
		"tall_lodef"			"74"
		"tall_hidef"			"65"
		"autoResize"	"0"
		"pinCorner"		"0"
		"visible"		"0"
		"enabled"		"1"
		"tabPosition"	"0"	
		"image"			"loadout_bottom_gradient"
		"tileImage"		"1"
		"PaintBackgroundType"	"0"
	}		
	
	"Footer" [$X360]
	{
		"ControlName"		"CTFFooter"
		"fieldName"			"Footer"
		"zpos"				"6"
		"tall"				"80"
		"button_separator"	"10"
		"button_separator_lodef"	"5"
		"buttongap"			"50"
		"buttongap_hidef"		"35"
		"buttongap_lodef"			"18"
		"textadjust"		"3"
		"textadjust_lodef"		"0"
		"buttonoffsety"		"20"
		"buttonoffsety_hidef"		"0"
		"buttonoffsety_lodef"		"18"
		"center"			"0"
		"button_pin_right_lodef"	"55"
		"fonttext"			"MatchmakingDialogMenuLarge"
		"fonttext_lodef"			"MatchmakingDialogMenuSmall"
		"fgcolor"			"HudOffWhite" 	
		
		"button"
		{
			"name"		"cancel"
			"text"		"#GameUI_Cancel"
			"icon"		"#GameUI_Icons_B_BUTTON"	
		}
		
		"button"
		{
			"name"		"nextprev"
			"text"		"#TF_NextPrev"
			"icon"		"#GameUI_Icons_DPAD"	
		}				
		
		"button"
		{
			"name"		"select"
			"text"		"#GameUI_Select"
			"icon"		"#GameUI_Icons_A_BUTTON"	
		}
	}
	
	"localPlayerImage" [$WIN32]
	{
		"ControlName"	"CTFImagePanel"
		"fieldName"		"localPlayerImage"
		"xpos"			"r-10"
		"ypos"			"330"
		"zpos"			"9"
		"wide"			"45"
		"tall"			"90"
		"visible"		"0"
		"enabled"		"1"
		"image"			""	
		"scaleImage"	"1"	
	}
	
	"localPlayerBG"
	{
		"ControlName"	"CTFImagePanel"
		"fieldName"		"localPlayerBG"
		"xpos"			"r-10"
		"ypos"			"345"
		"zpos"			"2"
		"wide"			"55"
		"tall"			"80"
		"autoResize"	"0"
		"pinCorner"		"0"
		"visible"		"0"
		"enabled"		"1"
		"image"			"../hud/color_panel_clear"
		"scaleImage"	"1"	
		"teambg_2"		"../hud/color_panel_clear"
		"teambg_3"		"../hud/color_panel_clear"
			
		"src_corner_height"		"23"			// pixels inside the image
		"src_corner_width"		"23"
				
		"draw_corner_width"		"5"				// screen size of the corners ( and sides ), proportional
		"draw_corner_height" 	"5"	
	}
	
	"countImage0" [$WIN32]
	{
		"ControlName"	"CTFImagePanel"
		"fieldName"		"countImage0"
		"xpos"			"r-10"
		"ypos"			"345"
		"zpos"			"9"
		"wide"			"30"
		"tall"			"60"
		"visible"		"0"
		"enabled"		"1"
		"image"			""	
		"scaleImage"	"1"	
	}							
	
	"countImage1" [$WIN32]
	{
		"ControlName"	"CTFImagePanel"
		"fieldName"		"countImage1"
		"xpos"			"r-10"
		"ypos"			"345"
		"zpos"			"9"
		"wide"			"30"
		"tall"			"60"
		"visible"		"0"
		"enabled"		"1"
		"image"			""	
		"scaleImage"	"1"	
	}
	
	"countImage2" [$WIN32]
	{
		"ControlName"	"CTFImagePanel"
		"fieldName"		"countImage2"
		"xpos"			"r-10"
		"ypos"			"345"
		"zpos"			"9"
		"wide"			"30"
		"tall"			"60"
		"visible"		"0"
		"enabled"		"1"
		"image"			""	
		"scaleImage"	"1"	
	}
	
	"countImage3" [$WIN32]
	{
		"ControlName"	"CTFImagePanel"
		"fieldName"		"countImage3"
		"xpos"			"r-10"
		"ypos"			"345"
		"zpos"			"9"
		"wide"			"30"
		"tall"			"60"
		"visible"		"0"
		"enabled"		"1"
		"image"			""	
		"scaleImage"	"1"	
	}
	
	"countImage4" [$WIN32]
	{
		"ControlName"	"CTFImagePanel"
		"fieldName"		"countImage4"
		"xpos"			"r-10"
		"ypos"			"345"
		"zpos"			"9"
		"wide"			"30"
		"tall"			"60"
		"visible"		"0"
		"enabled"		"1"
		"image"			""	
		"scaleImage"	"1"	
	}
	
	"countImage5" [$WIN32]
	{
		"ControlName"	"CTFImagePanel"
		"fieldName"		"countImage5"
		"xpos"			"r-10"
		"ypos"			"345"
		"zpos"			"9"
		"wide"			"30"
		"tall"			"60"
		"visible"		"0"
		"enabled"		"1"
		"image"			""	
		"scaleImage"	"1"	
	}
	
	"countImage6" [$WIN32]
	{
		"ControlName"	"CTFImagePanel"
		"fieldName"		"countImage6"
		"xpos"			"r-10"
		"ypos"			"345"
		"zpos"			"9"
		"wide"			"30"
		"tall"			"60"
		"visible"		"0"
		"enabled"		"1"
		"image"			""	
		"scaleImage"	"1"	
	}
	
	"countImage7" [$WIN32]
	{
		"ControlName"	"CTFImagePanel"
		"fieldName"		"countImage7"
		"xpos"			"r-10"
		"ypos"			"345"
		"zpos"			"9"
		"wide"			"30"
		"tall"			"60"
		"visible"		"0"
		"enabled"		"1"
		"image"			""	
		"scaleImage"	"1"	
	}
	
	"countImage8" [$WIN32]
	{
		"ControlName"	"CTFImagePanel"
		"fieldName"		"countImage8"
		"xpos"			"r-10"
		"ypos"			"345"
		"zpos"			"9"
		"wide"			"30"
		"tall"			"60"
		"visible"		"0"
		"enabled"		"1"
		"image"			""	
		"scaleImage"	"1"	
	}
	
	"countImage9" [$WIN32]
	{
		"ControlName"	"CTFImagePanel"
		"fieldName"		"countImage9"
		"xpos"			"r-10"
		"ypos"			"345"
		"zpos"			"9"
		"wide"			"30"
		"tall"			"60"
		"visible"		"0"
		"enabled"		"1"
		"image"			""	
		"scaleImage"	"1"	
	}
	
	"countImage10" [$WIN32]
	{
		"ControlName"	"CTFImagePanel"
		"fieldName"		"countImage10"
		"xpos"			"r-10"
		"ypos"			"345"
		"zpos"			"9"
		"wide"			"30"
		"tall"			"60"
		"visible"		"0"
		"enabled"		"1"
		"image"			""	
		"scaleImage"	"1"	
	}
	
	"CountLabel" [$WIN32]
	{
		"ControlName"	"CExLabel"
		"fieldName"		"CountLabel"
		"xpos"			"r-10"
		"ypos"			"402"
		"zpos"			"10"
		"wide"			"150"
		"tall"			"18"
		"autoResize"	"1"
		"pinCorner"		"2"
		"visible"		"1"
		"enabled"		"1"
		"tabPosition"	"0"
		"labelText"		"#TF_TeamCount"
		"textAlignment"	"left"
		"font"			"HudFontMediumSmallSecondary"
		"fgcolor"		"TanLight"
	}
	
	"ScoutBlur" [$WIN32]
	{
		"ControlName"	"CExLabel"
		"fieldName"		"ScoutBlur"
		"xpos"			"0"
		"ypos"			"0"
		"zpos"			"3"
		"wide"			"60"
		"tall"			"60"
		"autoResize"	"1"
		"pinCorner"		"2"
		"visible"		"1"
		"enabled"		"1"
		"tabPosition"	"0"
		"labelText"		"1"
		"textAlignment"	"center"
		"font"			"nüShadow50"
		"fgcolor"		"black"
		
		"pin_to_sibling" "scout"
		"pin_corner_to_sibling" "PIN_TOPLEFT" // Corner of this Element
		"pin_to_sibling_corner" "PIN_TOPLEFT" // Corner of Element you are pinning to
	}
	
	"SoldierBlur" [$WIN32]
	{
		"ControlName"	"CExLabel"
		"fieldName"		"SoldierBlur"
		"xpos"			"0"
		"ypos"			"0"
		"zpos"			"3"
		"wide"			"60"
		"tall"			"60"
		"autoResize"	"1"
		"pinCorner"		"2"
		"visible"		"1"
		"enabled"		"1"
		"tabPosition"	"0"
		"labelText"		"2"
		"textAlignment"	"center"
		"font"			"nüShadow50"
		"fgcolor"		"black"
		
		"pin_to_sibling" "ScoutBlur"
		"pin_corner_to_sibling" "PIN_TOPLEFT" // Corner of this Element
		"pin_to_sibling_corner" "PIN_TOPRIGHT" // Corner of Element you are pinning to
	}
	
	"PyroBlur" [$WIN32]
	{
		"ControlName"	"CExLabel"
		"fieldName"		"PyroBlur"
		"xpos"			"0"
		"ypos"			"0"
		"zpos"			"3"
		"wide"			"60"
		"tall"			"60"
		"autoResize"	"1"
		"pinCorner"		"2"
		"visible"		"1"
		"enabled"		"1"
		"tabPosition"	"0"
		"labelText"		"3"
		"textAlignment"	"center"
		"font"			"nüShadow50"
		"fgcolor"		"black"
		
		"pin_to_sibling" "SoldierBlur"
		"pin_corner_to_sibling" "PIN_TOPLEFT" // Corner of this Element
		"pin_to_sibling_corner" "PIN_TOPRIGHT" // Corner of Element you are pinning to
	}
	
	"DemoBlur" [$WIN32]
	{
		"ControlName"	"CExLabel"
		"fieldName"		"DemoBlur"
		"xpos"			"0"
		"ypos"			"0"
		"zpos"			"3"
		"wide"			"60"
		"tall"			"60"
		"autoResize"	"1"
		"pinCorner"		"2"
		"visible"		"1"
		"enabled"		"1"
		"tabPosition"	"0"
		"labelText"		"4"
		"textAlignment"	"center"
		"font"			"nüShadow50"
		"fgcolor"		"black"
		
		"pin_to_sibling" "PyroBlur"
		"pin_corner_to_sibling" "PIN_TOPLEFT" // Corner of this Element
		"pin_to_sibling_corner" "PIN_TOPRIGHT" // Corner of Element you are pinning to
	}
	
	"HeavyBlur" [$WIN32]
	{
		"ControlName"	"CExLabel"
		"fieldName"		"HeavyBlur"
		"xpos"			"0"
		"ypos"			"0"
		"zpos"			"3"
		"wide"			"60"
		"tall"			"60"
		"autoResize"	"1"
		"pinCorner"		"2"
		"visible"		"1"
		"enabled"		"1"
		"tabPosition"	"0"
		"labelText"		"5"
		"textAlignment"	"center"
		"font"			"nüShadow50"
		"fgcolor"		"black"
		
		"pin_to_sibling" "DemoBlur"
		"pin_corner_to_sibling" "PIN_TOPLEFT" // Corner of this Element
		"pin_to_sibling_corner" "PIN_TOPRIGHT" // Corner of Element you are pinning to
	}
	
	"EngieBlur" [$WIN32]
	{
		"ControlName"	"CExLabel"
		"fieldName"		"EngieBlur"
		"xpos"			"0"
		"ypos"			"0"
		"zpos"			"3"
		"wide"			"60"
		"tall"			"60"
		"autoResize"	"1"
		"pinCorner"		"2"
		"visible"		"1"
		"enabled"		"1"
		"tabPosition"	"0"
		"labelText"		"6"
		"textAlignment"	"center"
		"font"			"nüShadow50"
		"fgcolor"		"black"
		
		"pin_to_sibling" "HeavyBlur"
		"pin_corner_to_sibling" "PIN_TOPLEFT" // Corner of this Element
		"pin_to_sibling_corner" "PIN_TOPRIGHT" // Corner of Element you are pinning to
	}
	
	"MedicBlur" [$WIN32]
	{
		"ControlName"	"CExLabel"
		"fieldName"		"MedicBlur"
		"xpos"			"0"
		"ypos"			"0"
		"zpos"			"3"
		"wide"			"60"
		"tall"			"60"
		"autoResize"	"1"
		"pinCorner"		"2"
		"visible"		"1"
		"enabled"		"1"
		"tabPosition"	"0"
		"labelText"		"7"
		"textAlignment"	"center"
		"font"			"nüShadow50"
		"fgcolor"		"black"
		
		"pin_to_sibling" "EngieBlur"
		"pin_corner_to_sibling" "PIN_TOPLEFT" // Corner of this Element
		"pin_to_sibling_corner" "PIN_TOPRIGHT" // Corner of Element you are pinning to
	}
	
	"SniperBlur" [$WIN32]
	{
		"ControlName"	"CExLabel"
		"fieldName"		"SniperBlur"
		"xpos"			"0"
		"ypos"			"0"
		"zpos"			"3"
		"wide"			"60"
		"tall"			"60"
		"autoResize"	"1"
		"pinCorner"		"2"
		"visible"		"1"
		"enabled"		"1"
		"tabPosition"	"0"
		"labelText"		"8"
		"textAlignment"	"center"
		"font"			"nüShadow50"
		"fgcolor"		"black"
		
		"pin_to_sibling" "MedicBlur"
		"pin_corner_to_sibling" "PIN_TOPLEFT" // Corner of this Element
		"pin_to_sibling_corner" "PIN_TOPRIGHT" // Corner of Element you are pinning to
	}
	
	"SpyBlur" [$WIN32]
	{
		"ControlName"	"CExLabel"
		"fieldName"		"SpyBlur"
		"xpos"			"0"
		"ypos"			"0"
		"zpos"			"3"
		"wide"			"60"
		"tall"			"60"
		"autoResize"	"1"
		"pinCorner"		"2"
		"visible"		"1"
		"enabled"		"1"
		"tabPosition"	"0"
		"labelText"		"9"
		"textAlignment"	"center"
		"font"			"nüShadow50"
		"fgcolor"		"black"
		
		"pin_to_sibling" "SniperBlur"
		"pin_corner_to_sibling" "PIN_TOPLEFT" // Corner of this Element
		"pin_to_sibling_corner" "PIN_TOPRIGHT" // Corner of Element you are pinning to
	}
	
	"ScoutBlur2" [$WIN32]
	{
		"ControlName"	"CExLabel"
		"fieldName"		"ScoutBlur2"
		"xpos"			"0"
		"ypos"			"0"
		"zpos"			"2"
		"wide"			"60"
		"tall"			"60"
		"autoResize"	"1"
		"pinCorner"		"2"
		"visible"		"1"
		"enabled"		"1"
		"tabPosition"	"0"
		"labelText"		"1"
		"textAlignment"	"center"
		"font"			"nüShadow50"
		"fgcolor"		"black"
		
		"pin_to_sibling" "scout"
		"pin_corner_to_sibling" "PIN_TOPLEFT" // Corner of this Element
		"pin_to_sibling_corner" "PIN_TOPLEFT" // Corner of Element you are pinning to
	}
	
	"SoldierBlur2" [$WIN32]
	{
		"ControlName"	"CExLabel"
		"fieldName"		"SoldierBlur2"
		"xpos"			"0"
		"ypos"			"0"
		"zpos"			"2"
		"wide"			"60"
		"tall"			"60"
		"autoResize"	"1"
		"pinCorner"		"2"
		"visible"		"1"
		"enabled"		"1"
		"tabPosition"	"0"
		"labelText"		"2"
		"textAlignment"	"center"
		"font"			"nüShadow50"
		"fgcolor"		"black"
		
		"pin_to_sibling" "ScoutBlur2"
		"pin_corner_to_sibling" "PIN_TOPLEFT" // Corner of this Element
		"pin_to_sibling_corner" "PIN_TOPRIGHT" // Corner of Element you are pinning to
	}
	
	"PyroBlur2" [$WIN32]
	{
		"ControlName"	"CExLabel"
		"fieldName"		"PyroBlur2"
		"xpos"			"0"
		"ypos"			"0"
		"zpos"			"2"
		"wide"			"60"
		"tall"			"60"
		"autoResize"	"1"
		"pinCorner"		"2"
		"visible"		"1"
		"enabled"		"1"
		"tabPosition"	"0"
		"labelText"		"3"
		"textAlignment"	"center"
		"font"			"nüShadow50"
		"fgcolor"		"black"
		
		"pin_to_sibling" "SoldierBlur2"
		"pin_corner_to_sibling" "PIN_TOPLEFT" // Corner of this Element
		"pin_to_sibling_corner" "PIN_TOPRIGHT" // Corner of Element you are pinning to
	}
	
	"DemoBlur2" [$WIN32]
	{
		"ControlName"	"CExLabel"
		"fieldName"		"DemoBlur2"
		"xpos"			"0"
		"ypos"			"0"
		"zpos"			"2"
		"wide"			"60"
		"tall"			"60"
		"autoResize"	"1"
		"pinCorner"		"2"
		"visible"		"1"
		"enabled"		"1"
		"tabPosition"	"0"
		"labelText"		"4"
		"textAlignment"	"center"
		"font"			"nüShadow50"
		"fgcolor"		"black"
		
		"pin_to_sibling" "PyroBlur2"
		"pin_corner_to_sibling" "PIN_TOPLEFT" // Corner of this Element
		"pin_to_sibling_corner" "PIN_TOPRIGHT" // Corner of Element you are pinning to
	}
	
	"HeavyBlur2" [$WIN32]
	{
		"ControlName"	"CExLabel"
		"fieldName"		"HeavyBlur2"
		"xpos"			"0"
		"ypos"			"0"
		"zpos"			"2"
		"wide"			"60"
		"tall"			"60"
		"autoResize"	"1"
		"pinCorner"		"2"
		"visible"		"1"
		"enabled"		"1"
		"tabPosition"	"0"
		"labelText"		"5"
		"textAlignment"	"center"
		"font"			"nüShadow50"
		"fgcolor"		"black"
		
		"pin_to_sibling" "DemoBlur2"
		"pin_corner_to_sibling" "PIN_TOPLEFT" // Corner of this Element
		"pin_to_sibling_corner" "PIN_TOPRIGHT" // Corner of Element you are pinning to
	}
	
	"EngieBlur2" [$WIN32]
	{
		"ControlName"	"CExLabel"
		"fieldName"		"EngieBlur2"
		"xpos"			"0"
		"ypos"			"0"
		"zpos"			"2"
		"wide"			"60"
		"tall"			"60"
		"autoResize"	"1"
		"pinCorner"		"2"
		"visible"		"1"
		"enabled"		"1"
		"tabPosition"	"0"
		"labelText"		"6"
		"textAlignment"	"center"
		"font"			"nüShadow50"
		"fgcolor"		"black"
		
		"pin_to_sibling" "HeavyBlur2"
		"pin_corner_to_sibling" "PIN_TOPLEFT" // Corner of this Element
		"pin_to_sibling_corner" "PIN_TOPRIGHT" // Corner of Element you are pinning to
	}
	
	"MedicBlur2" [$WIN32]
	{
		"ControlName"	"CExLabel"
		"fieldName"		"MedicBlur2"
		"xpos"			"0"
		"ypos"			"0"
		"zpos"			"2"
		"wide"			"60"
		"tall"			"60"
		"autoResize"	"1"
		"pinCorner"		"2"
		"visible"		"1"
		"enabled"		"1"
		"tabPosition"	"0"
		"labelText"		"7"
		"textAlignment"	"center"
		"font"			"nüShadow50"
		"fgcolor"		"black"
		
		"pin_to_sibling" "EngieBlur2"
		"pin_corner_to_sibling" "PIN_TOPLEFT" // Corner of this Element
		"pin_to_sibling_corner" "PIN_TOPRIGHT" // Corner of Element you are pinning to
	}
	
	"SniperBlur2" [$WIN32]
	{
		"ControlName"	"CExLabel"
		"fieldName"		"SniperBlur2"
		"xpos"			"0"
		"ypos"			"0"
		"zpos"			"2"
		"wide"			"60"
		"tall"			"60"
		"autoResize"	"1"
		"pinCorner"		"2"
		"visible"		"1"
		"enabled"		"1"
		"tabPosition"	"0"
		"labelText"		"8"
		"textAlignment"	"center"
		"font"			"nüShadow50"
		"fgcolor"		"black"
		
		"pin_to_sibling" "MedicBlur2"
		"pin_corner_to_sibling" "PIN_TOPLEFT" // Corner of this Element
		"pin_to_sibling_corner" "PIN_TOPRIGHT" // Corner of Element you are pinning to
	}
	
	"SpyBlur2" [$WIN32]
	{
		"ControlName"	"CExLabel"
		"fieldName"		"SpyBlur2"
		"xpos"			"0"
		"ypos"			"0"
		"zpos"			"2"
		"wide"			"60"
		"tall"			"60"
		"autoResize"	"1"
		"pinCorner"		"2"
		"visible"		"1"
		"enabled"		"1"
		"tabPosition"	"0"
		"labelText"		"9"
		"textAlignment"	"center"
		"font"			"nüShadow50"
		"fgcolor"		"black"
		
		"pin_to_sibling" "SniperBlur2"
		"pin_corner_to_sibling" "PIN_TOPLEFT" // Corner of this Element
		"pin_to_sibling_corner" "PIN_TOPRIGHT" // Corner of Element you are pinning to
	}
	
	"numScout" [$WIN32]
	{
		"ControlName"	"CExLabel"
		"fieldName"		"numScout"
		"xpos"			"0"
		"ypos"			"-10"
		"zpos"			"5"
		"wide"			"60"
		"tall"			"12"
		"autoResize"	"1"
		"pinCorner"		"2"
		"visible"		"1"
		"enabled"		"1"
		"tabPosition"	"0"
		"labelText"		"%numScout%"
		"textAlignment"	"center"
		"font"			"MenuClassBuckets"
		"fgcolor"		"TanLight"
		
		"pin_to_sibling" "scout"
		"pin_corner_to_sibling" "PIN_TOPLEFT" // Corner of this Element
		"pin_to_sibling_corner" "PIN_BOTTOMLEFT" // Corner of Element you are pinning to
	}	
	
	"numSoldier" [$WIN32]
	{
		"ControlName"	"CExLabel"
		"fieldName"		"numSoldier"
		"xpos"			"0"
		"ypos"			"0"
		"zpos"			"5"
		"wide"			"60"
		"tall"			"12"
		"autoResize"	"1"
		"pinCorner"		"2"
		"visible"		"1"
		"enabled"		"1"
		"tabPosition"	"0"
		"labelText"		"%numSoldier%"
		"textAlignment"	"center"
		"font"			"MenuClassBuckets"
		"fgcolor"		"TanLight"
		
		"pin_to_sibling" "numScout"
		"pin_corner_to_sibling" "PIN_TOPLEFT" // Corner of this Element
		"pin_to_sibling_corner" "PIN_TOPRIGHT" // Corner of Element you are pinning to
	}		
	
	"numPyro" [$WIN32]
	{
		"ControlName"	"CExLabel"
		"fieldName"		"numPyro"
		"xpos"			"0"
		"ypos"			"0"
		"zpos"			"5"
		"wide"			"60"
		"tall"			"12"
		"autoResize"	"1"
		"pinCorner"		"2"
		"visible"		"1"
		"enabled"		"1"
		"tabPosition"	"0"
		"labelText"		"%numPyro%"
		"textAlignment"	"center"
		"font"			"MenuClassBuckets"
		"fgcolor"		"TanLight"
		
		"pin_to_sibling" "numSoldier"
		"pin_corner_to_sibling" "PIN_TOPLEFT" // Corner of this Element
		"pin_to_sibling_corner" "PIN_TOPRIGHT" // Corner of Element you are pinning to
	}			
	
	"numDemoman" [$WIN32]
	{
		"ControlName"	"CExLabel"
		"fieldName"		"numDemoman"
		"xpos"			"0"
		"ypos"			"0"
		"zpos"			"5"
		"wide"			"60"
		"tall"			"12"
		"autoResize"	"1"
		"pinCorner"		"2"
		"visible"		"1"
		"enabled"		"1"
		"tabPosition"	"0"
		"labelText"		"%numDemoman%"
		"textAlignment"	"center"
		"font"			"MenuClassBuckets"
		"fgcolor"		"TanLight"
		
		"pin_to_sibling" "numPyro"
		"pin_corner_to_sibling" "PIN_TOPLEFT" // Corner of this Element
		"pin_to_sibling_corner" "PIN_TOPRIGHT" // Corner of Element you are pinning to
	}				
	
	"numHeavy" [$WIN32]
	{
		"ControlName"	"CExLabel"
		"fieldName"		"numHeavy"
		"xpos"			"0"
		"ypos"			"0"
		"zpos"			"5"
		"wide"			"60"
		"tall"			"12"
		"autoResize"	"1"
		"pinCorner"		"2"
		"visible"		"1"
		"enabled"		"1"
		"tabPosition"	"0"
		"labelText"		"%numHeavy%"
		"textAlignment"	"center"
		"font"			"MenuClassBuckets"
		"fgcolor"		"TanLight"
		
		"pin_to_sibling" "numDemoman"
		"pin_corner_to_sibling" "PIN_TOPLEFT" // Corner of this Element
		"pin_to_sibling_corner" "PIN_TOPRIGHT" // Corner of Element you are pinning to
	}					
	
	"numEngineer" [$WIN32]
	{
		"ControlName"	"CExLabel"
		"fieldName"		"numEngineer"
		"xpos"			"0"
		"ypos"			"0"
		"zpos"			"5"
		"wide"			"60"
		"tall"			"12"
		"autoResize"	"1"
		"pinCorner"		"2"
		"visible"		"1"
		"enabled"		"1"
		"tabPosition"	"0"
		"labelText"		"%numEngineer%"
		"textAlignment"	"center"
		"font"			"MenuClassBuckets"
		"fgcolor"		"TanLight"
		
		"pin_to_sibling" "numHeavy"
		"pin_corner_to_sibling" "PIN_TOPLEFT" // Corner of this Element
		"pin_to_sibling_corner" "PIN_TOPRIGHT" // Corner of Element you are pinning to
	}						
	
	"numMedic" [$WIN32]
	{
		"ControlName"	"CExLabel"
		"fieldName"		"numMedic"
		"xpos"			"0"
		"ypos"			"0"
		"zpos"			"5"
		"wide"			"60"
		"tall"			"12"
		"autoResize"	"1"
		"pinCorner"		"2"
		"visible"		"1"
		"enabled"		"1"
		"tabPosition"	"0"
		"labelText"		"%numMedic%"
		"textAlignment"	"center"
		"font"			"MenuClassBuckets"
		"fgcolor"		"TanLight"
		
		"pin_to_sibling" "numEngineer"
		"pin_corner_to_sibling" "PIN_TOPLEFT" // Corner of this Element
		"pin_to_sibling_corner" "PIN_TOPRIGHT" // Corner of Element you are pinning to
	}							
	
	"numSniper" [$WIN32]
	{
		"ControlName"	"CExLabel"
		"fieldName"		"numSniper"
		"xpos"			"0"
		"ypos"			"0"
		"zpos"			"5"
		"wide"			"60"
		"tall"			"12"
		"autoResize"	"1"
		"pinCorner"		"2"
		"visible"		"1"
		"enabled"		"1"
		"tabPosition"	"0"
		"labelText"		"%numSniper%"
		"textAlignment"	"center"
		"font"			"MenuClassBuckets"
		"fgcolor"		"TanLight"
		
		"pin_to_sibling" "numMedic"
		"pin_corner_to_sibling" "PIN_TOPLEFT" // Corner of this Element
		"pin_to_sibling_corner" "PIN_TOPRIGHT" // Corner of Element you are pinning to
	}						
	
	"numSpy" [$WIN32]
	{
		"ControlName"	"CExLabel"
		"fieldName"		"numSpy"
		"xpos"			"0"
		"ypos"			"0"
		"zpos"			"5"
		"wide"			"60"
		"tall"			"12"
		"autoResize"	"1"
		"pinCorner"		"2"
		"visible"		"1"
		"enabled"		"1"
		"tabPosition"	"0"
		"labelText"		"%numSpy%"
		"textAlignment"	"center"
		"font"			"MenuClassBuckets"
		"fgcolor"		"TanLight"
		
		"pin_to_sibling" "numSniper"
		"pin_corner_to_sibling" "PIN_TOPLEFT" // Corner of this Element
		"pin_to_sibling_corner" "PIN_TOPRIGHT" // Corner of Element you are pinning to
	}								
	
	"MvMUpgradeImageScout"
	{
		"ControlName"	"ImagePanel"
		"fieldName"		"MvMUpgradeImageScout"
		"xpos"			"c-270"
		"ypos"			"30"
		"zpos"			"10"
		"wide"			"10"
		"tall"			"10"
		"visible"		"0"
		"enabled"		"1"
		"image"			"mvm/class_upgraded"
		"scaleImage"	"1"
	}
	
	"MvMUpgradeImageSolider"
	{
		"ControlName"	"ImagePanel"
		"fieldName"		"MvMUpgradeImageSolider"
		"xpos"			"c-220"
		"ypos"			"30"
		"zpos"			"10"
		"wide"			"10"
		"tall"			"10"
		"visible"		"0"
		"enabled"		"1"
		"image"			"mvm/class_upgraded"
		"scaleImage"	"1"
	}
	
	"MvMUpgradeImagePyro" 
	{
		"ControlName"	"ImagePanel"
		"fieldName"		"MvMUpgradeImagePyro" 
		"xpos"			"c-170"
		"ypos"			"30"
		"zpos"			"10"
		"wide"			"10"
		"tall"			"10"
		"visible"		"0"
		"enabled"		"1"
		"image"			"mvm/class_upgraded"
		"scaleImage"	"1"
	}
	
	"MvMUpgradeImageDemoman" 
	{
		"ControlName"	"ImagePanel"
		"fieldName"		"MvMUpgradeImageDemoman" 
		"xpos"			"c-80"
		"ypos"			"30"
		"zpos"			"10"
		"wide"			"10"
		"tall"			"10"
		"visible"		"0"
		"enabled"		"1"
		"image"			"mvm/class_upgraded"
		"scaleImage"	"1"
	}
	
	"MvMUpgradeImageHeavy"
	{
		"ControlName"	"ImagePanel"
		"fieldName"		"MvMUpgradeImageHeavy" 
		"xpos"			"c-30"
		"ypos"			"30"
		"zpos"			"10"
		"wide"			"10"
		"tall"			"10"
		"visible"		"0"
		"enabled"		"1"
		"image"			"mvm/class_upgraded"
		"scaleImage"	"1"
	}
	
	"MvMUpgradeImageEngineer"
	{
		"ControlName"	"ImagePanel"
		"fieldName"		"MvMUpgradeImageEngineer"
		"xpos"			"c20"
		"ypos"			"30"
		"zpos"			"10"
		"wide"			"10"
		"tall"			"10"
		"visible"		"0"
		"enabled"		"1"
		"image"			"mvm/class_upgraded"
		"scaleImage"	"1"
	}
	
	"MvMUpgradeImageMedic"
	{
		"ControlName"	"ImagePanel"
		"fieldName"		"MvMUpgradeImageMedic"
		"xpos"			"c108"
		"ypos"			"30"
		"zpos"			"10"
		"wide"			"10"
		"tall"			"10"
		"visible"		"0"
		"enabled"		"1"
		"image"			"mvm/class_upgraded"
		"scaleImage"	"1"
	}
	
	"MvMUpgradeImageSniper"
	{
		"ControlName"	"ImagePanel"
		"fieldName"		"MvMUpgradeImageSniper"
		"xpos"			"c158"
		"ypos"			"30"
		"zpos"			"10"
		"wide"			"10"
		"tall"			"10"
		"visible"		"0"
		"enabled"		"1"
		"image"			"mvm/class_upgraded"
		"scaleImage"	"1"
	}
	
	"MvMUpgradeImageSpy"
	{
		"ControlName"	"ImagePanel"
		"fieldName"		"MvMUpgradeImageSpy"
		"xpos"			"c208"
		"ypos"			"30"
		"zpos"			"10"
		"wide"			"10"
		"tall"			"10"
		"visible"		"0"
		"enabled"		"1"
		"image"			"mvm/class_upgraded"
		"scaleImage"	"1"
	}

	"StartExplanation"
	{
		"ControlName"	"CExplanationPopup"
		"fieldName"		"StartExplanation"
		"xpos"			"0"
		"ypos"			"0"
		"zpos"			"10000"
		"wide"			"250"
		"tall"			"165"
		"visible"		"0"
		"PaintBackgroundType"	"2"
		"paintbackground" "0"
		"border"		"MainMenuHighlightBorder"
		
		"force_close"	"1"
		"end_x"			"c-170"
		"end_y"			"115"
		"end_wide"		"300"
		"end_tall"		"240"
		"callout_inparents_x"	"c-270"
		"callout_inparents_y"	"40"
		"next_explanation"		"VoucherExplanation"
		
		"TitleLabel"
		{
			"ControlName"	"CExLabel"
			"fieldName"		"TitleLabel"
			"font"			"HudFontSmallBold"
			"labelText"		"#TF_MvM_UpgradeExplanation_Title"
			"textAlignment"	"north"
			"xpos"			"20"
			"ypos"			"10"
			"wide"			"260"
			"tall"			"30"
			"autoResize"	"0"
			"pinCorner"		"0"
			"visible"		"1"
			"enabled"		"1"
			"wrap"			"1"
			"fgcolor_override" "46 43 42 255"
		}
		
		"TextLabel"
		{
			"ControlName"	"CExLabel"
			"fieldName"		"TextLabel"
			"font"			"HudFontSmall"
			"labelText"		"#TF_MvM_UpgradeExplanation_Text"
			"textAlignment"	"north-west"
			"xpos"			"20"
			"ypos"			"45"
			"wide"			"260"
			"tall"			"170"
			"autoResize"	"0"
			"pinCorner"		"0"
			"visible"		"1"
			"enabled"		"1"
			"wrap"			"1"
			"fgcolor_override" "46 43 42 255"
		}
		
		"CloseButton"
		{
			"ControlName"	"CExImageButton"
			"fieldName"		"CloseButton"
			"xpos"			"280"
			"ypos"			"5"
			"zpos"			"10"
			"wide"			"14"
			"tall"			"14"
			"autoResize"	"0"
			"pinCorner"		"0"
			"visible"		"1"
			"enabled"		"1"
			"tabPosition"	"0"
			"labeltext"		""
			"font"			"HudFontSmallBold"
			"textAlignment"	"center"
			"dulltext"		"0"
			"brighttext"	"0"
			"default"		"0"
			"sound_depressed"	"UI/buttonclick.wav"
			"sound_released"	"UI/buttonclickrelease.wav"
			"Command"		"close"
			
			"paintbackground"	"0"
			
			"defaultFgColor_override" "46 43 42 255"
			"armedFgColor_override" "200 80 60 255"
			"depressedFgColor_override" "46 43 42 255"
			
			"image_drawcolor"	"117 107 94 255"
			"image_armedcolor"	"200 80 60 255"
			"SubImage"
			{
				"ControlName"	"ImagePanel"
				"fieldName"		"SubImage"
				"xpos"			"0"
				"ypos"			"0"
				"zpos"			"1"
				"wide"			"14"
				"tall"			"14"
				"visible"		"1"
				"enabled"		"1"
				"image"			"close_button"
				"scaleImage"	"1"
			}				
		}
	}
	
	"TFPlayerModel"
	{
		"ControlName"	"CTFPlayerModelPanel"
		"fieldName"		"TFPlayerModel"
		
		"xpos"			"0"
		"ypos"			"0"
		"zpos"			"-1"		
		"wide"			"f0"
		"tall"			"f0"
		
		"autoResize"	"0"
		"pinCorner"		"0"
		"visible"		"1"
		"enabled"		"1"
		
		"render_texture"	"0"
		"fov"			"18"
		"allow_rot"		"0"

		"paintbackground" "1"		
		"paintbackgroundenabled" "1"
		"bgcolor_override" "255 255 255 0"
		
		"model"
		{
			"force_pos"	"1"

			"angles_x" "0"
			"angles_y" "180"
			"angles_z" "0"
			"origin_x" "320"
			"origin_y" "-5"
			"origin_z" "-59"
			"frame_origin_x"	"0"
			"frame_origin_y"	"0"
			"frame_origin_z"	"0"
			"spotlight" "1"
		
			"modelname"		""
			"vcd"		"class_select.vcd"		
			
			"animation"
			{
				"name"		"PRIMARY"
				"activity"	"ACT_MP_STAND_PRIMARY"
				"default"	"1"
			}
			"animation"
			{
				"name"		"SECONDARY"
				"activity"	"ACT_MP_STAND_SECONDARY"
			}
			"animation"
			{
				"name"		"MELEE"
				"activity"	"ACT_MP_STAND_MELEE"
			}
			"animation"
			{
				"name"		"BUILDING"
				"activity"	"ACT_MP_STAND_BUILDING"
			}
			"animation"
			{
				"name"		"PDA"
				"activity"	"ACT_MP_STAND_PDA"
			}
			"animation"
			{
				"name"		"ITEM1"
				"activity"	"ACT_MP_STAND_ITEM1"
			}						
			"animation"
			{
				"name"		"ITEM2"
				"activity"	"ACT_MP_STAND_ITEM2"
			}	
			"animation"
			{
				"name"		"MELEE_ALLCLASS"
				"activity"	"ACT_MP_STAND_MELEE_ALLCLASS"
			}								
		}
	}
	
	
	
	"ClassHighlightPanel"
	{
		"ControlName"	"CExplanationPopup"
		"fieldName"		"ClassHighlightPanel"
		"xpos"			"c-75"
		"ypos"			"280"
		"zpos"			"100"
		"wide"			"250"
		"tall"			"170"
		"visible"		"0"
		"PaintBackgroundType"	"2"
		"paintbackground" "0"
		"border"		"MainMenuHighlightBorder"
		
		"start_x"		"c-238"
		"start_y"		"100"
		"start_wide"	"1"
		"start_tall"	"1"
		"end_x"			"c-325"
		"end_y"			"250"
		"end_wide"		"275"
		"end_tall"		"150"
		"callout_inparents_x"	"c-210"
		"callout_inparents_y"	"437"
		
		"TitleLabel"
		{
			"ControlName"	"CExLabel"
			"fieldName"		"TitleLabel"
			"font"			"HudFontSmallBold"
			"labelText"		"#CMenu_ClassHighlightPanel_Title"
			"textAlignment"	"north-west"
			"xpos"			"10"
			"ypos"			"10"
			"wide"			"210"
			"tall"			"20"
			"autoResize"	"0"
			"pinCorner"		"0"
			"visible"		"1"
			"enabled"		"1"
			"wrap"			"1"
			"fgcolor_override" "46 43 42 255"
		}
		
		"ClassHighlightText"
		{
			"ControlName"	"CExLabel"
			"fieldName"		"ClassHighlightText"
			"font"			"HudFontSmall"
			"labelText"		"%ClassHighlightText%"
			"textAlignment"	"north-west"
			"xpos"			"20"
			"ypos"			"30"
			"wide"			"210"
			"tall"			"115"
			"autoResize"	"0"
			"pinCorner"		"0"
			"visible"		"1"
			"enabled"		"1"
			"wrap"			"1"
			"fgcolor_override" "46 43 42 255"
		}
		
		"CloseButton"
		{
			"ControlName"	"CExImageButton"
			"fieldName"		"CloseButton"
			"xpos"			"255"
			"ypos"			"5"
			"zpos"			"10"
			"wide"			"14"
			"tall"			"14"
			"autoResize"	"0"
			"pinCorner"		"0"
			"visible"		"1"
			"enabled"		"1"
			"tabPosition"	"0"
			"labeltext"		""
			"font"			"HudFontSmallBold"
			"textAlignment"	"center"
			"dulltext"		"0"
			"brighttext"	"0"
			"default"		"1"
			"sound_depressed"	"UI/buttonclick.wav"
			"sound_released"	"UI/buttonclickrelease.wav"
			"Command"		"close"
			
			"paintbackground"	"0"
			
			"defaultFgColor_override" "46 43 42 255"
			"armedFgColor_override" "235 226 202 255"
			"depressedFgColor_override" "46 43 42 255"
			
			"image_drawcolor"	"117 107 94 255"
			"image_armedcolor"	"200 80 60 255"
			"SubImage"
			{
				"ControlName"	"ImagePanel"
				"fieldName"		"SubImage"
				"xpos"			"0"
				"ypos"			"0"
				"zpos"			"1"
				"wide"			"14"
				"tall"			"14"
				"visible"		"1"
				"enabled"		"1"
				"image"			"close_button"
				"scaleImage"	"1"
			}				
		}
	}	



	
	
	
	
	
	
	
	
	"Offense"
	{
		"ControlName"	"CExLabel"
		"fieldName"		"Offense"
		"xpos"			"c-300"
		"xpos_hidef"			"c-287"
		"xpos_lodef"	"c-260"
		"ypos"			"96"
		"ypos_hidef"			"102"
		"ypos_lodef"	"116"
		"zpos"			"2"
		"wide"			"90"
		"tall"			"12"
		"tall_lodef"			"22"
		"autoResize"	"1"
		"pinCorner"		"2"
		"visible"		"0"
		"enabled"		"1"
		"tabPosition"	"0"
		"labelText"		"#TF_Offense"
		"textAlignment"	"left"
		"font"			"MenuClassBuckets"
		"font_lodef"			"MenuMainTitle"
		"fgcolor"		"TanDark"
		"fgcolor_lodef"	"TanLight"
	}
	
	"Defense"
	{
		"ControlName"	"CExLabel"
		"fieldName"		"Defense"
		"xpos"			"c-110"
		"xpos_hidef"			"c-105"
		"xpos_lodef"	"c-95"
		"ypos"			"96"
		"ypos_hidef"			"102"
		"ypos_lodef"	"116"
		"zpos"			"2"
		"wide"			"90"
		"tall"			"12"
		"tall_lodef"			"22"
		"autoResize"	"1"
		"pinCorner"		"2"
		"visible"		"0"
		"enabled"		"1"
		"tabPosition"	"0"
		"labelText"		"#TF_Defense"
		"textAlignment"	"left"
		"font"			"MenuClassBuckets"
		"font_lodef"			"MenuMainTitle"
		"fgcolor"		"TanDark"
		"fgcolor_lodef"	"TanLight"
	}
	
	"Support"
	{
		"ControlName"	"CExLabel"
		"fieldName"		"Support"
		"xpos"			"c76"
		"xpos_hidef"			"c74"
		"xpos_lodef"	"c70"
		"ypos"			"96"
		"ypos_hidef"			"102"
		"ypos_lodef"	"116"
		"zpos"			"2"
		"wide"			"90"
		"tall"			"12"
		"tall_lodef"			"22"
		"autoResize"	"1"
		"pinCorner"		"2"
		"visible"		"0"
		"enabled"		"1"
		"tabPosition"	"0"
		"labelText"		"#TF_Support"
		"textAlignment"	"left"
		"font"			"MenuClassBuckets"
		"font_lodef"			"MenuMainTitle"
		"fgcolor"		"TanDark"
		"fgcolor_lodef"	"TanLight"
	}
	
	"ClassTipsPanel"
	{
		"ControlName"	"CTFClassTipsPanel"
		"fieldName"		"ClassTipsPanel"
		"xpos"			"c28"
		"ypos"			"c-84"
		"zpos"			"7"
		"wide"			"235"
		"tall"			"165"
		"autoResize"	"0"
		"pinCorner"		"0"
		"visible"		"0"
		"enabled"		"1"
		"tabPosition"	"0"
	}
	
	"ResetButton" [$WIN32] 
	{
		"ControlName"	"CExButton"
		"fieldName"		"ResetButton"
		"xpos"			"r470"
		"ypos"			"r38"
		"zpos"			"6"
		"wide"			"110"
		"tall"			"25"
		"autoResize"	"0"
		"pinCorner"		"2"
		"visible"		"0"
		"enabled"		"1"
		"tabPosition"	"0"
		"labelText"		"#TF_ClassMenu_Reset"
		"textAlignment"	"center"
		"Command"		"resetclass"
		"font"			"HudFontSmallBold"
	}
}
