"Resource/UI/FullLoadoutPanel.res"
{
	"class_loadout_panel"
	{
		"ControlName"	"Frame"
		"fieldName"		"class_loadout_panel"
		"xpos"			"0"
		"ypos"			"0"
		"wide"			"f0"
		"autoResize"	"0"
		"pinCorner"		"0"
		"visible"		"1"
		"enabled"		"1"
		"tabPosition"	"0"
		"settitlebarvisible"	"0"
		"PaintBackgroundType"	"0"
		"bgcolor_override"	"40 40 40 255"
		"infocus_bgcolor_override" "40 40 40 255"
		"outoffocus_bgcolor_override" "40 40 40 255"
		
		"item_xpos_offcenter_a"	"-305"
		"item_xpos_offcenter_b"	"165"
		"item_ypos"		"85"
		"item_ydelta"	"75"
		"item_mod_wide"	"40"
		
		"item_backpack_offcenter_x"		"-288"
		"item_backpack_xdelta"			"4"
		"item_backpack_ydelta"			"3"

		"button_xpos_offcenter"	"175"		
		"button_ypos"	"85"
		"button_ydelta"	"80"
		"button_override_delete_xpos" "0"
		
		"modelpanels_kv"
		{
			"ControlName"	"CItemModelPanel"
			"xpos"			"c-70"
			"ypos"			"270"
			"wide"			"140"
			"tall"			"70"
			"visible"		"0"
			"bgcolor_override"		"0 0 0 0"
			"noitem_textcolor"		"117 107 94 255"
			"PaintBackgroundType"	"2"
			"paintborder"	"1"
			
			"model_center_x"	"1"
			"model_ypos"		"5"			
			"model_tall"		"55"
			"model_wide"		"82"
			"text_ypos"			"0"
			"text_forcesize"	"2"
			"text_center"		"0"
			"text_yoffset"		"2"
			"inset_eq_y"		"55"
			"name_only"			"1"
			
			"attriblabel"
			{
				"font"			"ItemFontAttribLarge"
				"visible"		"0"
			}
			
			"itemmodelpanel"
			{
				"use_item_rendertarget" "0"
				"allow_rot"				"0"
				"inventory_image_type"	"1"
			}
		}

		"itemoptionpanels_kv"
		{
			"ControlName"	"CExButton"
			"xpos"			"0"
			"ypos"			"0"
			"zpos"			"1"
			"wide"			"14"
			"tall"			"14"
			"autoResize"	"0"
			"visible"		"0"
			"enabled"		"1"
			"tabPosition"	"0"
			"labelText"		"+"
			"textinsety"	"-3"
			"font"			"nüMedium14"
			"textAlignment"	"center"
			"dulltext"		"0"
			"brighttext"	"0"
			"default"		"1"
			"sound_depressed"	"UI/buttonclick.wav"
			"sound_released"	"UI/buttonclickrelease.wav"

			"border_default"	"NoBorder"
			"border_armed"		"NoBorder"
		}
	}

	"CaratLabel"
	{
		"ControlName"		"CExLabel"
		"fieldName"		"CaratLabel"
		"font"			"HudFontSmallestBold"
		"labelText"		">>"
		"textAlignment"	"west"
		"xpos"			"9999"
		"ypos"			"9999"
		"zpos"			"1"
		"wide"			"20"
		"tall"			"15"
		"autoResize"	"1"
		"pinCorner"		"0"
		"visible"		"0"
		"enabled"		"0"
		"fgcolor_override" "200 80 60 255"
	}
	"ClassLabel"
	{
		"ControlName"	"CExLabel"
		"fieldName"		"ClassLabel"
		"font"			"nüBold30"
		"labelText"		"#ClassBeingEquipped"
		"textAlignment"	"center"
		"xpos"			"c-120"
		"ypos"			"30"
		"zpos"			"1"
		"wide"			"240"
		"tall"			"32"
		"autoResize"	"0"
		"pinCorner"		"0"
		"visible"		"1"
		"enabled"		"1"
		"fgcolor_override"	"nüWhite"
	}
	"ClassLabelShadow"
	{
		"ControlName"	"CExLabel"
		"fieldName"		"ClassLabelShadow"
		"font"			"nüBold30"
		"labelText"		"#ClassBeingEquipped"
		"textAlignment"	"center"
		"xpos"			"0"
		"ypos"			"-1"
		"zpos"			"1"
		"wide"			"240"
		"tall"			"32"
		"autoResize"	"0"
		"pinCorner"		"0"
		"visible"		"1"
		"enabled"		"1"
		"fgcolor_override"	"ShadowBlack"
		
		"pin_to_sibling"	"ClassLabel"
        "pin_corner_to_sibling"		"1"
        "pin_to_sibling_corner"		"1"
	}
	"TauntCaratLabel"
	{
		"ControlName"		"CExLabel"
		"fieldName"		"TauntCaratLabel"
		"font"			"HudFontSmallestBold"
		"labelText"		">>"
		"textAlignment"	"west"
		"xpos"			"9999"
		"ypos"			"9999"
		"zpos"			"1"
		"wide"			"20"
		"tall"			"15"
		"autoResize"	"1"
		"pinCorner"		"0"
		"visible"		"0"
		"enabled"		"0"
		"fgcolor_override" "200 80 60 255"
	}
	"TauntLabel"
	{
		"ControlName"	"CExLabel"
		"fieldName"		"TauntLabel"
		"font"			"HudFontMediumBold"
		"labelText"		"#TF_Taunt"
		"textAlignment"	"west"
		"xpos"			"9999"
		"ypos"			"9999"
		"zpos"			"1"
		"wide"			"240"
		"tall"			"25"
		"autoResize"	"0"
		"pinCorner"		"0"
		"visible"		"0"
		"enabled"		"0"
	}
	
	"TopLine"
	{
		"ControlName"	"ImagePanel"
		"fieldName"		"TopLine"
		"xpos"			"9999"
		"ypos"			"9999"
		"zpos"			"2"
		"wide"			"610"
		"tall"			"10"
		"visible"		"0"
		"enabled"		"0"
		"image"			"loadout_dotted_line"
		"tileImage"		"1"
		"tileVertically" "0"
	}				
	
	"classmodelpanel"
	{
		"ControlName"	"CTFPlayerModelPanel"
		"fieldName"		"classmodelpanel"
		
		"xpos"			"c-305"
		"ypos"			"0"
		"zpos"			"-1"		
		"wide"			"610"
		"tall"			"460"
		"autoResize"	"0"
		"pinCorner"		"0"
		"visible"		"1"
		"enabled"		"1"
		
		"render_texture"	"0"
		"fov"			"30"
		"allow_manip"		"1"
				
		"model"
		{
			"force_pos"	"1"

			"angles_x" "0"
			"angles_y" "170"
			"angles_z" "0"
			"origin_x" "340"
			"origin_y" "0"
			"origin_z" "-48"
			"frame_origin_x"	"0"
			"frame_origin_y"	"0"
			"frame_origin_z"	"0"
			"spotlight" "1"
		
			"modelname"		""
		}
	}
	
	"mouseoveritempanel"
	{
		"ControlName"	"CItemModelPanel"
		"fieldName"		"mouseoveritempanel"
		"xpos"			"c-70"
		"ypos"			"270"
		"zpos"			"100"
		"wide"			"300"
		"tall"			"300"
		"visible"		"0"
		"bgcolor_override"		"0 0 0 0"
		"noitem_textcolor"		"117 107 94 255"
		"PaintBackgroundType"	"2"
		"paintborder"	"1"
		
		"text_ypos"			"15"
		"text_center"		"1"
		"model_hide"		"1"
		"resize_to_text"	"1"
		"padding_height"	"15"
		
		"attriblabel"
		{
			"font"			"ItemFontAttribLarge"
			"xpos"			"0"
			"ypos"			"0"
			"zpos"			"2"
			"wide"			"140"
			"tall"			"60"
			"autoResize"	"0"
			"pinCorner"		"0"
			"visible"		"1"
			"enabled"		"1"
			"labelText"		"%attriblist%"
			"textAlignment"	"center"
			"fgcolor"		"117 107 94 255"
			"centerwrap"	"1"
		}
	}
	
	"PassiveAttribsLabel"
	{
		"ControlName"	"CExLabel"
		"fieldName"		"PassiveAttribsLabel"
		"font"			"ItemFontAttribLarge"
		"xpos"			"c-135"
		"ypos"			"160"
		"zpos"			"0"	
		"wide"			"270"
		"tall"			"240"
		"autoResize"	"0"
		"pinCorner"		"0"
		"visible"		"0"
		"enabled"		"1"
		"labelText"		""
		"textAlignment"	"south"
		"fgcolor"		"255 215 0 255"
		"centerwrap"	"1"
	}
	
	"BLUButton"
	{
		"ControlName"	"CExImageButton"
		"fieldName"		"BLUButton"
		"xpos"				"c-28"
		"ypos"				"75"
		"zpos"				"12"	
		"wide"				"25"
		"tall"				"5"
		"autoResize"		"1"
		"pinCorner"			"2"
		"visible"			"0"
		"enabled"			"0"
		"tabPosition"		"0"
		"labelText"			""
		"textAlignment"		"center"
		"font"				""
		"textinsetx"	"99"
		"scaleImage"		"1"
		"command"			"sv_cheats 1;r_skin 1"
		
		"defaultBgColor_override"	"nüBLUSolid"
		"armedBgColor_override"	"nüBLUSolid"
		"depressedBgColor_override"	"nüBLUSolid"
		
		"sound_depressed"	"UI/buttonclick.wav"
		"sound_released"	"UI/buttonclickrelease.wav"
		
		"keyboardinputenabled"	"0"
	}

	"REDButton"
	{
		"ControlName"	"CExImageButton"
		"fieldName"		"REDButton"
		"xpos"				"c0"
		"ypos"				"75"
		"zpos"				"12"	
		"wide"				"25"
		"tall"				"5"
		"autoResize"		"1"
		"pinCorner"			"2"
		"visible"			"0"
		"enabled"			"0"
		"tabPosition"		"0"
		"labelText"			""
		"textAlignment"		"center"
		"font"				""
		"textinsetx"	"99"
		"scaleImage"		"1"
		"command"			"sv_cheats 1;r_skin 0"
		
		"defaultBgColor_override"	"nüREDSolid"
		"armedBgColor_override"	"nüREDSolid"
		"depressedBgColor_override"	"nüREDSolid"
		
		"sound_depressed"	"UI/buttonclick.wav"
		"sound_released"	"UI/buttonclickrelease.wav"
		
		"keyboardinputenabled"	"0"
	}
	
	"loadout_preset_panel"
	{
		"ControlName"	"CLoadoutPresetPanel"
		"FieldName"		"loadout_preset_panel"
		"zpos"			"20"
		"wide"			"150"
		"tall"			"10"
		"autoResize"	"0"
		"pinCorner"		"0"
		"visible"		"1"
		"enabled"		"1"
		"tabPosition"	"0"
		"paintbackground"	"0"
	}

	"ItemOptionsPanel"
	{
		"ControlName"	"CLoadoutParticleSlider"
		"fieldname"		"ItemOptionsPanel"
		"xpos"			"0"
		"ypos"			"0"
		"zpos"			"100"
		"wide"			"140"
		"tall"			"75"
		"autoResize"	"1"
		"visible"		"0"
		"bgcolor_override"		"69 64 63 255"
		"PaintBackgroundType"	"2"
	}

	"TauntHintLabel"
	{
		"ControlName"	"CExLabel"
		"fieldName"		"TauntHintLabel"
		"font"			"ItemFontAttribLarge"
		"xpos"			"9999"
		"ypos"			"9999"
		"zpos"			"1"	
		"wide"			"250"
		"tall"			"25"
		"autoResize"	"0"
		"pinCorner"		"0"
		"visible"		"0"
		"enabled"		"0"
		"labelText"		"#TF_ClassLoadoutTauntInputHint"
		"textAlignment"	"east"
		"centerwrap"	"1"
	}

	"CharacterLoadoutButton"
	{
		"ControlName"	"CExImageButton"
		"fieldName"		"CharacterLoadoutButton"
		"xpos"			"c-160"
		"ypos"			"85"
		"zpos"			"2"
		"wide"			"25"
		"tall"			"20"
		"autoResize"	"0"
		"pinCorner"		"3"
		"visible"		"1"
		"enabled"		"1"
		"tabPosition"	"0"
		"labelText"		"L"
		"font"			"nüMedium14"
		"textAlignment"	"center"
		"dulltext"		"0"
		"brighttext"	"0"
		"default"		"0"
		"Command"		"characterloadout"
		"sound_depressed"	"UI/buttonclick.wav"
		"sound_released"	"UI/buttonclickrelease.wav"

		"SubImage"
		{
			"ControlName"	"ImagePanel"
			"fieldName"		"SubImage"
			"xpos"			"2"
			"ypos"			"0"
			"zpos"			"1"
			"wide"			"20"
			"tall"			"20"
			"visible"		"0"
			"enabled"		"0"
			"scaleImage"	"1"
			"image"			"glyph_items"
		}
	}

	"TauntLoadoutButton"
	{
		"ControlName"	"CExImageButton"
		"fieldName"		"TauntLoadoutButton"
		"xpos"			"c-160"
		"ypos"			"110"
		"zpos"			"2"
		"wide"			"25"
		"tall"			"20"
		"autoResize"	"0"
		"pinCorner"		"3"
		"visible"		"1"
		"enabled"		"1"
		"tabPosition"	"0"
		"labelText"		"T"
		"font"			"nüMedium14"
		"textAlignment"	"center"
		"dulltext"		"0"
		"brighttext"	"0"
		"default"		"0"
		"Command"		"tauntloadout"
		"sound_depressed"	"UI/buttonclick.wav"
		"sound_released"	"UI/buttonclickrelease.wav"

		"SubImage"
		{
			"ControlName"	"ImagePanel"
			"fieldName"		"SubImage"
			"xpos"			"2"
			"ypos"			"0"
			"zpos"			"1"
			"wide"			"20"
			"tall"			"20"
			"visible"		"1"
			"enabled"		"0"
			"scaleImage"	"0"
			"image"			"../hud/ico_reel"
		}
	}

	"TauntsExplanation"
	{
		"ControlName"	"CExplanationPopup"
		"fieldName"		"TauntsExplanation"
		"xpos"			"0"
		"ypos"			"0"
		"zpos"			"10000"
		"wide"			"250"
		"tall"			"160"
		"visible"		"0"
		"PaintBackgroundType"	"2"
		"paintbackground" "0"
		"border"		"MainMenuHighlightBorder"
		
		"force_close"	"1"
		"end_x"			"c-180"
		"end_y"			"150"
		"end_wide"		"250"
		"end_tall"		"140"
		"callout_inparents_x"	"c15"
		"callout_inparents_y"	"330"
		"next_explanation"		""
		
		"TitleLabel"
		{
			"ControlName"	"CExLabel"
			"fieldName"		"TitleLabel"
			"font"			"HudFontSmallBold"
			"labelText"		"#TauntsExplanation_Title"
			"textAlignment"	"north"
			"xpos"			"20"
			"ypos"			"10"
			"wide"			"210"
			"tall"			"30"
			"autoResize"	"0"
			"pinCorner"		"0"
			"visible"		"1"
			"enabled"		"1"
			"wrap"			"1"
			"fgcolor_override" "46 43 42 255"
		}
		
		"TextLabel"
		{
			"ControlName"	"CExLabel"
			"fieldName"		"TextLabel"
			"font"			"HudFontSmall"
			"labelText"		"#ClassLoadoutTauntsExplanation_Text"
			"textAlignment"	"north-west"
			"xpos"			"20"
			"ypos"			"35"
			"wide"			"210"
			"tall"			"200"
			"autoResize"	"0"
			"pinCorner"		"0"
			"visible"		"1"
			"enabled"		"1"
			"wrap"			"1"
			"fgcolor_override" "46 43 42 255"
		}
		
		"CloseButton"
		{
			"ControlName"	"CExImageButton"
			"fieldName"		"CloseButton"
			"xpos"			"230"
			"ypos"			"5"
			"zpos"			"10"
			"wide"			"14"
			"tall"			"14"
			"autoResize"	"0"
			"pinCorner"		"0"
			"visible"		"1"
			"enabled"		"1"
			"tabPosition"	"0"
			"labeltext"		""
			"font"			"HudFontSmallBold"
			"textAlignment"	"center"
			"dulltext"		"0"
			"brighttext"	"0"
			"default"		"0"
			"sound_depressed"	"UI/buttonclick.wav"
			"sound_released"	"UI/buttonclickrelease.wav"
			"Command"		"close"
			
			"paintbackground"	"0"
			
			"defaultFgColor_override" "46 43 42 255"
			"armedFgColor_override" "235 226 202 255"
			"depressedFgColor_override" "46 43 42 255"
			
			"image_drawcolor"	"117 107 94 255"
			"image_armedcolor"	"200 80 60 255"
			"SubImage"
			{
				"ControlName"	"ImagePanel"
				"fieldName"		"SubImage"
				"xpos"			"0"
				"ypos"			"0"
				"zpos"			"1"
				"wide"			"14"
				"tall"			"14"
				"visible"		"1"
				"enabled"		"1"
				"image"			"close_button"
				"scaleImage"	"1"
			}				
		}		
	}
}
