"Resource/UI/HudDemomanCharge.res"
{
	"ChargeLabel"
	{
		"ControlName"			"CExLabel"
		"fieldName"				"ChargeLabel"
		"xpos"			"0"
		"ypos"			"1"
		"zpos"			"3"
		"wide"			"118"
		"tall"			"9"
		"pinCorner"				"2"
		"visible"				"1"
		"enabled"				"1"
		"fgcolor_override" 		"white"
		"labelText"				"CHARGE"
		"textAlignment"			"center"
		"font"					"nü10"
	}	
	"ChargeMeter"
	{	
		"ControlName"	"ContinuousProgressBar"
		"fieldName"		"ChargeMeter"
		"font"			"Default"
		"xpos"			"-1"
		"ypos"			"1"
		"zpos"			"2"
		"wide"			"120"
		"tall"			"9"				
		"autoResize"	"0"
		"pinCorner"		"0"
		"visible"		"1"
		"enabled"		"1"
		"textAlignment"	"center"
		"bgcolor_override" "MeterBG"
		"fgcolor_override" "Garm3nMeter"
		"dulltext"		"0"
		"brighttext"	"0"
	}					
}
