"Resource/UI/HudItemEffectMeter_Scout.res"
{
	HudItemEffectMeter
	{
		"fieldName"		"HudItemEffectMeter"
		"visible"		"1"
		"enabled"		"1"
		"xpos"			"r110"
		"ypos"			"r34"
		"wide"			"50"
		"tall"			"26"
		"MeterFG"		"White"
		"MeterBG"		"Gray"
	}
	
	"ItemEffectMeterBG"
	{
		"ControlName"	"CTFImagePanel"
		"fieldName"		"ItemEffectMeterBG"
		"xpos"			"9999"
		"ypos"			"9999"
		"zpos"			"0"
		"wide"			"100"
		"tall"			"50"
		"visible"		"0"
		"enabled"		"0"
		"image"			"../hud/misc_ammo_area_horiz2_blue"
		"scaleImage"	"1"	
		"teambg_2"		"../hud/misc_ammo_area_horiz2_red"
		"teambg_3"		"../hud/misc_ammo_area_horiz2_blue"
	}
	
	"ItemEffectMeterLabel"
	{
		"ControlName"			"CExLabel"
		"fieldName"				"ItemEffectMeterLabel"
		"xpos"					"0"
		"ypos"					"16"
		"zpos"					"2"
		"wide"					"50"
		"tall"					"10"
		"autoResize"			"1"
		"pinCorner"				"2"
		"visible"				"1"
		"enabled"				"1"
		"tabPosition"			"0"
		"textAlignment"			"center"
		"dulltext"				"0"
		"brighttext"			"0"
		"font"					"nü10"
	}

	"ItemEffectMeter"
	{	
		"ControlName"			"ContinuousProgressBar"
		"fieldName"				"ItemEffectMeter"
		"font"					"Default"
		"xpos"					"45"
		"ypos"					"23"
		"zpos"					"2"
		"wide"					"30"
		"tall"					"5"				
		"autoResize"			"0"
		"pinCorner"				"0"
		"visible"				"0"
		"enabled"				"1"
		"textAlignment"			"Left"
		"dulltext"				"0"
		"brighttext"			"0"
	}

	"ItemEffectMeterCount"
	{
		"ControlName"			"CExLabel"
		"fieldName"				"ItemEffectMeterCount"
		"xpos"					"0"
		"ypos"					"0"
		"zpos"					"2"
		"wide"					"50"
		"tall"					"16"
		"pinCorner"				"2"
		"visible"				"1"
		"enabled"				"1"
		"tabPosition"			"0"
		"labelText"				"%progresscount%"
		"textAlignment"			"center"
		"dulltext"				"0"
		"brighttext"			"0"
		"font"					"nüMedium16"
	}
	"ItemEffectMeterCountShadow"
	{
		"ControlName"			"CExLabel"
		"fieldName"				"ItemEffectMeterCountShadow"
		"xpos"					"0"
		"ypos"					"1"
		"zpos"					"1"
		"wide"					"50"
		"tall"					"16"
		"pinCorner"				"2"
		"visible"				"1"
		"enabled"				"1"
		"tabPosition"			"0"
		"labelText"				"%progresscount%"
		"textAlignment"			"center"
		"dulltext"				"0"
		"brighttext"			"0"
		"font"					"nüMedium16"
		"fgcolor"				"ShadowBlack"
	}
}