"Resource/UI/HudItemEffectMeter_Demoman.res"
{
	HudItemEffectMeter
	{
		"fieldName"		"HudItemEffectMeter"
		"visible"		"1"
		"enabled"		"1"
		"xpos"			"76"
		"ypos"			"r50"
		"wide"			"f0"
		"tall"			"f0"
		"MeterFG"		"White"
		"MeterBG"		"Gray"
	}
	
	"ItemEffectMeterBG"
	{
		"ControlName"	"ImagePanel"
		"fieldName"		"ItemEffectMeterBG"
		"xpos"			"25"
		"ypos"			"0"
		"zpos"			"0"
		"wide"			"55"
		"tall"			"17"
		"autoResize"	"0"
		"pinCorner"		"0"
		"visible"		"1"
		"enabled"		"1"
		"fillcolor"		"220 220 220 0"
	}
	"ItemEffectMeterLabel"
	{
		"ControlName"			"CExLabel"
		"fieldName"				"ItemEffectMeterLabel"
		"xpos"					"5"
		"ypos"					"10"
		"zpos"					"2"
		"wide"					"0"
		"tall"					"0"
		"autoResize"			"1"
		"pinCorner"				"2"
		"visible"				"0"
		"enabled"				"0"
		"tabPosition"			"0"
		"labelText"				"im a bad player"
		"textAlignment"			"west"
		"dulltext"				"0"
		"brighttext"			"0"
		"font"					"nü12"
		"fgcolor_override"		"blank"
	}	
	"ItemEffectMeterLabel1"
	{
		"ControlName"			"CExLabel"
		"fieldName"				"ItemEffectMeterLabel1"
		"xpos"					"18"
		"ypos"					"10"
		"zpos"					"2"
		"wide"					"75"
		"tall"					"20"
		"autoResize"			"1"
		"pinCorner"				"2"
		"visible"				"1"
		"enabled"				"1"
		"tabPosition"			"0"
		"labelText"				"FRAGS"
		"textAlignment"			"west"
		"dulltext"				"0"
		"brighttext"			"0"
		"font"					"nü12"
		"fgcolor_override"		"white"
	}
	"ItemEffectMeterLabelshdw"
	{
		"ControlName"			"CExLabel"
		"fieldName"				"ItemEffectMeterLabelshdw"
		"xpos"					"18"
		"ypos"					"10"
		"zpos"					"2"
		"wide"					"75"
		"tall"					"20"
		"autoResize"			"1"
		"pinCorner"				"2"
		"visible"				"1"
		"enabled"				"1"
		"tabPosition"			"0"
		"labelText"				"FRAGS"
		"textAlignment"			"west"
		"dulltext"				"0"
		"brighttext"			"0"
		"font"					"nü12"
		"fgcolor_override"		"0 0 0 255"
	}

	"ItemEffectMeter"
	{	
		"ControlName"			"ContinuousProgressBar"
		"fieldName"				"ItemEffectMeter"
		"font"					"Default"
		"xpos"					"25"
		"ypos"					"23"
		"zpos"					"2"
		"wide"					"40"
		"tall"					"6"				
		"autoResize"			"0"
		"pinCorner"				"0"
		"visible"				"0"
		"enabled"				"0"
		"textAlignment"			"Left"
		"dulltext"				"0"
		"brighttext"			"0"
	}					
	
	"ItemEffectMeterCount"
	{
		"ControlName"			"CExLabel"
		"fieldName"				"ItemEffectMeterCount"
		"xpos"					"17"
		"ypos"					"-2"
		"zpos"					"2"
		"wide"					"30"
		"tall"					"20"	
		"pinCorner"				"2"
		"visible"				"1"
		"enabled"				"1"
		"tabPosition"			"0"
		"labelText"				"%progresscount%"
		"textAlignment"			"center"
		"dulltext"				"0"
		"brighttext"			"0"
		"font"					"nü22"
		"fgcolor"				"nüwhite"
	}
}
