"Resource/UI/HudItemEffectMeter_SodaPopper.res"
{
	HudItemEffectMeter
	{
		"fieldName"		"HudItemEffectMeter"
		"visible"		"1"
		"enabled"		"1"
		"xpos"			"c-75"
		"ypos"			"c129"
		"wide"			"200"
		"tall"			"100"
		"MeterFG"		"White"
		"MeterBG"		"Gray"
	}
	
	"ItemEffectMeterBG"
	{
		"ControlName"	"CTFImagePanel"
		"fieldName"		"ItemEffectMeterBG"
		"xpos"			"9999"
		"ypos"			"9999"
		"zpos"			"0"
		"wide"			"100"
		"tall"			"50"
		"visible"		"0"
		"enabled"		"0"
		"image"			"../hud/misc_ammo_area_horiz3_blue"
		"scaleImage"	"1"	
		"teambg_2"		"../hud/misc_ammo_area_horiz3_red"
		"teambg_3"		"../hud/misc_ammo_area_horiz3_blue"
	}
	
	"ItemEffectMeterLabel"
	{
		"ControlName"			"CExLabel"
		"fieldName"				"ItemEffectMeterLabel"
		"xpos"					"0"
		"ypos"					"0"
		"zpos"					"2"
		"wide"					"150"
		"tall"					"6"
		"autoResize"			"1"
		"pinCorner"				"2"
		"visible"				"0"
		"enabled"				"0"
		"tabPosition"			"0"
		"labelText"				"#TF_ENERGYDRINK"
		"textAlignment"			"center"
		"dulltext"				"0"
		"brighttext"			"0"
		"font"					"nü8"
		"fgcolor_override"		"150 150 150 255"
	}

	"ItemEffectMeter"
	{	
		"ControlName"			"ContinuousProgressBar"
		"fieldName"				"ItemEffectMeter"
		"font"					"Default"
		"xpos"					"15"
		"ypos"					"1"
		"zpos"					"2"
		"wide"					"120"
		"tall"					"2"				
		"autoResize"			"0"
		"pinCorner"				"0"
		"visible"				"1"
		"enabled"				"1"
		"textAlignment"			"center"
		"dulltext"				"0"
		"brighttext"			"0"
		"fgcolor_override"		"nüWhite"
		"bgcolor_override"		"LightPanelBG"
	}					
}