"Resource/UI/HudItemEffectMeter_Sniper.res"
{
	HudItemEffectMeter
	{
		"fieldName"		"HudItemEffectMeter"
		"visible"		"1"
		"enabled"		"1"
		"xpos"			"r355"
		"ypos"			"r140"
		"wide"			"50"
		"tall"			"26"
		"MeterFG"		"White"
		"MeterBG"		"Gray"
	}
	
	"ItemEffectMeterBG"
	{
		"ControlName"	"CTFImagePanel"
		"fieldName"		"ItemEffectMeterBG"
		"xpos"			"9999"
		"ypos"			"9999"
		"zpos"			"0"
		"wide"			"76"
		"tall"			"44"
		"visible"		"0"
		"enabled"		"0"
		"image"			"../hud/misc_ammo_area_blue"
		"scaleImage"	"1"	
		"teambg_2"		"../hud/misc_ammo_area_red"
		"teambg_3"		"../hud/misc_ammo_area_blue"
	}
	
	"ItemEffectMeterLabel"
	{
		"ControlName"			"CExLabel"
		"fieldName"				"ItemEffectMeterLabel"
		"xpos"					"5"
		"ypos"					"3"
		"zpos"					"2"
		"wide"					"50"
		"tall"					"10"
		"autoResize"			"1"
		"pinCorner"				"2"
		"visible"				"1"
		"enabled"				"1"
		"tabPosition"			"0"
		"labelText"				"#TF_Ball"
		"textAlignment"			"center"
		"dulltext"				"0"
		"brighttext"			"0"
		"font"					"nü10"
		"fgcolor_override"		"nüWhite"
	}

	"ItemEffectMeter"
	{	
		"ControlName"			"ContinuousProgressBar"
		"fieldName"				"ItemEffectMeter"
		"font"					"Default"
		"xpos"					"25"
		"ypos"					"23"
		"zpos"					"2"
		"wide"					"40"
		"tall"					"6"				
		"autoResize"			"0"
		"pinCorner"				"0"
		"visible"				"0"
		"enabled"				"0"
		"textAlignment"			"Left"
		"dulltext"				"0"
		"brighttext"			"0"
	}					
	
	"ItemEffectMeterCount"
	{
		"ControlName"			"CExLabel"
		"fieldName"				"ItemEffectMeterCount"
		"xpos"					"-15"
		"ypos"					"0"
		"zpos"					"2"
		"wide"					"50"
		"tall"					"16"	
		"pinCorner"				"2"
		"visible"				"1"
		"enabled"				"1"
		"tabPosition"			"0"
		"labelText"				"%progresscount%"
		"textAlignment"			"center"
		"dulltext"				"0"
		"brighttext"			"0"
		"font"					"nüMedium16"
		"fgcolor_override"		"nüWhite"
	}
	"ItemEffectMeterCountShadow"
	{
		"ControlName"			"CExLabel"
		"fieldName"				"ItemEffectMeterCountShadow"
		"xpos"					"-15"
		"ypos"					"1"
		"zpos"					"2"
		"wide"					"50"
		"tall"					"16"	
		"pinCorner"				"2"
		"visible"				"1"
		"enabled"				"1"
		"tabPosition"			"0"
		"labelText"				"%progresscount%"
		"textAlignment"			"center"
		"dulltext"				"0"
		"brighttext"			"0"
		"font"					"nüMediumShadow16"
		"fgcolor_override"		"ShadowBlack"
	}
}
