#base "HudItemEffectMeter.res"
"Resource/UI/HudRocketPack.res"
{
	HudItemEffectMeter
	{
		"fieldName"		"HudItemEffectMeter"
		"visible"		"1"
		"enabled"		"1"
		"xpos"			"c108"
		"ypos"			"c146"
		"wide"			"50"
		"tall"			"20"
	}

	"ItemEffectMeterBG"
	{
		"ControlName"	"CTFImagePanel"
		"fieldName"		"ItemEffectMeterBG"
		"xpos"			"9999"
		"ypos"			"9999"
		"zpos"			"1"
		"wide"			"90"
		"tall"			"45"
		"visible"		"0"
		"enabled"		"0"
		"scaleImage"	"1"	
		"image"				"../hud/ammo_blue_bg"
		"teambg_2"			"../hud/ammo_red_bg"
		"teambg_3"			"../hud/ammo_blue_bg"
	}

	"ItemEffectIcon"
	{
		"ControlName"	"CTFImagePanel"
		"fieldName"		"ItemEffectIcon"
		"xpos"			"9999"
		"ypos"			"9999"
		"zpos"			"2"
		"wide"			"32"
		"tall"			"32"
		"visible"		"0"
		"enabled"		"0"
		"image"			"../hud/pyro_jetpack_off2"
		"scaleImage"	"1"	
	}

	"ItemEffectMeterLabel"
	{
		"ControlName"	"CExLabel"
		"fieldName"		"ItemEffectMeterLabel"
		"xpos"			"0"
		"ypos"			"0"
		"zpos"			"2"
		"wide"			"48"
		"tall"			"12"
		"autoResize"	"1"
		"pinCorner"		"2"
		"visible"		"1"
		"enabled"		"1"
		"tabPosition"	"0"
		"labelText"		"#TF_RocketPack_Disabled"
		"textAlignment"	"center"
		"dulltext"		"0"
		"brighttext"	"0"
		"font"			"nü10"
		"fgcolor"		"178 0 0 255"
	}

	"ItemEffectMeter"
	{	
		"ControlName"	"ContinuousProgressBar"
		"fieldName"		"ItemEffectMeter"
		"font"			"Default"
		"xpos"			"0"
		"ypos"			"14"
		"zpos"			"2"
		"wide"			"22"
		"tall"			"2"				
		"autoResize"	"0"
		"pinCorner"		"0"
		"visible"		"1"
		"enabled"		"1"
		"textAlignment"	"Left"
		"dulltext"		"0"
		"brighttext"	"0"
		"fgcolor"		"White"
	}

	"ItemEffectMeter2"
	{	
		"ControlName"	"ContinuousProgressBar"
		"fieldName"		"ItemEffectMeter2"
		"font"			"Default"
		"xpos"			"26"
		"ypos"			"14"
		"zpos"			"2"
		"wide"			"22"
		"tall"			"2"				
		"autoResize"	"0"
		"pinCorner"		"0"
		"visible"		"1"
		"enabled"		"1"
		"textAlignment"	"Left"
		"dulltext"		"0"
		"brighttext"	"0"
		"fgcolor"		"White"
	}
}
