"Resource/UI/MatchMakingDashboard.res"
{
	"MMDashboard"
	{
		"fieldName"				"MMDashboard"
		"visible"				"1"
		"enabled"				"1"
		"xpos"					"cs-0.5"
		"ypos"					"20"
		"zpos"					"1"
		"wide"					"f0"
		"tall"					"30"
		"keyboardinputenabled"	"0"

		"collapsed_height"	"0"
		"expanded_height"	"30"
		"resize_time"		"0.2"
	}

	"TopBar"
	{
		"ControlName"	"EditablePanel"
		"fieldName"		"TopBar"
		"xpos"			"cs-0.5"
		"ypos"			"0"
		"zpos"			"1"
		"wide"			"f0"
		"tall"			"30"
		"visible"		"1"
		"proportionaltoparent"	"1"

		"pinCorner"		"2"
		"autoResize"	"1"

		"BGPanel"
		{
			"ControlName"	"EditablePanel"
			"fieldName"		"BGPanel"
			"xpos"			"cs-0.5"
			"ypos"			"0"
			"zpos"			"-1"
			"wide"			"p1"
			"tall"			"f10"
			"visible"		"1"
			"PaintBackgroundType"	"0"
			"bgcolor_override"	"35 35 35 255"
			"proportionaltoparent"	"1"
		}

		"OuterShadow"
		{
			"ControlName"	"EditablePanel"
			"fieldName"		"OuterShadow"
			"xpos"			"cs-0.5"
			"ypos"			"cs-0.5"
			"zpos"			"-2"
			"wide"			"p1.1"
			"tall"			"p1"
			"visible"		"1"
			"PaintBackgroundType"	"2"
			"border"		"OuterShadowBorder"
			"proportionaltoparent"	"1"
		}

		"ToggleChatButton"
		{
			"ControlName"	"CExImageButton"
			"fieldName"		"ToggleChatButton"
			"xpos"			"0"
			"ypos"			"0"
			"zpos"			"100"
			"wide"			"30"
			"tall"			"20"
			"autoResize"	"0"
			"pinCorner"		"3"
			"visible"		"1"
			"enabled"		"1"
			"tabPosition"	"0"
			"font"			"HudFontSmallestBold"
			"textAlignment"	"center"
			"dulltext"		"0"
			"brighttext"	"0"
			"Command"		"toggle_chat"
			"proportionaltoparent"	"1"
			"labeltext"		""
			"mouseinputenabled"	"1"
			"keyboardinputenabled"	"0"
			"actionsignallevel"	"2"
			"roundedcorners"	"0"

			"sound_depressed"	"UI/buttonclick.wav"
			"sound_released"	"UI/buttonclickrelease.wav"

			"defaultFgColor_override" "nüWhite"
			"armedFgColor_override"   "nüWhite"
			"depressedFgColor_override" "nüWhite"
			"defaultBgColor_override" "Blank"
			"armedBgColor_override"   "45 45 45 255"
			"depressedBgColor_override" "45 45 45 255"

			"image_drawcolor"	"nüWhite"
			"image_armedcolor"	"nüWhite"

			"SubImage"
			{
				"ControlName"	"ImagePanel"
				"fieldName"		"SubImage"
				"xpos"			"cs-0.5"
				"ypos"			"cs-0.5"
				"zpos"			"1"
				"wide"			"14"
				"tall"			"14"
				"visible"		"1"
				"enabled"		"1"
				"scaleImage"	"1"
				"proportionaltoparent"	"1"
				"image"			"replay/thumbnails/buttons/chat"
			}
		}

		"PartySlot0"
		{
			"ControlName"	"CDashboardPartyMember"
			"fieldName"		"PartySlot0"
			"xpos"			"30"
			"ypos"			"0"
			"zpos"			"100"
			"wide"			"o1"
			"tall"			"20"
			"autoResize"	"0"
			"pinCorner"		"3"
			"visible"		"1"
			"enabled"		"1"
			"tabPosition"	"0"
			"proportionaltoparent"	"1"
			"mouseinputenabled"	"1"
			"keyboardinputenabled"	"0"

			"party_slot"	"0"
		}

		"PartySlot1"
		{
			"ControlName"	"CDashboardPartyMember"
			"fieldName"		"PartySlot1"
			"xpos"			"50"
			"ypos"			"0"
			"zpos"			"100"
			"wide"			"o1"
			"tall"			"20"
			"autoResize"	"0"
			"pinCorner"		"3"
			"visible"		"1"
			"enabled"		"1"
			"tabPosition"	"0"
			"proportionaltoparent"	"1"
			"mouseinputenabled"	"1"
			"keyboardinputenabled"	"0"

			"party_slot"	"1"
		}

		"PartySlot2"
		{
			"ControlName"	"CDashboardPartyMember"
			"fieldName"		"PartySlot2"
			"xpos"			"70"
			"ypos"			"0"
			"zpos"			"100"
			"wide"			"o1"
			"tall"			"20"
			"autoResize"	"0"
			"pinCorner"		"3"
			"visible"		"1"
			"enabled"		"1"
			"tabPosition"	"0"
			"proportionaltoparent"	"1"
			"mouseinputenabled"	"1"
			"keyboardinputenabled"	"0"

			"party_slot"	"2"
		}

		"PartySlot3"
		{
			"ControlName"	"CDashboardPartyMember"
			"fieldName"		"PartySlot3"
			"xpos"			"90"
			"ypos"			"0"
			"zpos"			"100"
			"wide"			"o1"
			"tall"			"20"
			"autoResize"	"0"
			"pinCorner"		"3"
			"visible"		"1"
			"enabled"		"1"
			"tabPosition"	"0"
			"proportionaltoparent"	"1"
			"mouseinputenabled"	"1"
			"keyboardinputenabled"	"0"

			"party_slot"	"3"
		}

		"PartySlot4"
		{
			"ControlName"	"CDashboardPartyMember"
			"fieldName"		"PartySlot4"
			"xpos"			"110"
			"ypos"			"0"
			"zpos"			"100"
			"wide"			"o1"
			"tall"			"20"
			"autoResize"	"0"
			"pinCorner"		"3"
			"visible"		"1"
			"enabled"		"1"
			"tabPosition"	"0"
			"proportionaltoparent"	"1"
			"mouseinputenabled"	"1"
			"keyboardinputenabled"	"0"

			"party_slot"	"4"
		}

		"PartySlot5"
		{
			"ControlName"	"CDashboardPartyMember"
			"fieldName"		"PartySlot5"
			"xpos"			"130"
			"ypos"			"0"
			"zpos"			"100"
			"wide"			"o1"
			"tall"			"20"
			"autoResize"	"0"
			"pinCorner"		"3"
			"visible"		"1"
			"enabled"		"1"
			"tabPosition"	"0"
			"proportionaltoparent"	"1"
			"mouseinputenabled"	"1"
			"keyboardinputenabled"	"0"

			"party_slot"	"5"
		}

		"QueueContainer"
		{
			"ControlName"	"EditablePanel"
			"fieldName"		"QueueContainer"
			"xpos"			"cs-0.5"
			"ypos"			"-50"
			"zpos"			"111"
			"wide"			"185"
			"tall"			"f5"
			"visible"		"1"
			"proportionaltoparent"	"1"

			"OuterShadow"
			{
				"ControlName"	"Panel"
				"fieldName"		"OuterShadow"
				"xpos"			"0"
				"ypos"			"0"
				"zpos"			"-1"
				"wide"			"f0"
				"tall"			"f0"
				"visible"		"0"
				"proportionaltoparent"	"1"

				"border"		"OuterShadowBorderThin"
			}

			"BGPanel"
			{
				"ControlName"	"Panel"
				"fieldName"		"BGPanel"
				"xpos"			"cs-0.5"
				"ypos"			"cs-0.5"
				"zpos"			"0"
				"wide"			"f0"
				"tall"			"f0"
				"visible"		"1"
				"proportionaltoparent"	"1"

				"border"		"NoBorder"
				"bgcolor_override"	"45 45 45 255"
			}

			"QueueLogoButton"
			{
				"ControlName"	"Button"
				"fieldName"		"QueueLogoButton"
				"xpos"			"4"
				"ypos"			"0"
				"zpos"			"10"
				"wide"			"o1"
				"tall"			"f0"
				"autoResize"	"0"
				"pinCorner"		"0"
				"visible"		"1"
				"enabled"		"1"
				"tabPosition"	"0"
				"labeltext"		""
				"font"			"HudFontSmallBold"
				"textAlignment"	"center"
				"dulltext"		"0"
				"brighttext"	"0"
				"default"		"1"
				"Command"		"queue_logo_clicked"
				"proportionaltoparent"	"1"
				"actionsignallevel"	"3"
				"button_activation_type"	"1"
			
				"paintbackground"	"0"
				"paintborder"		"0"				
			}

			"CTFLogoPanel"
			{
				"ControlName"	"CTFLogoPanel"
				"fieldname"		"CTFLogoPanel"
				"xpos"			"4"
				"ypos"			"0"
				"zpos"			"5"
				"wide"			"o1"
				"tall"			"f0"
				"visible"		"1"
				"proportionaltoparent"	"1"

				"radius"		"9"
				"velocity"		"100"

				"fgcolor_override"	"TFOrange"
			}

			"QueueText"
			{
				"ControlName"	"CAutoFittingLabel"
				"fieldName"		"QueueText"
				"xpos"			"33"
				"ypos"			"0"
				"wide"			"f55"
				"zpos"			"100"
				"tall"			"f0"
				"visible"		"1"
				"enabled"		"1"
				"font"			"nüMedium12"
				"fgcolor_override"	"nüWhite"
				"textAlignment"	"west"
				"labelText"		"%queue_state%"
				"proportionaltoparent"	"1"
				"mouseinputenabled"	"0"

				"fonts"
				{
					"0"
					{
						"font"	"HudFontSmallestBold" // TF2 Build 11
					}
					"1"
					{
						"font"	"StorePromotionsTitle" // TF2 Build 10
					}
					"2"
					{
						"font"	"FontStorePrice" // TF2 Build 9
					}
				}
			}

			"MultiQueuesManageButton"
			{
				"ControlName"	"CExImageButton"
				"fieldName"		"MultiQueuesManageButton"
				"xpos"			"rs1"
				"ypos"			"0"
				"zpos"			"10"
				"wide"			"30"
				"tall"			"f0"
				"autoResize"	"0"
				"pinCorner"		"0"
				"visible"		"1"
				"enabled"		"1"
				"tabPosition"	"0"
				"labeltext"		""
				"font"			"HudFontSmallBold"
				"textAlignment"	"center"
				"dulltext"		"0"
				"brighttext"	"0"
				"default"		"1"
				"sound_depressed"	"UI/buttonclick.wav"
				"sound_released"	"UI/buttonclickrelease.wav"
				"Command"		"manage_queues"
				"proportionaltoparent"	"1"
				"actionsignallevel"	"3"
			
				"paintbackground"	"0"
			
				"defaultFgColor_override" 	"Blank"
				"armedFgColor_override"   	"Blank"
				"depressedFgColor_override" "Blank"

				"image_drawcolor"	"nüOffWhite"
				"image_armedcolor"	"nüWhite"
				"SubImage"
				{
					"ControlName"	"ImagePanel"
					"fieldName"		"SubImage"
					"xpos"			"cs-0.5"
					"ypos"			"cs-0.5"
					"zpos"			"1"
					"wide"			"14"
					"tall"			"14"
					"visible"		"1"
					"enabled"		"1"
					"image"			"glyph_options"
					"scaleImage"	"1"
					"proportionaltoparent"	"1"
				}				
			}		

			"CloseButton"
			{
				"ControlName"	"CExImageButton"
				"fieldName"		"CloseButton"
				"xpos"			"rs1"
				"ypos"			"0"
				"zpos"			"10"
				"wide"			"20"
				"tall"			"f0"
				"autoResize"	"0"
				"pinCorner"		"0"
				"visible"		"1"
				"enabled"		"1"
				"tabPosition"	"0"
				"labeltext"		""
				"font"			""
				"textAlignment"	"center"
				"dulltext"		"0"
				"brighttext"	"0"
				"default"		"1"
				"sound_depressed"	"UI/buttonclick.wav"
				"sound_released"	"UI/buttonclickrelease.wav"
				"Command"		"leave_queue"
				"proportionaltoparent"	"1"
				"actionsignallevel"	"3"
			
				"paintbackground"	"0"
			
				"defaultFgColor_override" 	"Blank"
				"armedFgColor_override"   	"Blank"
				"depressedFgColor_override" "Blank"

				"image_drawcolor"	"nüWhite"
				"image_armedcolor"	"nüWhite"
				"SubImage"
				{
					"ControlName"	"ImagePanel"
					"fieldName"		"SubImage"
					"xpos"			"cs-0.5"
					"ypos"			"cs-0.5"
					"zpos"			"1"
					"wide"			"12"
					"tall"			"12"
					"visible"		"1"
					"enabled"		"1"
					"scaleImage"	"1"
					"image"			"replay/thumbnails/buttons/close"
					"proportionaltoparent"	"1"
				}		
			}		
		}

		"JoinPartyLobbyContainer"
		{
			"ControlName"	"EditablePanel"
			"fieldName"		"JoinPartyLobbyContainer"
			"xpos"			"cs-0.5"
			"ypos"			"-50"
			"zpos"			"110"
			"wide"			"220"
			"tall"			"f0"
			"visible"		"1"
			"proportionaltoparent"	"1"

			"OuterShadow"
			{
				"ControlName"	"Panel"
				"fieldName"		"OuterShadow"
				"xpos"			"0"
				"ypos"			"0"
				"zpos"			"-1"
				"wide"			"f0"
				"tall"			"f0"
				"visible"		"0"
				"proportionaltoparent"	"1"

				"border"		"OuterShadowBorderThin"
			}

			"BGPanel"
			{
				"ControlName"	"Panel"
				"fieldName"		"BGPanel"
				"xpos"			"cs-0.5"
				"ypos"			"cs-0.5"
				"zpos"			"0"
				"wide"			"f6"
				"tall"			"f6"
				"visible"		"1"
				"proportionaltoparent"	"1"

				"border"		"NoBorder"
				"bgcolor_override"	"45 45 45 255"
			}

			"PromptText"
			{
				"ControlName"	"Label"
				"fieldName"		"PromptText"
				"xpos"			"cs-0.5"
				"ypos"			"1"
				"wide"			"f35"
				"zpos"			"100"
				"tall"			"f0"
				"visible"		"1"
				"enabled"		"1"
				"font"			"HudFontSmallestBold"
				"fgcolor_override"	"TanLight"
				"textAlignment"	"west"
				"labelText"		"#TF_MM_JoinPartyLobby_Prompt"
				"proportionaltoparent"	"1"
				"mouseinputenabled"	"0"
			}		

			"JoinNowButton"
			{
				"ControlName"	"CExButton"
				"fieldName"		"JoinNowButton"
				"xpos"			"rs1-10"
				"ypos"			"rs1-9"
				"wide"			"40"
				"zpos"			"100"
				"tall"			"15"

				if_queued
				{
					"xpos"			"cs-0.5"
					"wide"			"150"
				}
				
				"autoResize"	"0"
				"pinCorner"		"3"
				"visible"		"1"
				"enabled"		"1"
				"tabPosition"	"0"
				"font"			"HudFontSmallestBold"
				"textAlignment"	"center"
				"dulltext"		"0"
				"brighttext"	"0"
				"Command"		"join_party_match"
				"proportionaltoparent"	"1"
				"labeltext"		"#TF_MM_JoinPartyLobby_Join"
				"mouseinputenabled"	"1"
				"keyboardinputenabled"	"0"
				"actionsignallevel"	"3"

				"armedBgColor_override"		"CreditsGreen"
				"defaultBgColor_override"	"SaleGreen"

				"sound_depressed"	"UI/buttonclick.wav"
				"sound_released"	"UI/buttonclickrelease.wav"
			}
		}

		"QuitButton"
		{
			"ControlName"	"CExImageButton"
			"fieldName"		"QuitButton"
			"xpos"			"r0"
			"ypos"			"0"
			"zpos"			"100"
			"wide"			"0"
			"tall"			"0"
			"autoResize"	"0"
			"pinCorner"		"3"
			"visible"		"0"
			"enabled"		"0"
			"tabPosition"	"0"
			"font"			""
			"textAlignment"	"west"
			"textinsetx"	"0"
			"dulltext"		"0"
			"brighttext"	"0"
			"Command"		"quit"
			"proportionaltoparent"	"1"
			"labeltext"		""
			"mouseinputenabled"	"1"
			"keyboardinputenabled"	"0"
			"actionsignallevel"	"2"
			"RoundedCorners"	"0"

			"sound_depressed"	"UI/buttonclick.wav"
			"sound_released"	"UI/buttonclickrelease.wav"

			"defaultFgColor_override" 	"Blank"
			"armedFgColor_override"   	"Blank"
			"depressedFgColor_override" "Blank"
			"defaultBgColor_override" 	"Blank"
			"armedBgColor_override"   	"190 42 56 255"
			"depressedBgColor_override" "190 42 56 255"
			
			"SubImage"
			{
				"ControlName"	"ImagePanel"
				"fieldName"		"SubImage"
				"xpos"			"cs-0.5"
				"ypos"			"cs-0.5"
				"zpos"			"1"
				"wide"			"15"
				"tall"			"15"
				"visible"		"1"
				"enabled"		"1"
				"scaleImage"	"1"
				"image"			"replay/thumbnails/buttons/quit"
				"proportionaltoparent"	"1"
			}
		}

		"DisconnectButton"
		{
			"ControlName"	"CExImageButton"
			"fieldName"		"DisconnectButton"
			"xpos"			"rs1"
			"ypos"			"0"
			"zpos"			"100"
			"wide"			"30"
			"tall"			"20"
			"autoResize"	"0"
			"pinCorner"		"3"
			"visible"		"1"
			"enabled"		"1"
			"tabPosition"	"0"
			"font"			""
			"textAlignment"	"west"
			"dulltext"		"0"
			"brighttext"	"0"
			"Command"		"quit"
			"proportionaltoparent"	"1"
			"labeltext"		""
			"mouseinputenabled"	"1"
			"keyboardinputenabled"	"0"
			"actionsignallevel"	"2"
			"RoundedCorners"	"0"
			"textinsety"	"0"
			"textinsetx"	"0"
			"use_proportional_insets"	"1"

			"sound_depressed"	"UI/buttonclick.wav"
			"sound_released"	"UI/buttonclickrelease.wav"

			"defaultFgColor_override" 	"Blank"
			"armedFgColor_override"   	"Blank"
			"depressedFgColor_override" "Blank"
			"defaultBgColor_override" 	"169 123 53 255"
			"armedBgColor_override"   	"196 143 66 255"
			"depressedBgColor_override" "196 143 66 255"
			
			"SubImage"
			{
				"ControlName"	"ImagePanel"
				"fieldName"		"SubImage"
				"xpos"			"cs-0.5"
				"ypos"			"cs-0.5"
				"zpos"			"1"
				"wide"			"16"
				"tall"			"16"
				"visible"		"1"
				"enabled"		"1"
				"scaleImage"	"1"
				"image"			"replay/thumbnails/buttons/close"
				"proportionaltoparent"	"1"
			}
		}

		"ResumeButton"
		{
			"ControlName"	"CExImageButton"
			"fieldName"		"ResumeButton"
			"xpos"			"9999"
			"ypos"			"9999"
			"zpos"			"0"
			"wide"			"0"
			"tall"			"f0"
			"autoResize"	"0"
			"pinCorner"		"3"
			"visible"		"0"
			"enabled"		"0"
			"tabPosition"	"0"
			"font"			"nüBold14"
			"textAlignment"	"center"
			"dulltext"		"0"
			"brighttext"	"0"
			"Command"		"resume_game"
			"proportionaltoparent"	"1"
			"labeltext"		"#MMenu_ResumeGame"
			"mouseinputenabled"	"1"
			"keyboardinputenabled"	"0"
			"actionsignallevel"	"2"
			"roundedcorners"	"0"
			"textinsety"	"0"
			"textinsetx"	"0"
			"use_proportional_insets"	"1"

			"sound_depressed"	"UI/buttonclick.wav"
			"sound_released"	"UI/buttonclickrelease.wav"

			"defaultFgColor_override" "nüWhite"
			"armedFgColor_override"   "nüWhite"
			"depressedFgColor_override" "nüWhite"
			"defaultBgColor_override" "Blank"
			"armedBgColor_override"   "nüLightBase"
			"depressedBgColor_override" "nüLightBase"

			"image_drawcolor"	"nüWhite"
			"image_armedcolor"	"nüWhite"

			"SubImage"
			{
				"ControlName"	"ImagePanel"
				"fieldName"		"SubImage"
				"xpos"			"6"
				"ypos"			"10"
				"zpos"			"1"
				"wide"			"14"
				"tall"			"14"
				"visible"		"0"
				"enabled"		"0"
				"scaleImage"	"1"
				"proportionaltoparent"	"1"
				"image"			"icon_resume"
				"drawcolor_override" "TanLight"
			}
		}

		"FindAGameButton"
		{
			"ControlName"	"CExImageButton"
			"fieldName"		"FindAGameButton"
			"xpos"			"rs1-30"
			"ypos"			"0"
			"zpos"			"100"
			"wide"			"80"
			"tall"			"20"
			"autoResize"	"0"
			"pinCorner"		"3"
			"visible"		"1"
			"enabled"		"1"
			"tabPosition"	"0"
			"font"			"nüBold14"
			"textAlignment"	"center"
			"dulltext"		"0"
			"brighttext"	"0"
			"Command"		"find_game"
			"proportionaltoparent"	"1"
			"labeltext"		"#MMenu_FindAGame"

			"mouseinputenabled"	"1"
			"keyboardinputenabled"	"0"
			"actionsignallevel"	"2"
			"roundedcorners"	"0"

			"use_proportional_insets"	"1"

			"sound_depressed"	"UI/buttonclick.wav"
			"sound_released"	"UI/buttonclickrelease.wav"

			"defaultFgColor_override" "nüWhite"
			"armedFgColor_override"   "nüWhite"
			"depressedFgColor_override" "nüWhite"
			"defaultBgColor_override" "Blank"
			"armedBgColor_override"   "45 45 45 255"
			"depressedBgColor_override" "45 45 45 255"

			"image_drawcolor"	"nüWhite"
			"image_armedcolor"	"nüWhite"

			"SubImage"
			{
				"ControlName"	"ImagePanel"
				"fieldName"		"SubImage"
				"xpos"			"8"
				"ypos"			"cs-0.5"
				"zpos"			"1"
				"wide"			"14"
				"tall"			"14"
				"visible"		"0"
				"enabled"		"0"
				"scaleImage"	"1"
				"proportionaltoparent"	"1"
				"image"			"glyph_multiplayer"
				"drawcolor_override" "nüWhite"
			}
		}
	}
}
