"Resource/UI/MatchMakingDashboardSidePanel.res"
{
	"Shade"
	{
		"ControlName"	"EditablePanel"
		"fieldName"		"Shade"
		"xpos"			"3"
		"ypos"			"0"
		"zpos"			"1000"
		"wide"			"f0"
		"tall"			"f0"
		"visible"		"1"
		"proportionaltoparent"	"1"
		"mouseinputenabled"	"0"

		"bgcolor_override"	"0 0 0 255"
	}

	"TitleGradient"
	{
		"ControlName"		"ImagePanel"
		"fieldName"		"TitleGradient"
		"xpos"		"3"
		"ypos"		"0"
		"wide"		"f0"
		"tall"		"60"
		"zpos"	"98"
		"visible"		"0"
		"enabled"		"0"
		"rotation"		"3"
		"proportionaltoparent"	"1"
		"scaleimage"	"1"
		"mouseinputenabled"	"0"
		"alpha"		"180"

		"image"		"gradient_pure_black"
	}
	
	"InnerGradient"
	{
		"ControlName"		"ImagePanel"
		"fieldName"		"InnerGradient"
		"xpos"		"3"
		"rotation"		"2"

		if_left
		{
			"xpos"	"rs1-3"
			"rotation"		"1"
		}

		"ypos"		"0"
		"wide"		"30"
		"tall"		"f0"
		"zpos"	"1000"
		"visible"		"0"
		"enabled"		"0"

		"proportionaltoparent"	"1"
		"scaleimage"	"1"
		"mouseinputenabled"	"0"

		"image"		"gradient_pure_black"
	}

	"OuterGradient"
	{
		"ControlName"		"ImagePanel"
		"fieldName"		"OuterGradient"
		"xpos"		"rs1"
		"rotation"		"1"

		if_left
		{
			"xpos"	"0"
			"rotation"		"2"
		}

		"ypos"		"0"
		"wide"		"20"
		"tall"		"f0"
		"zpos"	"1000"
		"visible"		"1"
		"enabled"		"1"


		"proportionaltoparent"	"1"
		"scaleimage"	"1"
		"mouseinputenabled"	"0"
		"alpha"		"255"

		"image"		"gradient_pure_black"
	}

	"CloseButton"
	{
		"ControlName"	"CExButton"
		"fieldName"		"CloseButton"
		"xpos"			"rs1"
		"labelText"		"►"

		if_left
		{
			"xpos"		"0"
			"labelText"		"◄"
		}

		"ypos"			"0"
		"zpos"			"10000"
		"wide"			"14"
		"tall"			"f0"
		"visible"		"1"
		"proportionaltoparent"	"1"
		"command"		"nav_close"

		"textAlignment"	"east"
		"font"			"nüBold10"

		"armedBgColor_override"	"0 0 0 0"
		"defaultBgColor_override"	"0 0 0 0"

		"armedFgColor_override"	"nüLightBase"
	}

	"ReturnButton"
	{
		"ControlName"	"CExButton"
		"fieldName"		"ReturnButton"
		"xpos"			"0"
		"labelText"		"◄"

		if_left
		{
			"xpos"	"rs1-3"
			"labelText"		"►"
		}

		"ypos"			"0"
		"zpos"			"10000"
		"wide"			"20"
		"tall"			"f0"
		"visible"		"1"
		"proportionaltoparent"	"1"
		"command"		"nav_to"
		"labelText"		"<"

		"textAlignment"	"west"
		"font"			"nüBold10"

		"armedBgColor_override"	"0 0 0 0"
		"defaultBgColor_override"	"0 0 0 0"

		"armedFgColor_override"	"nüLightBase"
	}
	
	"BGPanel"
	{
		"ControlName"	"EditablePanel"
		"fieldName"		"BGPanel"
		"xpos"			"0"
		"ypos"			"0"
		"zpos"			"1"
		"wide"			"f0"
		"tall"			"f-20"
		"visible"		"1"
		"proportionaltoparent"	"1"

		"border"		"NoBorder"
		"bgcolor_override"	"35 35 35 255"
	}
}
