"Resource/UI/MvMInWorldCurrency.res"
{
	"BorderBG"
	{
		"ControlName"	"EditablePanel"
		"fieldName"		"BorderBG"
		"xpos"			"0"
		"ypos"			"0"
		"zpos"			"1"
		"wide"			"46"
		"tall"			"14"
		"visible"		"0"
		"enabled"		"0"
		"PaintBackgroundType"	"0"
		"bgcolor_override"	"TanLight"
	}	
	
	"BackgroundGood"
	{
		"ControlName"	"EditablePanel"
		"fieldName"		"BackgroundGood"
		"xpos"			"1"
		"ypos"			"1"
		"zpos"			"2"
		"wide"			"44"
		"tall"			"12"
		"visible"		"0"
		"enabled"		"0"
		"PaintBackgroundType"	"0"
		"bgcolor_override"	"221 182 72 250"	
	}
	
	"MoneyImagePanel"
	{
		"ControlName"		"ImagePanel"
		"fieldName"		"MoneyImagePanel"
		"xpos"		"0"
		"ypos"		"0"
		"zpos"		"4"
		"wide"		"14"
		"tall"		"14"
		"image"			"../HUD/mvm_cash"
		"visible"		"0"
		"enabled"		"0"
		"scaleImage"	"1"
	}
	
	"RemainingLabel"
	{
		"ControlNAme"	"Label"
		"fieldName"		"RemainingLabel"
		"xpos"			"0"
		"ypos"			"0"
		"wide"			"50"
		"tall"			"12"
		"visible"		"1"
		"enable"		"1"
		"font"			"nüMedium12"
		"labelText"		"Remaining"
		"textAlignment"	"west"
		"fgcolor"		"nüWhite"

	}

	"CurrencyGood"
	{
		"ControlName"	"CExLabel"
		"fieldName"		"CurrencyGood"
		"font"			"nüMedium12"
		"fgcolor"		"CreditsGreen"
		"xpos"			"40"
		"ypos"			"0"
		"zpos"			"4"
		"wide"			"50"
		"tall"			"12"
		"visible"		"1"
		"enabled"		"1"
		"textAlignment"	"east"	
		"labelText"		"%currency%"
	}
	"CurrencyBad"
	{
		"ControlName"	"CExLabel"
		"fieldName"		"CurrencyBad"
		"font"			"nüMedium12"
		"fgcolor"		"RedSolid"
		"xpos"			"40"
		"ypos"			"0"
		"zpos"			"4"
		"wide"			"50"
		"tall"			"12"
		"visible"		"1"
		"enabled"		"1"
		"textAlignment"	"east"	
		"labelText"		"%currency%"
	}
	"CurrencyShadow"
	{
		"ControlName"	"CExLabel"
		"fieldName"		"CurrencyShadow"
		"font"			"nüMediumShadow12"
		"fgcolor"		"ShadowBlack"
		"xpos"			"40"
		"ypos"			"1"
		"zpos"			"4"
		"wide"			"50"
		"tall"			"12"
		"visible"		"1"
		"enabled"		"1"
		"textAlignment"	"east"	
		"labelText"		"%currency%"
	}
}