"Resource/UI/winpanel.res"
{
	"TeamScoresPanel"
	{
		"ControlName"		"EditablePanel"
		"fieldName"		"TeamScoresPanel"
		"xpos"			"0"
		"ypos"			"16"
		"wide"			"200"
		"tall"			"100"
		"visible"		"1"

		"BlueScoreBG"
		{
			"ControlName"		"EditablePanel"
			"fieldName"		"BlueScoreBG"
			"xpos"			"0"
			"ypos"			"15"
			"wide"			"100"
			"tall"			"25"
			"autoResize"	"0"
			"pinCorner"		"0"
			"visible"		"1"
			"enabled"		"1"
			"fillcolor"		"70 130 180 200"
			"scaleImage"		"1"
		}
		"RedScoreBG"
		{
			"ControlName"		"EditablePanel"
			"fieldName"		"RedScoreBG"
			"xpos"			"100"
			"ypos"			"15"
			"wide"			"100"
			"tall"			"25"
			"autoResize"	"0"
			"pinCorner"		"0"
			"visible"		"1"
			"enabled"		"1"
			"fillcolor"		"205 50 50 200"
			"scaleImage"		"1"
		}
		"BlueTeamLabel"
		{
			"ControlName"	"CExLabel"
			"fieldName"		"BlueTeamLabel"
			"font"			"nü24"
			"labelText"		"%blueteamname%"
			"textAlignment"	"west"
			"xpos"			"4"
			"ypos"			"13"
			"zpos"			"10"
			"wide"			"75"
			"tall"			"28"
			"autoResize"	"0"
			"pinCorner"		"0"
			"visible"		"1"
			"enabled"		"1"
		}
		"BlueTeamScore"
		{
			"ControlName"		"CExLabel"
			"fieldName"		"BlueTeamScore"
			"font"			"nü44"
			"labelText"		"%blueteamscore%"
			"textAlignment"		"east"
			"xpos"			"15"
			"ypos"			"-19"
			"zpos"			"3"
			"wide"			"80"
			"tall"			"70"
			"autoResize"	"0"
			"pinCorner"		"0"
			"visible"		"1"
			"enabled"		"1"
		}
		"BlueTeamScoreDropshadow"
		{
			"ControlName"		"CExLabel"
			"fieldName"		"BlueTeamScoreDropshadow"
			"font"			"nü44"
			"labelText"		"%blueteamscore%"
			"textAlignment"		"east"
			"xpos"			"-2"
			"ypos"			"-2"
			"zpos"			"3"
			"wide"			"80"
			"tall"			"70"
			"autoResize"	"0"
			"pinCorner"		"0"
			"visible"		"1"
			"enabled"		"1"
			"fgcolor"		"TransparentBlack"
		
			"pin_to_sibling"	"BlueTeamScore"
			"pin_corner_to_sibling"	"PIN_TOPLEFT"
			"pin_to_sibling_corner"	"PIN_TOPLEFT"
		}
		"BlueLeaderAvatar"
		{
			"ControlName"		"CAvatarImagePanel"
			"fieldName"		"BlueLeaderAvatar"
			"xpos"			"2"
			"ypos"			"17"
			"zpos"			"5"
			"wide"			"21"
			"tall"			"21"
			"visible"		"1"
			"enabled"		"1"
			"image"			""
			"scaleImage"	"1"	
			"color_outline"	"52 48 45 255"
		}
		"RedTeamLabel"
		{
			"ControlName"		"CExLabel"
			"fieldName"		"RedTeamLabel"
			"font"			"nü24"
			"labelText"		"%redteamname%"
			"textAlignment"		"east"
			"xpos"			"122"
			"ypos"			"13"
			"zpos"			"1"
			"wide"			"75"
			"tall"			"28"
			"autoResize"	"0"
			"pinCorner"		"0"
			"visible"		"1"
			"enabled"		"1"
		}
		"RedTeamScore"
		{
			"ControlName"		"CExLabel"
			"fieldName"		"RedTeamScore"
			"font"			"nü44"
			"labelText"		"%redteamscore%"
			"textAlignment"		"west"
			"xpos"			"105"
			"ypos"			"-19"
			"zpos"			"3"
			"wide"			"80"
			"tall"			"70"
			"autoResize"	"0"
			"pinCorner"		"0"
			"visible"		"1"
			"enabled"		"1"
		}
		"RedTeamScoreDropshadow"
		{
			"ControlName"		"CExLabel"
			"fieldName"		"RedTeamScoreDropshadow"
			"font"			"nü44"
			"labelText"		"%redteamscore%"
			"textAlignment"		"west"
			"xpos"			"-2"
			"ypos"			"-2"
			"zpos"			"2"
			"wide"			"80"
			"tall"			"70"
			"autoResize"	"0"
			"pinCorner"		"0"
			"visible"		"1"
			"enabled"		"1"
			"fgcolor"		"TransparentBlack"
		
			"pin_to_sibling"	"RedTeamScore"
			"pin_corner_to_sibling"	"PIN_TOPLEFT"
			"pin_to_sibling_corner"	"PIN_TOPLEFT"
		}
		"RedLeaderAvatar"
		{
			"ControlName"		"CAvatarImagePanel"
			"fieldName"		"RedLeaderAvatar"
			"xpos"			"177"
			"ypos"			"17"
			"zpos"			"5"
			"wide"			"21"
			"tall"			"21"
			"visible"		"1"
			"enabled"		"1"
			"image"			""
			"scaleImage"	"1"	
			"color_outline"	"52 48 45 255"
		}
	}
	"WinPanelBGBorder"
	{
		"ControlName"	"EditablePanel"
		"fieldName"		"WinPanelBGBorder"
		"xpos"			"9999"
		"ypos"			"9999"
		"zpos"			"0"
		"wide"			"500"
		"tall"			"80"
		"visible"		"1"
		"enabled"		"1"
		"scaleImage"		"1"	
		"border"		"TFFatLineBorderBlueBG"
		"proportionaltoparent"	"1"
	}
	"WinPanelBackground2"
	{
		"ControlName"	"ImagePanel"
		"fieldName"		"WinPanelBackground2"
		"xpos"			"0"
		"ypos"			"55"
		"zpos"			"0"
		"wide"			"300"
		"tall"			"152"
		"visible"		"1"
		"enabled"		"1"
		"scaleImage"		"1"	
		"fillcolor"		"0 0 0 250"
		"src_corner_height" "3"
		"src_corner_width" "3"
		"draw_corner_width" "0"
		"draw_corner_height" "0"		
	}
	"WinningTeamLabel"
	{	
		"ControlName"		"CExLabel"
		"fieldName"		"WinningTeamLabel"
		"font"			"nü20"
		"xpos"			"10"
		"ypos"			"54"
		"zpos"			"1"
		"wide"			"180"
		"tall"			"40"
		"autoResize"		"0"
		"pinCorner"		"0"
		"visible"		"1"
		"enabled"		"1"
		"labelText"		"%WinningTeamLabel%"
		"textAlignment"		"Center"
		"dulltext"		"0"
		"brighttext"		"0"
	}
	"WinningTeamLabelDropshadow"
	{	
		"ControlName"		"CExLabel"
		"fieldName"		"WinningTeamLabelDropshadow"
		"font"			"nü20"
		"fgcolor"		"TransparentBlack"
		"xpos"			"-1"
		"ypos"			"-1"
		"zpos"			"1"
		"wide"			"180"
		"tall"			"40"
		"autoResize"		"0"
		"pinCorner"		"0"
		"visible"		"1"
		"enabled"		"1"
		"labelText"		"%WinningTeamLabel%"
		"textAlignment"		"Center"
		"dulltext"		"0"
		"brighttext"		"0"
		
		"pin_to_sibling"	"WinningTeamLabel"
		"pin_corner_to_sibling"	"PIN_TOPLEFT"
		"pin_to_sibling_corner"	"PIN_TOPLEFT"
	}
	"AdvancingTeamLabel"
	{	
		"ControlName"		"CExLabel"
		"fieldName"		"AdvancingTeamLabel"
		"font"			"nü20"
		"xpos"			"10"
		"ypos"			"59"
		"zpos"			"1"
		"wide"			"180"
		"tall"			"20"
		"autoResize"		"0"
		"pinCorner"		"0"
		"visible"		"1"
		"enabled"		"1"
		"labelText"		"%AdvancingTeamLabel%"
		"textAlignment"		"Center"
		"dulltext"		"0"
		"brighttext"		"0"
	}
	"AdvancingTeamLabelDropshadow"
	{	
		"ControlName"		"CExLabel"
		"fieldName"		"AdvancingTeamLabelDropshadow"
		"font"			"nü20"
		"fgcolor"		"black"
		"xpos"			"-1"
		"ypos"			"-1"
		"zpos"			"1"
		"wide"			"180"
		"tall"			"20"
		"autoResize"		"0"
		"pinCorner"		"0"
		"visible"		"1"
		"enabled"		"1"
		"labelText"		"%AdvancingTeamLabel%"
		"textAlignment"		"Center"
		"dulltext"		"0"
		"brighttext"		"0"
		
		"pin_to_sibling"	"AdvancingTeamLabel"
		"pin_corner_to_sibling"	"PIN_TOPLEFT"
		"pin_to_sibling_corner"	"PIN_TOPLEFT"
	}
	"WinReasonLabel"
	{	
		"ControlName"		"CExLabel"
		"fieldName"		"WinReasonLabel"
		"font"			"nü12"
		"xpos"			"9999"
		"ypos"			"9999"
		"zpos"			"1"
		"wide"			"292"
		"tall"			"20"
		"autoResize"		"0"
		"pinCorner"		"0"
		"visible"		"1"
		"enabled"		"1"
		"labelText"		"%WinReasonLabel%"
		"textAlignment"		"Center"
		"dulltext"		"0"
		"brighttext"		"0"
	}
	"DetailsLabel"
	{	
		"ControlName"		"CExLabel"
		"fieldName"		"DetailsLabel"
		"font"			"nü10"
		"xpos"			"10"
		"ypos"			"82"
		"zpos"			"1"
		"wide"			"180"
		"tall"			"20"
		"autoResize"		"0"
		"pinCorner"		"0"
		"visible"		"1"
		"enabled"		"1"
		"labelText"		"%DetailsLabel%"
		"textAlignment"		"Center"
		"dulltext"		"0"
		"brighttext"		"0"
	}
	"ShadedBar"
	{
		"ControlName"		"ImagePanel"
		"fieldName"		"ShadedBar"
		"xpos"			"9999"
		"ypos"			"9999"
		"zpos"			"2"
		"wide"			"268"
		"tall"			"84"
		"autoResize"	"0"
		"pinCorner"		"0"
		"visible"		"1"
		"enabled"		"1"
		"tabPosition"	"0"	
		"fillcolor"		"0 0 0 150"
		"PaintBackgroundType"	"0"
	}
	"TopPlayersLabel"
	{	
		"ControlName"		"CExLabel"
		"fieldName"		"TopPlayerLabel"
		"font"			"nü10"
		"xpos"			"15"
		"ypos"			"100"
		"zpos"			"3"
		"wide"			"200"
		"tall"			"20"
		"autoResize"		"0"
		"pinCorner"		"0"
		"visible"		"1"
		"enabled"		"1"
		"labelText"		"%TopPlayersLabel%"
		"textAlignment"		"west"
		"dulltext"		"0"
		"brighttext"		"0"
	}
	"PointsThisRoundLabel"
	{	
		"ControlName"		"CExLabel"
		"fieldName"		"PointsThisRoundLabel"
		"font"			"nü10"
		"xpos"			"45"
		"ypos"			"100"
		"zpos"			"3"
		"wide"			"140"
		"tall"			"20"
		"autoResize"	"0"
		"pinCorner"		"0"
		"visible"		"1"
		"enabled"		"1"
		"labelText"		"#Winpanel_PointsThisRound"
		"textAlignment"	"east"
		"dulltext"		"0"
		"brighttext"	"0"
	}
	"HorizontalLine"
	{
		"ControlName"		"ImagePanel"
		"fieldName"		"HorizontalLine"
		"xpos"			"15"
		"ypos"			"115"
		"zpos"			"3"
		"wide"			"170"
		"tall"			"1"
		"autoResize"	"0"
		"pinCorner"		"0"
		"visible"		"1"
		"enabled"		"1"
		"tabPosition"	"0"	
		"fillcolor"		"250 234 201 255"
		"PaintBackgroundType"	"0"
	}
	"Player1Badge"
	{
		"ControlName"	"CTFBadgePanel"
		"fieldName"		"Player1Badge"
		"xpos"			"2"
		"ypos"			"120"
		"zpos"			"3"
		"wide"			"20"
		"tall"			"20"
		"autoResize"	"0"
		"pinCorner"		"0"
		"visible"		"0"
		"enabled"		"1"
	}
	"Player1Avatar"		[$WIN32]
	{
		"ControlName"		"CAvatarImagePanel"
		"fieldName"		"Player1Avatar"
		"xpos"			"22"
		"ypos"			"120"
		"zpos"			"3"
		"wide"			"14"
		"tall"			"14"
		"visible"		"1"
		"enabled"		"1"
		"image"			""
		"scaleImage"		"1"	
		"color_outline"		"52 48 45 255"
	}
	"Player1Name"
	{	
		"ControlName"		"CExLabel"
		"fieldName"		"Player1Name"
		"xpos"			"48"	[$WIN32]
		"ypos"			"117"
		"zpos"			"3"
		"wide"			"75"	[$WIN32]
		"tall"			"20"
		"autoResize"		"0"
		"pinCorner"		"0"
		"visible"		"1"
		"enabled"		"1"
		"labelText"		""
		"textAlignment"		"west"
		"dulltext"		"0"
		"brighttext"		"0"
	}
	"Player1Class"
	{	
		"ControlName"		"CExLabel"
		"fieldName"		"Player1Class"
		"xpos"			"128"
		"ypos"			"117"
		"zpos"			"3"
		"wide"			"35"
		"tall"			"20"
		"autoResize"		"0"
		"pinCorner"		"0"
		"visible"		"1"
		"enabled"		"1"
		"labelText"		""
		"textAlignment"		"west"
		"dulltext"		"0"
		"brighttext"		"0"
	}
	"Player1Score"
	{	
		"ControlName"		"CExLabel"
		"fieldName"		"Player1Score"
		"xpos"			"145"
		"ypos"			"117"
		"zpos"			"3"
		"wide"			"30"
		"tall"			"20"
		"autoResize"		"0"
		"pinCorner"		"0"
		"visible"		"1"
		"enabled"		"1"
		"labelText"		""
		"textAlignment"		"east"
		"dulltext"		"0"
		"brighttext"		"0"
	}
	"Player2Badge"
	{
		"ControlName"	"CTFBadgePanel"
		"fieldName"		"Player2Badge"
		"xpos"			"2"
		"ypos"			"136"
		"zpos"			"3"
		"wide"			"20"
		"tall"			"20"
		"autoResize"	"0"
		"pinCorner"		"0"
		"visible"		"0"
		"enabled"		"1"
	}	
	"Player2Avatar"		[$WIN32]
	{
		"ControlName"		"CAvatarImagePanel"
		"fieldName"		"Player2Avatar"
		"xpos"			"22"
		"ypos"			"136"
		"zpos"			"3"
		"wide"			"14"
		"tall"			"14"
		"visible"		"1"
		"enabled"		"1"
		"image"			""
		"scaleImage"		"1"	
		"color_outline"		"52 48 45 255"
	}
	"Player2Name"
	{	
		"ControlName"		"CExLabel"
		"fieldName"		"Player2Name"
		"xpos"			"48"
		"ypos"			"133"
		"zpos"			"3"
		"wide"			"75"
		"tall"			"20"
		"autoResize"		"0"
		"pinCorner"		"0"
		"visible"		"1"
		"enabled"		"1"
		"labelText"		""
		"textAlignment"		"west"
		"dulltext"		"0"
		"brighttext"		"0"
	}
	"Player2Class"
	{	
		"ControlName"		"CExLabel"
		"fieldName"		"Player2Class"
		"xpos"			"128"
		"ypos"			"133"
		"zpos"			"3"
		"wide"			"35"
		"tall"			"20"
		"autoResize"		"0"
		"pinCorner"		"0"
		"visible"		"1"
		"enabled"		"1"
		"labelText"		""
		"textAlignment"		"west"
		"dulltext"		"0"
		"brighttext"		"0"
	}
	"Player2Score"
	{	
		"ControlName"		"CExLabel"
		"fieldName"		"Player2Score"
		"xpos"			"145"
		"ypos"			"133"
		"zpos"			"3"
		"wide"			"30"
		"tall"			"20"
		"autoResize"	"0"
		"pinCorner"		"0"
		"visible"		"1"
		"enabled"		"1"
		"labelText"		""
		"textAlignment"		"east"
		"dulltext"		"0"
		"brighttext"		"0"
	}
	"Player3Badge"
	{
		"ControlName"	"CTFBadgePanel"
		"fieldName"		"Player3Badge"
		"xpos"			"2"
		"ypos"			"152"
		"zpos"			"3"
		"wide"			"20"
		"tall"			"20"
		"autoResize"	"0"
		"pinCorner"		"0"
		"visible"		"0"
		"enabled"		"1"
	}	
	"Player3Avatar"		[$WIN32]
	{
		"ControlName"		"CAvatarImagePanel"
		"fieldName"		"Player3Avatar"
		"xpos"			"22"
		"ypos"			"152"
		"zpos"			"3"
		"wide"			"14"
		"tall"			"14"
		"visible"		"1"
		"enabled"		"1"
		"image"			""
		"scaleImage"		"1"	
		"color_outline"		"52 48 45 255"
	}
	"Player3Name"
	{	
		"ControlName"		"CExLabel"
		"fieldName"		"Player3Name"
		"xpos"			"48"
		"ypos"			"149"
		"zpos"			"3"
		"wide"			"75"
		"tall"			"20"
		"autoResize"	"0"
		"pinCorner"		"0"
		"visible"		"1"
		"enabled"		"1"
		"labelText"		""
		"textAlignment"	"west"
		"dulltext"		"0"
		"brighttext"	"0"
	}
	"Player3Class"
	{	
		"ControlName"		"CExLabel"
		"fieldName"		"Player3Class"
		"xpos"			"128"
		"ypos"			"149"
		"zpos"			"3"
		"wide"			"35"
		"tall"			"20"
		"autoResize"		"0"
		"pinCorner"		"0"
		"visible"		"1"
		"enabled"		"1"
		"labelText"		""
		"textAlignment"		"west"
		"dulltext"		"0"
		"brighttext"		"0"
	}
	"Player3Score"
	{	
		"ControlName"		"CExLabel"
		"fieldName"		"Player3Score"
		"xpos"			"145"
		"ypos"			"149"
		"zpos"			"3"
		"wide"			"30"
		"tall"			"20"
		"autoResize"		"0"
		"pinCorner"		"0"
		"visible"		"1"
		"enabled"		"1"
		"labelText"		""
		"textAlignment"		"east"
		"dulltext"		"0"
		"brighttext"		"0"
	}
	
	"KillStreakLeaderLabel"
	{	
		"ControlName"	"CExLabel"
		"fieldName"		"KillStreakLeaderLabel"
		"font"			"nü10"
		"xpos"			"15"
		"ypos"			"164"
		"zpos"			"3"
		"wide"			"200"
		"tall"			"20"
		"autoResize"	"0"
		"pinCorner"		"0"
		"visible"		"1"
		"enabled"		"1"
		"labelText"		"#Winpanel_KillStreakLeader"
		"fgcolor_override" "TanLight"
		"textAlignment"	"west"
		"dulltext"		"0"
		"brighttext"	"0"
	}
	"KillStreakMaxCountLabel"
	{	
		"ControlName"	"CExLabel"
		"fieldName"		"KillStreakMaxCountLabel"
		"font"			"nü10"
		"xpos"			"116"
		"ypos"			"0"
		"zpos"			"3"
		"wide"			"140"
		"tall"			"20"
		"autoResize"	"0"
		"pinCorner"		"0"
		"visible"		"1"
		"enabled"		"1"
		"labelText"		"#Winpanel_KillStreakMaxCount"
		"textAlignment"	"east"
		"dulltext"		"0"
		"brighttext"	"0"
	}
	"HorizontalLine2"
	{
		"ControlName"		"ImagePanel"
		"fieldName"		"HorizontalLine2"
		"xpos"			"15"
		"ypos"			"179"
		"zpos"			"3"
		"wide"			"170"
		"tall"			"1"
		"autoResize"	"0"
		"pinCorner"		"0"
		"visible"		"1"
		"enabled"		"1"
		"tabPosition"	"0"	
		"fillcolor"		"250 234 201 255"
		"PaintBackgroundType"	"0"
	}
	"KillStreakPlayer1Badge"
	{
		"ControlName"	"CTFBadgePanel"
		"fieldName"		"KillStreakPlayer1Badge"
		"xpos"			"2"
		"ypos"			"186"
		"zpos"			"3"
		"wide"			"20"
		"tall"			"20"
		"autoResize"	"0"
		"pinCorner"		"0"
		"visible"		"0"
		"enabled"		"1"
	}	
	"KillStreakPlayer1Avatar"		[$WIN32]
	{
		"ControlName"		"CAvatarImagePanel"
		"fieldName"		"KillStreakPlayer1Avatar"
		"xpos"			"22"
		"ypos"			"186"
		"zpos"			"3"
		"wide"			"14"
		"tall"			"14"
		"visible"		"1"
		"enabled"		"1"
		"image"			""
		"scaleImage"		"1"	
		"color_outline"		"52 48 45 255"
	}
	"KillStreakPlayer1Name"
	{	
		"ControlName"		"CExLabel"
		"fieldName"		"KillStreakPlayer1Name"
		"xpos"			"48"	[$WIN32]
		"ypos"			"183"
		"zpos"			"3"
		"wide"			"75"	[$WIN32]
		"tall"			"20"
		"autoResize"		"0"
		"pinCorner"		"0"
		"visible"		"1"
		"enabled"		"1"
		"labelText"		""
		"textAlignment"		"west"
		"dulltext"		"0"
		"brighttext"		"0"
	}
	"KillStreakPlayer1Class"
	{	
		"ControlName"		"CExLabel"
		"fieldName"		"KillStreakPlayer1Class"
		"xpos"			"128"
		"ypos"			"183"
		"zpos"			"3"
		"wide"			"35"
		"tall"			"20"
		"autoResize"		"0"
		"pinCorner"		"0"
		"visible"		"1"
		"enabled"		"1"
		"labelText"		""
		"textAlignment"		"west"
		"dulltext"		"0"
		"brighttext"		"0"
	}
	"KillStreakPlayer1Score"
	{	
		"ControlName"		"CExLabel"
		"fieldName"		"KillStreakPlayer1Score"
		"xpos"			"145"
		"ypos"			"183"
		"zpos"			"3"
		"wide"			"30"
		"tall"			"20"
		"autoResize"		"0"
		"pinCorner"		"0"
		"visible"		"1"
		"enabled"		"1"
		"labelText"		""
		"textAlignment"		"east"
		"dulltext"		"0"
		"brighttext"		"0"
	}
}