"Resource/UI/FullLoadoutPanel.res"
{
	"backpack_panel"
	{
		"ControlName"	"Frame"
		"fieldName"		"backpack_panel"
		"xpos"			"0"
		"ypos"			"0"
		"wide"			"f0"
		"autoResize"	"0"
		"pinCorner"		"0"
		"visible"		"1"
		"enabled"		"1"
		"tabPosition"	"0"
		"settitlebarvisible"	"0"
		"PaintBackgroundType"	"0"
		"bgcolor_override"	"40 40 40 255"
		"infocus_bgcolor_override" "40 40 40 255"
		"outoffocus_bgcolor_override" "40 40 40 255"
	
		"show_item_backdrop"				"1"
		"item_backdrop_color"				"35 35 35 255"
		"item_backdrop_left_margin"			"11"
		"item_backdrop_right_margin"		"11"
		"item_backdrop_top_margin"			"9"
		"item_backdrop_bottom_margin"		"42"
		"item_backdrop_paintbackgroundtype"	"2"
		
		"item_xpos_offcenter_a"	"-310"
		"item_xpos_offcenter_b"	"165"
		"item_ypos"		"120"
		"item_ydelta"	"80"
		"item_mod_wide"	"40"
		
		"item_backpack_offcenter_x"		"-288"
		"item_backpack_xdelta"			"4"
		"item_backpack_ydelta"			"3"

		"button_xpos_offcenter"	"175"		
		"button_ypos"	"85"
		"button_ydelta"	"80"
		"button_override_delete_xpos" "0"

		"page_button_y"	"346"
		"page_button_x_delta" "3"
		"page_button_y_delta" "3"
		"page_button_per_row" "20"
		"page_button_height" "13"

		"pagebuttons_kv"
		{
			"ControlName"	"EditablePanel"
			"wide"			"10"
			"tall"			"10"
			"visible"		"0"
			"bgcolor_override"		"0 0 0 0"
			"noitem_textcolor"		"117 107 94 255"
			"PaintBackgroundType"	"0"
			"paintborder"	"0"

			"Button"
			{
				"fieldName"		"Button"
				"ControlName"	"CExButton"
				"wide"			"25"
				"tall"			"13"
				"visible"		"1"
				"bgcolor_override"		"0 0 0 0"
				"noitem_textcolor"		"117 107 94 255"
				"PaintBackgroundType"	"0"
				"paintborder"	"0"
				"textAlignment"	"center"
				"labelText"		"%page%"
				"font"				"nü12"
				"sound_depressed"	"UI/buttonclick.wav"
				"sound_released"	"UI/buttonclickrelease.wav"
			}

			"New"
			{
				"ControlName"	"CExLabel"
				"fieldName"		"New"
				"font"			"FontStorePrice"
				"textAlignment"	"east"
				"ypos"			"0"
				"xpos"			"0"
				"zpos"			"0"
				"wide"			"f1"
				"tall"			"f-3"
				"textinsetx"	"8"
				"autoResize"	"1"
				"pinCorner"		"0"	
				"visible"		"0"
				"enabled"		"1"
				"labelText"		"#Store_Price_New"
				"mouseinputenabled" "0"
				"paintbackground"	"0"
				"proportionaltoparent"	"1"
				"border"		"StoreNewBorder"
				"fgcolor"		"10 10 10 255"
			}
		}
			
		
		"modelpanels_kv"
		{
			"ControlName"	"CItemModelPanel"
			"xpos"			"c-70"
			"ypos"			"270"
			"wide"			"54"
			"tall"			"42"
			"visible"		"0"
			"bgcolor_override"		"0 0 0 0"
			"noitem_textcolor"		"117 107 94 255"
			"PaintBackgroundType"	"2"
			"paintborder"	"1"
			
			"model_xpos"	"2"
			"model_ypos"	"5"
			"model_wide"	"50"
			"model_tall"	"35"
			"text_ypos"		"60"
			"text_center"	"1"
			"name_only"		"1"
			
			"inset_eq_x"	"2"
			"inset_eq_y"	"2"
			
			"itemmodelpanel"
			{
				"use_item_rendertarget" "0"
				"allow_rot"				"0"
			}

			"New"
			{
				"ControlName"	"CExLabel"
				"fieldName"		"New"
				"font"			"FontStorePrice"
				"textAlignment"	"east"
				"xpos"			"rs1"
				"ypos"			"0"
				"zpos"			"15"
				"wide"			"25"
				"tall"			"12"
				"textinsetx"	"8"
				"autoResize"	"0"
				"skip_autoresize"	"1"
				"pinCorner"		"0"	
				"visible"		"0"
				"enabled"		"1"
				"labelText"		"#Store_Price_New"
				"mouseinputenabled" "0"
				"paintbackground"	"0"
				"proportionaltoparent"	"1"
				"border"		"StoreNewBorder"
				"fgcolor"		"10 10 10 255"
			}
			
			"use_item_sounds"	"1"
		}
	}

	"CaratLabel"
	{
		"ControlName"		"CExLabel"
		"fieldName"		"CaratLabel"
		"font"			"HudFontSmallestBold"
		"labelText"		">>"
		"textAlignment"	"west"
		"xpos"			"9999"
		"ypos"			"9999"
		"zpos"			"1"
		"wide"			"20"
		"tall"			"15"
		"autoResize"	"1"
		"pinCorner"		"0"
		"visible"		"0"
		"enabled"		"0"
		"fgcolor_override" "200 80 60 255"
	}
	"ClassLabel"
	{
		"ControlName"	"CExLabel"
		"fieldName"		"ClassLabel"
		"font"			"nüBold30"
		"labelText"		"Backpack"
		"textAlignment"	"center"
		"xpos"			"c-290"
		"ypos"			"30"
		"zpos"			"1"
		"wide"			"580"
		"tall"			"32"
		"autoResize"	"0"
		"pinCorner"		"0"
		"visible"		"1"
		"enabled"		"1"
		"fgcolor_override"	"nüWhite"
	}
	"ClassLabelShadow"
	{
		"ControlName"	"CExLabel"
		"fieldName"		"ClassLabelShadow"
		"font"			"nüBoldShadow30"
		"labelText"		"Backpack"
		"textAlignment"	"center"
		"xpos"			"0"
		"ypos"			"-1"
		"zpos"			"1"
		"wide"			"580"
		"tall"			"32"
		"autoResize"	"0"
		"pinCorner"		"0"
		"visible"		"1"
		"enabled"		"1"
		"fgcolor_override"	"ShadowBlack"

		"pin_to_sibling"	"ClassLabel"
        "pin_corner_to_sibling"		"1"
        "pin_to_sibling_corner"		"1"
    }

	"tool_icon"
	{
		"ControlName"	"ScalableImagePanel"
		"fieldName"		"tool_icon"
		"xpos"			"10"
		"ypos"			"10"
		"zpos"			"2"
		"wide"			"16"
		"tall"			"16"
		"visible"		"0"
		"enabled"		"1"
		"image"			"backpack_jewel_modify_target_b_g"
		"tileImage"		"0"
		"tileVertically" "0"
		"drawcolor"		"112 176 74 255"
	}

	"ShowRarityComboBox"
	{
		"ControlName"		"ComboBox"
		"fieldName"			"ShowRarityComboBox"
		"Font"				"nü11"
		"wrap"				"0"
		"xpos"				"c137"
		"ypos"				"99"
		"zpos"				"1"
		"wide"				"150"
		"tall"				"15"
		"autoResize"		"0"
		"pinCorner"			"0"
		"visible"			"1"
		"enabled"			"1"
		"textHidden"		"0"
		"editable"			"0"
		"maxchars"			"-1"
		"NumericInputOnly"	"0"
		"unicode"			"0"
		"default"			"0"
		"border_override"	"ButtonBorder"
		"paintborder"		"1"
		
		"fgcolor_override"	"nüWhite"
		"bgcolor_override"	"30 30 30 255"
		"disabledFgColor_override" "nüWhite"
		"disabledBgColor_override" "0 0 0 0"
		"selectionColor_override" "0 0 0 0"
		"selectionTextColor_override" "nüWhite"
		"defaultSelectionBG2Color_override" "0 0 0 0"
	}	
	
//	"ShowBaseItemsCheckbox"
//	{
//		"ControlName"	"CheckButton"
//		"fieldName"		"ShowBaseItemsCheckbox"
//		"labelText"		"#ShowBaseItemsCheckBox"
//		"Font"			"nü10"
//		"textAlignment"	"east"
//		"xpos"			"c-292"
//		"ypos"			"75"
//		"zpos"			"1"
//		"wide"			"200"
//		"tall"			"20"
//		"autoResize"	"0"
//		"pinCorner"		"0"
//		"visible"		"1"
//		"enabled"		"1"
//		"dulltext"		"0"
//		"brighttext"	"0"
//	}

	"NameFilterLabel"
	{
		"ControlName"	"ImagePanel"
		"fieldName"		"NameFilterLabel"
		"xpos"			"c-153"
		"ypos"			"99"
		"zpos"			"1"
		"wide"			"15"
		"tall"			"15"
		"visible"		"1"
		"enabled"		"1"
		"image"			"replay/thumbnails/icons/search"
		"scaleImage"	"1"
	}

	"NameFilterTextEntry"
	{
		"ControlName"		"TextEntry"
		"fieldName"		"NameFilterTextEntry"
		"xpos"		"c-288"
		"ypos"		"99"
		"wide"		"150"
		"tall"		"15"
		"autoResize"		"0"
		"pinCorner"		"0"
		"visible"		"1"
		"enabled"		"1"
		"tabPosition"		"1"
		"textHidden"		"0"
		"editable"		"1"
		"unicode"		"1"
		"fgcolor_override"	"nüWhite"
		"bgcolor_override"	"30 30 30 255"
		"selectionColor_override" "nüWhite"
		"selectionTextColor_override" "nüBlack"
		"paintbackgroundtype" "2"
		"font"		"nü11"
	}
	
	"SortByComboBox"
	{
		"ControlName"		"ComboBox"
		"fieldName"			"SortByComboBox"
		"Font"				"nü11"
		"xpos"				"c-75"
		"ypos"				"99"
		"zpos"				"1"
		"wide"				"150"
		"tall"				"15"
		"autoResize"		"0"
		"pinCorner"			"0"
		"visible"			"1"
		"enabled"			"1"
		"textHidden"		"0"
		"editable"			"0"
		"maxchars"			"-1"
		"NumericInputOnly"	"0"
		"unicode"			"0"
		"default"			"0"
		"border_override"	"ButtonBorder"
		"paintborder"		"1"
		
		"fgcolor_override"	"nüWhite"
		"bgcolor_override"	"30 30 30 255"
		"disabledFgColor_override" "nüWhite"
		"disabledBgColor_override" "0 0 0 0"
		"selectionColor_override" "0 0 0 0"
		"selectionTextColor_override" "nüWhite"
		"defaultSelectionBG2Color_override" "0 0 0 0"
	}	

	"mouseoveritempanel"
	{
		"ControlName"	"CItemModelPanel"
		"fieldName"		"mouseoveritempanel"
		"xpos"			"c-70"
		"ypos"			"270"
		"zpos"			"102"
		"wide"			"300"
		"tall"			"300"
		"visible"		"0"
		"bgcolor_override"		"0 0 0 0"
		"noitem_textcolor"		"117 107 94 255"
		"PaintBackgroundType"	"2"
		"paintborder"	"1"
		
		"text_center"		"1"
		"model_hide"		"1"
		"resize_to_text"	"1"
		"padding_height"	"15"
		
		"attriblabel"
		{
			"font"			"ItemFontAttribLarge"
			"xpos"			"0"
			"ypos"			"30"
			"zpos"			"2"
			"wide"			"140"
			"tall"			"60"
			"autoResize"	"0"
			"pinCorner"		"0"
			"visible"		"1"
			"enabled"		"1"
			"labelText"		"%attriblist%"
			"textAlignment"	"center"
			"fgcolor"		"117 107 94 255"
			"centerwrap"	"1"
		}
	}
	
	"mousedragitempanel"
	{
		"ControlName"	"CItemModelPanel"
		"fieldName"		"mousedragitempanel"
		
		"xpos"			"c-70"
		"ypos"			"270"
		"zpos"			"100"
		"wide"			"27"
		"tall"			"21"
		"visible"		"0"
		"bgcolor_override"		"0 0 0 0"
		"noitem_textcolor"		"117 107 94 255"
		"PaintBackgroundType"	"2"
		"paintborder"	"1"
		
		"model_ypos"	"3"
		"model_tall"	"18"
		"text_ypos"		"30"
		"text_center"	"1"
		"name_only"		"1"
		"model_only"	"1"
		
		"itemmodelpanel"
		{
			"use_item_rendertarget" "0"
			"allow_rot"				"0"
		}
	}
	
	"PrevPageButton"
	{
		"ControlName"	"CExButton"
		"fieldName"		"PrevPageButton"
		"xpos"			"c-288"
		"ypos"			"73"
		"zpos"			"1"
		"wide"			"0"
		"tall"			"0"
		"autoResize"	"0"
		"pinCorner"		"0"
		"visible"		"0"
		"enabled"		"1"
		"tabPosition"	"0"
		"labelText"		"&A"
		"font"			"HudFontSmallBold"
		"textAlignment"	"center"
		"dulltext"		"0"
		"brighttext"	"0"
		"Command"		"prevpage"
		"sound_depressed"	"UI/buttonclick.wav"
		"sound_released"	"UI/buttonclickrelease.wav"
	}		
	
	"CurPageLabel"
	{
		"ControlName"	"CExLabel"
		"fieldName"		"CurPageLabel"
		"font"			"HudFontSmallBold"
		"labelText"		"%backpackpage%"
		"textAlignment"	"center"
		"xpos"			"c-263"
		"ypos"			"73"
		"zpos"			"1"
		"wide"			"0"
		"tall"			"0"
		"autoResize"	"1"
		"pinCorner"		"0"
		"visible"		"0"
		"enabled"		"1"
		"fgcolor_override" "200 80 60 255"
	}
	
	"NextPageButton"
	{
		"ControlName"	"CExButton"
		"fieldName"		"NextPageButton"
		"xpos"			"c-218"
		"ypos"			"73"
		"zpos"			"1"
		"wide"			"0"
		"tall"			"0"
		"autoResize"	"0"
		"pinCorner"		"0"
		"visible"		"0"
		"enabled"		"1"
		"tabPosition"	"0"
		"labelText"		"&D"
		"font"			"HudFontSmallBold"
		"textAlignment"	"center"
		"dulltext"		"0"
		"brighttext"	"0"
		"Command"		"nextpage"
		"sound_depressed"	"UI/buttonclick.wav"
		"sound_released"	"UI/buttonclickrelease.wav"
	}		
	
	"DragToNextPageButton"
	{
		"ControlName"	"CExButton"
		"fieldName"		"DragToNextPageButton"
		"xpos"			"c290"
		"ypos"			"214"
		"zpos"			"1"
		"wide"			"25"
		"tall"			"35"
		"autoResize"	"0"
		"pinCorner"		"0"
		"visible"		"0"
		"enabled"		"1"
		"tabPosition"	"0"
		"labelText"		">"
		"font"			"HudFontMediumBold"
		"textAlignment"	"center"
		"dulltext"		"0"
		"brighttext"	"0"
		"Command"		""
		"sound_depressed"	"UI/buttonclick.wav"
		"sound_released"	"UI/buttonclickrelease.wav"
	}		
	"DragToPrevPageButton"
	{
		"ControlName"	"CExButton"
		"fieldName"		"DragToPrevPageButton"
		"xpos"			"c-315"
		"ypos"			"214"
		"zpos"			"1"
		"wide"			"25"
		"tall"			"35"
		"autoResize"	"0"
		"pinCorner"		"0"
		"visible"		"0"
		"enabled"		"1"
		"tabPosition"	"0"
		"labelText"		"<"
		"font"			"HudFontMediumBold"
		"textAlignment"	"center"
		"dulltext"		"0"
		"brighttext"	"0"
		"Command"		""
		"sound_depressed"	"UI/buttonclick.wav"
		"sound_released"	"UI/buttonclickrelease.wav"
	}		
	
	"CancelApplyToolButton"
	{
		"ControlName"	"CExButton"
		"fieldName"		"CancelApplyToolButton"
		"xpos"			"c-288"
		"ypos"			"381"
		"zpos"			"20"
		"wide"			"100"
		"tall"			"20"
		"autoResize"	"0"
		"pinCorner"		"0"
		"visible"		"0"
		"enabled"		"1"
		"tabPosition"	"0"
		"labelText"		"#Cancel"
		"font"			"HudFontSmallBold"
		"textAlignment"	"center"
		"textinsetx"	"50"
		"dulltext"		"0"
		"brighttext"	"0"
		"Command"		"canceltool"
		"sound_depressed"	"UI/buttonclick.wav"
		"sound_released"	"UI/buttonclickrelease.wav"
	}		
}
