"Resource/UI/StorePanel.res"
{
	"store_panel"
	{
		"ControlName"	"EditablePanel"
		"fieldName"		"store_panel"
		"xpos"			"0"
		"ypos"			"0"
		"wide"			"f0"
		"tall"			"480"
		"autoResize"	"0"
		"pinCorner"		"0"
		"visible"		"1"
		"enabled"		"1"
		"tabPosition"	"0"
		"settitlebarvisible"	"1"
		"PaintBackgroundType"	"0"
		"bgcolor_override"				"46 43 42 0"
		"infocus_bgcolor_override"		"46 43 42 0"
		"outoffocus_bgcolor_override"	"46 43 42 0"
		
		"title"			"#StoreTitle"
		"title_font"	"HudFontMediumBold"
		"titletextinsetX"	"40"
		"titletextinsetY"	"-38"
		"titlebarfgcolor_override"				"200 187 161 255"
		"titlebardisabledfgcolor_override"		"200 187 161 255"
		"titlebarbgcolor_override"				"46 43 42 255"
		
		"clientinsetx_override"			"0"
		"sheetinset_bottom"				"0"
	}
	
	"MenuTopPanel"
	{
		"ControlName"	"EditablePanel"
		"fieldname"		"MenuTopPanel"
		"xpos"			"0"
		"ypos"			"0"
		"zpos"			"-1"
		"wide"			"f0"
		"tall"			"20"
		"visible"		"1"
		"PaintBackgroundType"	"0"
		"bgcolor_override"	"nüBase"
	}
	
	"BackgroundHeader"
	{
		"ControlName"	"ImagePanel"
		"fieldName"		"BackgroundHeader"
		"xpos"			"9999"
		"ypos"			"9999"
		"zpos"			"-2"
		"wide"			"f0"
		"tall"			"20"
		"visible"		"0"
		"enabled"		"0"
		"image"			"loadout_header"
		"tileImage"		"1"
	}
	"BackgroundFooter"
	{
		"ControlName"	"ImagePanel"
		"fieldName"		"BackgroundFooter"
		"xpos"			"9999"
		"ypos"			"9999"
		"zpos"			"1"
		"wide"			"f0"
		"tall"			"60"
		"visible"		"0"
		"enabled"		"0"
		"image"			"loadout_bottom_gradient"
		"tileImage"		"1"
	}
	"FooterLine"
	{
		"ControlName"	"ImagePanel"
		"fieldName"		"FooterLine"
		"xpos"			"9999"
		"ypos"			"9999"
		"zpos"			"2"
		"wide"			"f0"
		"tall"			"10"
		"visible"		"0"
		"enabled"		"0"
		"image"			"loadout_solid_line"
		"scaleImage"	"1"
	}
	
	"Sheet"
	{
		"ControlName"	"EditablePanel"
		"fieldName"		"Sheet"
		"tabxindent"	"30"
		"tabxdelta"		"10"
		"tabxfittotext"	"1"
		"tabheight"		"20"
		"transition_time" "0"
		"yoffset"		"0"
		
		"HeaderLine"
		{
			"ControlName"	"ImagePanel"
			"fieldName"		"HeaderLine"
			"xpos"			"9999"
			"ypos"			"9999"
			"zpos"			"5"
			"wide"			"f0"
			"tall"			"10"
			"visible"		"0"
			"enabled"		"0"
			"image"			"loadout_solid_line"
			"scaleImage"	"1"
		}

		"tabskv"
		{
			"textinsetx"		"0"
			"textinsety"		"-2"
			"font"				"nüBold16"
			"selectedcolor"		"nüWhite"
			"unselectedcolor"	"nüOffWhite"	
			"defaultBgColor_override"	"Blank"
			"paintbackground"	"0"
			"activeborder_override"	"nüLightBase"
			"normalborder_override" "NoBorder"
		}
	}
	
	"CloseButton"
	{
		"ControlName"	"CExImageButton"
		"fieldName"		"CloseButton"
		"xpos"			"r30"
		"ypos"			"0"
		"zpos"			"2"
		"wide"			"30"
		"tall"			"20"
		"autoResize"	"0"
		"pinCorner"		"3"
		"visible"		"1"
		"enabled"		"1"
		"tabPosition"	"0"
		"font"			""
		"textAlignment"	"center"
		"dulltext"		"0"
		"brighttext"	"0"
		"default"		"0"
		"Command"		"close"
		"sound_depressed"	"UI/buttonclick.wav"
		"sound_released"	"UI/buttonclickrelease.wav"
		
		"border_default"	"NoBorder"
		"border_armed"		"NoBorder"
		"paintbackground"	"1"
		
		"defaultFgColor_override" 	"Blank"
		"armedFgColor_override"   	"Blank"
		"depressedFgColor_override" "Blank"
		"defaultBgColor_override" 	"Blank"
		"armedBgColor_override"   	"nüLightBase"
		"depressedBgColor_override" "nüLightBase"
		
		"SubImage"
		{
			"ControlName"	"ImagePanel"
			"fieldName"		"SubImage"
			"xpos"			"cs-0.5"
			"ypos"			"cs-0.5"
			"zpos"			"1"
			"wide"			"16"
			"tall"			"16"
			"visible"		"1"
			"enabled"		"1"
			"scaleImage"	"1"
			"image"			"replay/thumbnails/buttons/back"
			"proportionaltoparent"	"1"
		}
	}

	"armory_panel"
	{
		"ControlName"		"CArmoryPanel"
		"fieldName"			"armory_panel"
		"xpos"				"0"
		"ypos"				"30"
		"wide"				"f0"
		"tall"				"390"
		"zpos"				"500"
		"visible"			"0"
	}

	"NotificationsPresentPanel"
	{
		"ControlName"	"CNotificationsPresentPanel"
		"fieldName"		"NotificationsPresentPanel"
		"xpos"			"r200"
		"ypos"			"10"
		"zpos"			"10000"
		"wide"			"190"
		"tall"			"50"
		"visible"		"0"
		"enabled"		"1"
	}

	"SupportCommunityMapMakersCheckButton"
	{
		"ControlName"	"CheckButton"
		"fieldName"		"SupportCommunityMapMakersCheckButton"
		"xpos"			"c275"
		"ypos"			"397"
		"zpos"			"5"
		"wide"			"25"
		"tall"			"25"
		"font"			"HudFontSmall"
		"labelText"		""
		"visible"		"0"
	}

	"SupportCommunityMapMakersLabel"
	{
		"ControlName"		"CExLabel"
		"fieldName"			"SupportCommunityMapMakersLabel"
		"textAlignment"		"north-west"
		"xpos"				"c304"
		"ypos"				"398"
		"zpos"				"5"
		"wide"				"70"
		"tall"				"100"
		"font"				"HudFontSmallest"
		"wrap"				"1"
		"labelText"			"#Store_ConfirmStampDonationAddTitle"
		"visible"			"0"
	}
	
	"CheckoutButton"
	{
		"ControlName"	"CExButton"
		"fieldName"		"CheckoutButton"
		"xpos"			"c170"
		"ypos"			"397"
		"zpos"			"2"
		"wide"			"130"
		"tall"			"25"
		"autoResize"	"0"
		"pinCorner"		"0"
		"visible"		"1"
		"enabled"		"1"
		"tabPosition"	"0"
		"labelText"		"#Store_Checkout"
		"font"			"HudFontSmallBold"
		"textAlignment"	"center"
		"dulltext"		"0"
		"brighttext"	"0"
		"default"		"1"
		"Command"		"checkout"
		"sound_depressed"	"UI/buttonclick.wav"
		"sound_released"	"UI/buttonclickrelease.wav"
	}	
}
