Scheme
{
	Borders
	{
		nüMenuButtonBorder
		{
			"inset" "0 0 0 0"
			Left
			{
				"1"
				{
					"color" "nüBase"
					"offset" "0 0"
				}
				"2"
				{
					"color" "nüBase"
					"offset" "0 0"
				}
				"3"
				{
					"color" "nüBase"
					"offset" "0 0"
				}
				"4"
				{
					"color" "nüBase"
					"offset" "0 0"
				}
				"5"
				{
					"color" "nüBase"
					"offset" "0 0"
				}
				"6"
				{
					"color" "nüBase"
					"offset" "0 0"
				}
				"7"
				{
					"color" "nüBase"
					"offset" "0 0"
				}
				"8"
				{
					"color" "nüBase"
					"offset" "0 0"
				}
			}
		}

		NoBorder
		{
			"inset" "0 0 0 0"
			Left
			{
				"1"
				{
					"color" "Blank"
					"offset" "0 0"
				}
			}

			Right
			{
				"1"
				{
					"color" "Blank"
					"offset" "0 0"
				}
			}

			Top
			{
				"1"
				{
					"color" "Blank"
					"offset" "0 0"
				}
			}

			Bottom
			{
				"1"
				{
					"color" "Blank"
					"offset" "0 0"
				}
			}
		}
		
		TeamMenuBorder
		{
			"inset" "0 0 0 0"
			Left
			{
				"1"
				{
					"color" "Black"
					"offset" "0 0"
				}
				"2"
				{
					"color" "Black"
					"offset" "0 0"
				}
			}

			Right
			{
				"1"
				{
					"color" "Black"
					"offset" "0 0"
				}
				"2"
				{
					"color" "Black"
					"offset" "0 0"
				}
			}

			Top
			{
				"1"
				{
					"color" "Black"
					"offset" "0 0"
				}
				"2"
				{
					"color" "Black"
					"offset" "0 0"
				}
			}

			Bottom
			{
				"1"
				{
					"color" "Black"
					"offset" "0 0"
				}
				"2"
				{
					"color" "Black"
					"offset" "0 0"
				}
			}
		}

		ScrollBarButtonBorder
		{
			"inset" "0 0 0 0"
			"backgroundtype" "0"
		}

		ScrollBarButtonDepressedBorder
		{
			"inset" "0 0 0 0"
			"backgroundtype" "0"
		}

		ButtonBorder
		{
			"inset" "0 0 0 0"
			"backgroundtype" "2"
		}

		// this is the border used for default buttons (the button that gets pressed when you hit enter)
		ButtonKeyFocusBorder
		{
			"inset" "0 0 0 0"
			"backgroundtype" "2"
		}

		ButtonDepressedBorder
		{
			"inset" "0 0 0 0"
			"backgroundtype" "2"
		}

		ComboBoxBorder
		{
			"inset" "0 0 1 1"
			Left
			{
				"1"
				{
					"color" "Blank"
					"offset" "0 1"
				}
			}

			Right
			{
				"1"
				{
					"color" "Blank"
					"offset" "1 0"
				}
			}

			Top
			{
				"1"
				{
					"color" "Blank"
					"offset" "0 0"
				}
			}

			Bottom
			{
				"1"
				{
					"color" "Blank"
					"offset" "0 0"
				}
			}
		}
		DarkComboBoxBorder
		{
			"inset" "0 0 1 1"
			Left
			{
				"1"
				{
					"color" "Blank"
					"offset" "0 1"
				}
			}

			Right
			{
				"1"
				{
					"color" "Blank"
					"offset" "1 0"
				}
			}

			Top
			{
				"1"
				{
					"color" "Blank"
					"offset" "0 0"
				}
			}

			Bottom
			{
				"1"
				{
					"color" "Blank"
					"offset" "0 0"
				}
			}
		}
		SalePriceBorder
		{
			"inset" "0 0 0 0"
			Left
			{
				"1"
				{
					"color" "SaleGreen"
					"offset" "0 0"
				}
			}

			Right
			{
				"1"
				{
					"color" "SaleGreen"
					"offset" "0 0"
				}
			}

			Top
			{
				"1"
				{
					"color" "SaleGreen"
					"offset" "0 0"
				}
			}

			Bottom
			{
				"1"
				{
					"color" "SaleGreen"
					"offset" "0 0"
				}
			}
		}
				
		MainMenuSubButtonBorder
		{
			"inset" "0 0 0 0"
			Left
			{
				"1"
				{
					"color" "TanDarker"
					"offset" "0 0"
				}
			}

			Right
			{
				"1"
				{
					"color" "TanDarker"
					"offset" "0 0"
				}
			}
		}
		
		CrosshatchedBackground
		{
			"bordertype"			"image"
			"backgroundtype"		"2"
			"image"					"loadout_header"
			"tiled"					"1"
		}
		
		OutlinedGreyBox
		{
			"bordertype"			"scalable_image"
			"backgroundtype"		"0"
			
			"image"					"loadout_round_rect_selected"
			"src_corner_height"		"24"				// pixels inside the image
			"src_corner_width"		"24"
			"draw_corner_width"		"0"				// screen size of the corners ( and sides ), proportional
			"draw_corner_height" 	"0"	
		}
		OutlinedDullGreyBox
		{
			"bordertype"			"scalable_image"
			"backgroundtype"		"2"
			
			"image"					"loadout_round_rect"
			"src_corner_height"		"24"				// pixels inside the image
			"src_corner_width"		"24"
			"draw_corner_width"		"0"				// screen size of the corners ( and sides ), proportional
			"draw_corner_height" 	"0"	
		}

		TFThinLineBorder
		{
			"bordertype"			"scalable_image"
			"backgroundtype"		"0"
			
			"image"					"../hud/tournament_panel_brown"
			//"image"					"../hud/color_panel_browner"
			"src_corner_height"		"23"				// pixels inside the image
			"src_corner_width"		"23"
			"draw_corner_width"		"0"				// screen size of the corners ( and sides ), proportional
			"draw_corner_height" 	"0"	
		}
		TFFatLineBorderOpaque
		{
			"bordertype"			"scalable_image"
			"backgroundtype"		"0"
			
			"image"					"../hud/color_panel_brown_opaque"
			"src_corner_height"		"23"				// pixels inside the image
			"src_corner_width"		"23"
			"draw_corner_width"		"0"				// screen size of the corners ( and sides ), proportional
			"draw_corner_height" 	"0"	
		}
		TFFatLineBorder
		{
			"bordertype"			"scalable_image"
			"backgroundtype"		"0"
			
			"image"					"../hud/color_panel_brown"
			"src_corner_height"		"23"				// pixels inside the image
			"src_corner_width"		"23"
			"draw_corner_width"		"0"				// screen size of the corners ( and sides ), proportional
			"draw_corner_height" 	"0"	
		}
		TFFatLineBorderRedBGOpaque
		{
			"bordertype"			"scalable_image"
			"backgroundtype"		"0"
			
			"image"					"replay/thumbnails/bg_red_transparent"
			"src_corner_height"		"23"				// pixels inside the image
			"src_corner_width"		"23"
			"draw_corner_width"		"0"				// screen size of the corners ( and sides ), proportional
			"draw_corner_height" 	"0"	
		}
		TFFatLineBorderRedBGOpaque_Store
		{
			"bordertype"			"scalable_image"
			"backgroundtype"		"0"
			
			"image"					"../hud/color_panel_red_opaque"
			"src_corner_height"		"24"				// pixels inside the image
			"src_corner_width"		"24"
			"draw_corner_width"		"0"				// screen size of the corners ( and sides ), proportional
			"draw_corner_height" 	"0"	
		}
		TFFatLineBorderRedBG
		{
			"bordertype"			"scalable_image"
			"backgroundtype"		"0"
			
			"image"					"replay/thumbnails/bg_red_transparent"
			"src_corner_height"		"23"				// pixels inside the image
			"src_corner_width"		"23"
			"draw_corner_width"		"0"				// screen size of the corners ( and sides ), proportional
			"draw_corner_height" 	"0"	
		}
		TFFatLineBorderRedBGMoreOpaque
		{
			"bordertype"			"scalable_image"
			"backgroundtype"		"2"
			
			"image"					"replay/thumbnails/bg_red_transparent"
			"src_corner_height"		"23"				// pixels inside the image
			"src_corner_width"		"23"
			"draw_corner_width"		"0"				// screen size of the corners ( and sides ), proportional
			"draw_corner_height" 	"0"	
		}
		TFFatLineBorderBlueBG
		{
			"bordertype"			"scalable_image"
			"backgroundtype"		"2"
			
			"image"					"replay/thumbnails/bg_blu_transparent"
			"src_corner_height"		"23"				// pixels inside the image
			"src_corner_width"		"23"
			"draw_corner_width"		"0"				// screen size of the corners ( and sides ), proportional
			"draw_corner_height" 	"0"	
		}
		TFFatLineBorderBlueBGMoreOpaque
		{
			"bordertype"			"scalable_image"
			"backgroundtype"		"2"
			
			"image"					"replay/thumbnails/bg_blu_transparent"
			"src_corner_height"		"23"				// pixels inside the image
			"src_corner_width"		"23"
			"draw_corner_width"		"0"				// screen size of the corners ( and sides ), proportional
			"draw_corner_height" 	"0"	
		}
		TFFatLineBorderBlueBGOpaque
		{
			"bordertype"			"scalable_image"
			"backgroundtype"		"2"
			
			"image"					"replay/thumbnails/bg_blu_transparent"
			"src_corner_height"		"23"				// pixels inside the image
			"src_corner_width"		"23"
			"draw_corner_width"		"0"				// screen size of the corners ( and sides ), proportional
			"draw_corner_height" 	"0"	
		}
		TFFatLineBorderClearBG
		{
			"bordertype"			"scalable_image"
			"backgroundtype"		"2"
			
			"image"					"../hud/color_panel_clear"
			"src_corner_height"		"23"				// pixels inside the image
			"src_corner_width"		"23"
			"draw_corner_width"		"0"				// screen size of the corners ( and sides ), proportional
			"draw_corner_height" 	"0"	
		}
		ToolTipBorder
		{
			"inset" "0 0 0 0"
			Left
			{
				"1"
				{
					"color" "TanDarker"
					"offset" "0 0"
				}
			}

			Right
			{
				"1"
				{
					"color" "TanDarker"
					"offset" "0 0"
				}
			}

			Top
			{
				"1"
				{
					"color" "TanDarker"
					"offset" "0 0"
				}
			}

			Bottom
			{
				"1"
				{
					"color" "TanDarker"
					"offset" "0 0"
				}
			}
		}
		OptionsCategoryBorder
		{
			"inset" "0 0 0 0"
			
			// This border is used just to create a horizontal line, so it only has a bottom border
			
			Bottom
			{
				"1"
				{
					"color" "TanLight"
					"offset" "0 0"
				}
			}
		}
		
		GrayDialogBorder
		{
			"bordertype"			"scalable_image"
			"backgroundtype"		"0"
			
			"image"					"loadout_rect"
			"src_corner_height"		"24"				// pixels inside the image
			"src_corner_width"		"24"
			"draw_corner_width"		"0"				// screen size of the corners ( and sides ), proportional
			"draw_corner_height" 	"0"	
		}
		
		StoreFreeTrialBorder
		{
			"bordertype"			"scalable_image"
			"backgroundtype"		"0"
			
			"image"					"loadout_rect_red"
			"src_corner_height"		"24"				// pixels inside the image
			"src_corner_width"		"24"
			"draw_corner_width"		"0"				// screen size of the corners ( and sides ), proportional
			"draw_corner_height" 	"0"	
		}
		
		EconItemBorder
		{
			"bordertype"			"scalable_image"
			"backgroundtype"		"2"
			"color"					"55 55 55 255"
			
			"image"					"backpack_rect_mouseover_color"
			"src_corner_height"		"24"				// pixels inside the image
			"src_corner_width"		"24"
			"draw_corner_width"		"0"				// screen size of the corners ( and sides ), proportional
			"draw_corner_height" 	"0"	
		}
		Econ.Button.Border.Default
		{
			"inset" "0 0 0 0"
			"backgroundtype" "2"
		}
		Econ.Button.Border.Armed
		{
			"inset" "0 0 0 0"
			"backgroundtype" "2"
		}

		LoadoutItemMouseOverBorder
		{
			"bordertype"			"scalable_image"
			"backgroundtype"		"2"
			"color"					"65 65 65 255"
			
			"image"					"backpack_rect_mouseover_color"
			"src_corner_height"		"24"				// pixels inside the image
			"src_corner_width"		"24"
			"draw_corner_width"		"0"				// screen size of the corners ( and sides ), proportional
			"draw_corner_height" 	"0"	
		}
		LoadoutItemPopupBorder
		{
			"bordertype"			"scalable_image"
			"backgroundtype"		"2"
			"color"					"50 50 50 255"
			
			"image"					"backpack_rect_mouseover_color"
			"src_corner_height"		"32"				// pixels inside the image
			"src_corner_width"		"32"
			"draw_corner_width"		"0"				// screen size of the corners ( and sides ), proportional
			"draw_corner_height" 	"0"	
		}
		
		BackpackItemGrayedOut
		{
			"bordertype"			"scalable_image"
			"backgroundtype"		"2"
			"color"					"Black"
			
			"image"					"backpack_rect_color"
			"src_corner_height"		"24"				// pixels inside the image
			"src_corner_width"		"24"
			"draw_corner_width"		"0"				// screen size of the corners ( and sides ), proportional
			"draw_corner_height" 	"0"	
		}
		
		BackpackItemGrayedOut_Selected
		{
			"bordertype"			"scalable_image"
			"backgroundtype"		"2"
			"color"					"Black"
			
			"image"					"backpack_rect_selected"
			"src_corner_height"		"24"				// pixels inside the image
			"src_corner_width"		"24"
			"draw_corner_width"		"0"				// screen size of the corners ( and sides ), proportional
			"draw_corner_height" 	"0"	
		}
		
		// Standard ------------------------------------------------------------------------------------------------
		BackpackItemBorder
		{
			"bordertype"			"scalable_image"
			"backgroundtype"		"2"
			"color"					"55 55 55 255"
			
			"image"					"backpack_rect_mouseover_color"
			"src_corner_height"		"24"				// pixels inside the image
			"src_corner_width"		"24"
			"draw_corner_width"		"2"				// screen size of the corners ( and sides ), proportional
			"draw_corner_height" 	"2"	
		}
		BackpackItemMouseOverBorder
		{
			"bordertype"			"scalable_image"
			"backgroundtype"		"2"
			"color"					"65 65 65 255"
			
			"image"					"backpack_rect_mouseover_color"
			"src_corner_height"		"24"				// pixels inside the image
			"src_corner_width"		"24"
			"draw_corner_width"		"2"				// screen size of the corners ( and sides ), proportional
			"draw_corner_height" 	"2"	
		}
		BackpackItemSelectedBorder
		{
			"bordertype"			"scalable_image"
			"backgroundtype"		"2"
			"color"					"75 75 75 255"
			
			"image"					"backpack_rect_mouseover_color"
			"src_corner_height"		"24"				// pixels inside the image
			"src_corner_width"		"24"
			"draw_corner_width"		"2"				// screen size of the corners ( and sides ), proportional
			"draw_corner_height" 	"2"	
		}
		BackpackItemGreyedOutBorder
		{
			"bordertype"			"scalable_image"
			"backgroundtype"		"2"
			"color"					"Black"
			
			"image"					"backpack_rect_color"
			"src_corner_height"		"24"				// pixels inside the image
			"src_corner_width"		"24"
			"draw_corner_width"		"2"				// screen size of the corners ( and sides ), proportional
			"draw_corner_height" 	"2"	
		}
		BackpackItemGreyedOutSelectedBorder
		{
			"bordertype"			"scalable_image"
			"backgroundtype"		"2"
			"color"					"Black"
			
			"image"					"backpack_rect_selected"
			"src_corner_height"		"24"				// pixels inside the image
			"src_corner_width"		"24"
			"draw_corner_width"		"2"				// screen size of the corners ( and sides ), proportional
			"draw_corner_height" 	"2"	
		}
		
		// Unique ------------------------------------------------------------------------------------------------
		BackpackItemBorder_Unique
		{
			"bordertype"			"scalable_image"
			"backgroundtype"		"2"
			"color"					"QualityColorUnique"
			
			"image"					"backpack_rect_mouseover_color"
			"src_corner_height"		"24"				// pixels inside the image
			"src_corner_width"		"24"
			"draw_corner_width"		"2"				// screen size of the corners ( and sides ), proportional
			"draw_corner_height" 	"2"	
		}
		BackpackItemMouseOverBorder_Unique
		{
			"bordertype"			"scalable_image"
			"backgroundtype"		"2"
			"color"					"QualityColorUnique"
			
			"image"					"backpack_rect_mouseover_color"
			"src_corner_height"		"24"				// pixels inside the image
			"src_corner_width"		"24"
			"draw_corner_width"		"2"				// screen size of the corners ( and sides ), proportional
			"draw_corner_height" 	"2"	
		}
		BackpackItemGreyedOutBorder_Unique
		{
			"bordertype"			"scalable_image"
			"backgroundtype"		"2"
			"color"					"QualityColorUnique_GreyedOut"
			
			"image"					"backpack_rect_color"
			"src_corner_height"		"24"				// pixels inside the image
			"src_corner_width"		"24"
			"draw_corner_width"		"2"				// screen size of the corners ( and sides ), proportional
			"draw_corner_height" 	"2"	
		}
		BackpackItemGreyedOutSelectedBorder_Unique
		{
			"bordertype"			"scalable_image"
			"backgroundtype"		"2"
			"color"					"QualityColorUnique_GreyedOut"
			
			"image"					"backpack_rect_mouseover_color"
			"src_corner_height"		"24"				// pixels inside the image
			"src_corner_width"		"24"
			"draw_corner_width"		"2"				// screen size of the corners ( and sides ), proportional
			"draw_corner_height" 	"2"	
		}

		// Rarity1 ------------------------------------------------------------------------------------------------
		BackpackItemBorder_1
		{
			"bordertype"			"scalable_image"
			"backgroundtype"		"2"
			"color"					"QualityColorrarity1"
			
			"image"					"backpack_rect_mouseover_color"
			"src_corner_height"		"24"				// pixels inside the image
			"src_corner_width"		"24"
			"draw_corner_width"		"2"				// screen size of the corners ( and sides ), proportional
			"draw_corner_height" 	"2"	
		}
		BackpackItemMouseOverBorder_1
		{
			"bordertype"			"scalable_image"
			"backgroundtype"		"2"
			"color"					"QualityColorrarity1"
			
			"image"					"backpack_rect_mouseover_color"
			"src_corner_height"		"24"				// pixels inside the image
			"src_corner_width"		"24"
			"draw_corner_width"		"2"				// screen size of the corners ( and sides ), proportional
			"draw_corner_height" 	"2"	
		}
		BackpackItemGreyedOutBorder_1
		{
			"bordertype"			"scalable_image"
			"backgroundtype"		"2"
			"color"					"QualityColorrarity1_GreyedOut"
			
			"image"					"backpack_rect_color"
			"src_corner_height"		"24"				// pixels inside the image
			"src_corner_width"		"24"
			"draw_corner_width"		"2"				// screen size of the corners ( and sides ), proportional
			"draw_corner_height" 	"2"	
		}
		BackpackItemGreyedOutSelectedBorder_1
		{
			"bordertype"			"scalable_image"
			"backgroundtype"		"2"
			"color"					"QualityColorrarity1_GreyedOut"
			
			"image"					"backpack_rect_mouseover_color"
			"src_corner_height"		"24"				// pixels inside the image
			"src_corner_width"		"24"
			"draw_corner_width"		"2"				// screen size of the corners ( and sides ), proportional
			"draw_corner_height" 	"2"	
		}

		// Rarity2 ------------------------------------------------------------------------------------------------
		BackpackItemBorder_2
		{
			"bordertype"			"scalable_image"
			"backgroundtype"		"2"
			"color"					"QualityColorrarity2"
			
			"image"					"backpack_rect_mouseover_color"
			"src_corner_height"		"24"				// pixels inside the image
			"src_corner_width"		"24"
			"draw_corner_width"		"2"				// screen size of the corners ( and sides ), proportional
			"draw_corner_height" 	"2"	
		}
		BackpackItemMouseOverBorder_2
		{
			"bordertype"			"scalable_image"
			"backgroundtype"		"2"
			"color"					"QualityColorrarity2"
			
			"image"					"backpack_rect_mouseover_color"
			"src_corner_height"		"24"				// pixels inside the image
			"src_corner_width"		"24"
			"draw_corner_width"		"2"				// screen size of the corners ( and sides ), proportional
			"draw_corner_height" 	"2"	
		}
		BackpackItemGreyedOutBorder_2
		{
			"bordertype"			"scalable_image"
			"backgroundtype"		"2"
			"color"					"QualityColorrarity2_GreyedOut"
			
			"image"					"backpack_rect_color"
			"src_corner_height"		"24"				// pixels inside the image
			"src_corner_width"		"24"
			"draw_corner_width"		"2"				// screen size of the corners ( and sides ), proportional
			"draw_corner_height" 	"2"	
		}
		BackpackItemGreyedOutSelectedBorder_2
		{
			"bordertype"			"scalable_image"
			"backgroundtype"		"2"
			"color"					"QualityColorrarity2_GreyedOut"
			
			"image"					"backpack_rect_mouseover_color"
			"src_corner_height"		"24"				// pixels inside the image
			"src_corner_width"		"24"
			"draw_corner_width"		"2"				// screen size of the corners ( and sides ), proportional
			"draw_corner_height" 	"2"	
		}

		// Rarity3 ------------------------------------------------------------------------------------------------
		BackpackItemBorder_3
		{
			"bordertype"			"scalable_image"
			"backgroundtype"		"2"
			"color"					"QualityColorrarity3"
			
			"image"					"backpack_rect_mouseover_color"
			"src_corner_height"		"24"				// pixels inside the image
			"src_corner_width"		"24"
			"draw_corner_width"		"2"				// screen size of the corners ( and sides ), proportional
			"draw_corner_height" 	"2"	
		}
		BackpackItemMouseOverBorder_3
		{
			"bordertype"			"scalable_image"
			"backgroundtype"		"2"
			"color"					"QualityColorrarity3"
			
			"image"					"backpack_rect_mouseover_color"
			"src_corner_height"		"24"				// pixels inside the image
			"src_corner_width"		"24"
			"draw_corner_width"		"2"				// screen size of the corners ( and sides ), proportional
			"draw_corner_height" 	"2"	
		}
		BackpackItemGreyedOutBorder_3
		{
			"bordertype"			"scalable_image"
			"backgroundtype"		"2"
			"color"					"QualityColorrarity3_GreyedOut"
			
			"image"					"backpack_rect_color"
			"src_corner_height"		"24"				// pixels inside the image
			"src_corner_width"		"24"
			"draw_corner_width"		"2"				// screen size of the corners ( and sides ), proportional
			"draw_corner_height" 	"2"	
		}
		BackpackItemGreyedOutSelectedBorder_3
		{
			"bordertype"			"scalable_image"
			"backgroundtype"		"2"
			"color"					"QualityColorrarity3_GreyedOut"
			
			"image"					"backpack_rect_mouseover_color"
			"src_corner_height"		"24"				// pixels inside the image
			"src_corner_width"		"24"
			"draw_corner_width"		"2"				// screen size of the corners ( and sides ), proportional
			"draw_corner_height" 	"2"	
		}

		// Rarity4 ------------------------------------------------------------------------------------------------
		BackpackItemBorder_4
		{
			"bordertype"			"scalable_image"
			"backgroundtype"		"2"
			"color"					"QualityColorrarity4"
			
			"image"					"backpack_rect_mouseover_color"
			"src_corner_height"		"24"				// pixels inside the image
			"src_corner_width"		"24"
			"draw_corner_width"		"2"				// screen size of the corners ( and sides ), proportional
			"draw_corner_height" 	"2"	
		}
		BackpackItemMouseOverBorder_4
		{
			"bordertype"			"scalable_image"
			"backgroundtype"		"2"
			"color"					"QualityColorrarity4"
			
			"image"					"backpack_rect_mouseover_color"
			"src_corner_height"		"24"				// pixels inside the image
			"src_corner_width"		"24"
			"draw_corner_width"		"2"				// screen size of the corners ( and sides ), proportional
			"draw_corner_height" 	"2"	
		}
		BackpackItemGreyedOutBorder_4
		{
			"bordertype"			"scalable_image"
			"backgroundtype"		"2"
			"color"					"QualityColorrarity4_GreyedOut"
			
			"image"					"backpack_rect_color"
			"src_corner_height"		"24"				// pixels inside the image
			"src_corner_width"		"24"
			"draw_corner_width"		"2"				// screen size of the corners ( and sides ), proportional
			"draw_corner_height" 	"2"	
		}
		BackpackItemGreyedOutSelectedBorder_4
		{
			"bordertype"			"scalable_image"
			"backgroundtype"		"2"
			"color"					"QualityColorrarity4_GreyedOut"
			
			"image"					"backpack_rect_mouseover_color"
			"src_corner_height"		"24"				// pixels inside the image
			"src_corner_width"		"24"
			"draw_corner_width"		"2"				// screen size of the corners ( and sides ), proportional
			"draw_corner_height" 	"2"	
		}

		// Haunted ------------------------------------------------------------------------------------------------
		BackpackItemBorder_Haunted
		{
			"bordertype"			"scalable_image"
			"backgroundtype"		"2"
			"color"					"QualityColorHaunted"
			
			"image"					"backpack_rect_mouseover_color"
			"src_corner_height"		"24"				// pixels inside the image
			"src_corner_width"		"24"
			"draw_corner_width"		"2"				// screen size of the corners ( and sides ), proportional
			"draw_corner_height" 	"2"	
		}
		BackpackItemMouseOverBorder_Haunted
		{
			"bordertype"			"scalable_image"
			"backgroundtype"		"2"
			"color"					"QualityColorHaunted"
			
			"image"					"backpack_rect_mouseover_color"
			"src_corner_height"		"24"				// pixels inside the image
			"src_corner_width"		"24"
			"draw_corner_width"		"2"				// screen size of the corners ( and sides ), proportional
			"draw_corner_height" 	"2"	
		}
		BackpackItemGreyedOutBorder_Haunted
		{
			"bordertype"			"scalable_image"
			"backgroundtype"		"2"
			"color"					"QualityColorHaunted_GreyedOut"
			
			"image"					"backpack_rect_color"
			"src_corner_height"		"24"				// pixels inside the image
			"src_corner_width"		"24"
			"draw_corner_width"		"2"				// screen size of the corners ( and sides ), proportional
			"draw_corner_height" 	"2"	
		}
		BackpackItemGreyedOutSelectedBorder_Haunted
		{
			"bordertype"			"scalable_image"
			"backgroundtype"		"2"
			"color"					"QualityColorHaunted_GreyedOut"
			
			"image"					"backpack_rect_mouseover_color"
			"src_corner_height"		"24"				// pixels inside the image
			"src_corner_width"		"24"
			"draw_corner_width"		"2"				// screen size of the corners ( and sides ), proportional
			"draw_corner_height" 	"2"	
		}

		// PaintkitWeapon ------------------------------------------------------------------------------------------------
		BackpackItemBorder_PaintkitWeapon
		{
			"bordertype"			"scalable_image"
			"backgroundtype"		"2"
			"color"					"QualityColorPaintkitWeapon"
			
			"image"					"backpack_rect_mouseover_color"
			"src_corner_height"		"24"				// pixels inside the image
			"src_corner_width"		"24"
			"draw_corner_width"		"2"				// screen size of the corners ( and sides ), proportional
			"draw_corner_height" 	"2"	
		}
		BackpackItemMouseOverBorder_PaintkitWeapon
		{
			"bordertype"			"scalable_image"
			"backgroundtype"		"2"
			"color"					"QualityColorPaintkitWeapon"
			
			"image"					"backpack_rect_mouseover_color"
			"src_corner_height"		"24"				// pixels inside the image
			"src_corner_width"		"24"
			"draw_corner_width"		"2"				// screen size of the corners ( and sides ), proportional
			"draw_corner_height" 	"2"	
		}
		BackpackItemGreyedOutBorder_PaintkitWeapon
		{
			"bordertype"			"scalable_image"
			"backgroundtype"		"2"
			"color"					"QualityColorPaintkitWeapon_GreyedOut"
			
			"image"					"backpack_rect_color"
			"src_corner_height"		"24"				// pixels inside the image
			"src_corner_width"		"24"
			"draw_corner_width"		"2"				// screen size of the corners ( and sides ), proportional
			"draw_corner_height" 	"2"	
		}
		BackpackItemGreyedOutSelectedBorder_PaintkitWeapon
		{
			"bordertype"			"scalable_image"
			"backgroundtype"		"2"
			"color"					"QualityColorPaintkitWeaponGreyedOut"
			
			"image"					"backpack_rect_mouseover_color"
			"src_corner_height"		"24"				// pixels inside the image
			"src_corner_width"		"24"
			"draw_corner_width"		"2"				// screen size of the corners ( and sides ), proportional
			"draw_corner_height" 	"2"	
		}
		
		// Collector's ------------------------------------------------------------------------------------------------
		BackpackItemBorder_Collectors
		{
			"bordertype"			"scalable_image"
			"backgroundtype"		"2"
			"color"					"QualityColorCollectors"
			
			"image"					"backpack_rect_mouseover_color"
			"src_corner_height"		"24"				// pixels inside the image
			"src_corner_width"		"24"
			"draw_corner_width"		"2"				// screen size of the corners ( and sides ), proportional
			"draw_corner_height" 	"2"	
		}
		BackpackItemMouseOverBorder_Collectors
		{
			"bordertype"			"scalable_image"
			"backgroundtype"		"2"
			"color"					"QualityColorCollectors"
			
			"image"					"backpack_rect_mouseover_color"
			"src_corner_height"		"24"				// pixels inside the image
			"src_corner_width"		"24"
			"draw_corner_width"		"2"				// screen size of the corners ( and sides ), proportional
			"draw_corner_height" 	"2"	
		}
		BackpackItemGreyedOutBorder_Collectors
		{
			"bordertype"			"scalable_image"
			"backgroundtype"		"2"
			"color"					"QualityColorCollectors_GreyedOut"
			
			"image"					"backpack_rect_color"
			"src_corner_height"		"24"				// pixels inside the image
			"src_corner_width"		"24"
			"draw_corner_width"		"2"				// screen size of the corners ( and sides ), proportional
			"draw_corner_height" 	"2"	
		}
		BackpackItemGreyedOutSelectedBorder_Collectors
		{
			"bordertype"			"scalable_image"
			"backgroundtype"		"2"
			"color"					"QualityColorCollectors_GreyedOut"
			
			"image"					"backpack_rect_mouseover_color"
			"src_corner_height"		"24"				// pixels inside the image
			"src_corner_width"		"24"
			"draw_corner_width"		"2"				// screen size of the corners ( and sides ), proportional
			"draw_corner_height" 	"2"	
		}

		// Vintage ------------------------------------------------------------------------------------------------
		BackpackItemBorder_Vintage
		{
			"bordertype"			"scalable_image"
			"backgroundtype"		"2"
			"color"					"QualityColorVintage"
			
			"image"					"backpack_rect_mouseover_color"
			"src_corner_height"		"24"				// pixels inside the image
			"src_corner_width"		"24"
			"draw_corner_width"		"2"				// screen size of the corners ( and sides ), proportional
			"draw_corner_height" 	"2"	
		}
		BackpackItemMouseOverBorder_Vintage
		{
			"bordertype"			"scalable_image"
			"backgroundtype"		"2"
			"color"					"QualityColorVintage"
			
			"image"					"backpack_rect_mouseover_color"
			"src_corner_height"		"24"				// pixels inside the image
			"src_corner_width"		"24"
			"draw_corner_width"		"2"				// screen size of the corners ( and sides ), proportional
			"draw_corner_height" 	"2"	
		}
		BackpackItemGreyedOutBorder_Vintage
		{
			"bordertype"			"scalable_image"
			"backgroundtype"		"2"
			"color"					"QualityColorVintage_GreyedOut"
			
			"image"					"backpack_rect_color"
			"src_corner_height"		"24"				// pixels inside the image
			"src_corner_width"		"24"
			"draw_corner_width"		"2"				// screen size of the corners ( and sides ), proportional
			"draw_corner_height" 	"2"	
		}
		BackpackItemGreyedOutSelectedBorder_Vintage
		{
			"bordertype"			"scalable_image"
			"backgroundtype"		"2"
			"color"					"QualityColorVintage_GreyedOut"
			
			"image"					"backpack_rect_mouseover_color"
			"src_corner_height"		"24"				// pixels inside the image
			"src_corner_width"		"24"
			"draw_corner_width"		"2"				// screen size of the corners ( and sides ), proportional
			"draw_corner_height" 	"2"	
		}

		// Community ------------------------------------------------------------------------------------------------
		BackpackItemBorder_Community
		{
			"bordertype"			"scalable_image"
			"backgroundtype"		"2"
			"color"					"QualityColorCommunity"
			
			"image"					"backpack_rect_mouseover_color"
			"src_corner_height"		"24"				// pixels inside the image
			"src_corner_width"		"24"
			"draw_corner_width"		"2"				// screen size of the corners ( and sides ), proportional
			"draw_corner_height" 	"2"	
		}
		BackpackItemMouseOverBorder_Community
		{
			"bordertype"			"scalable_image"
			"backgroundtype"		"2"
			"color"					"QualityColorCommunity"
			
			"image"					"backpack_rect_mouseover_color"
			"src_corner_height"		"24"				// pixels inside the image
			"src_corner_width"		"24"
			"draw_corner_width"		"2"				// screen size of the corners ( and sides ), proportional
			"draw_corner_height" 	"2"	
		}
		BackpackItemGreyedOutBorder_Community
		{
			"bordertype"			"scalable_image"
			"backgroundtype"		"2"
			"color"					"QualityColorCommunity_GreyedOut"
			
			"image"					"backpack_rect_color"
			"src_corner_height"		"24"				// pixels inside the image
			"src_corner_width"		"24"
			"draw_corner_width"		"2"				// screen size of the corners ( and sides ), proportional
			"draw_corner_height" 	"2"	
		}
		BackpackItemGreyedOutSelectedBorder_Community
		{
			"bordertype"			"scalable_image"
			"backgroundtype"		"2"
			"color"					"QualityColorCommunity_GreyedOut"
			
			"image"					"backpack_rect_mouseover_color"
			"src_corner_height"		"24"				// pixels inside the image
			"src_corner_width"		"24"
			"draw_corner_width"		"2"				// screen size of the corners ( and sides ), proportional
			"draw_corner_height" 	"2"	
		}

		// Developer ------------------------------------------------------------------------------------------------
		BackpackItemBorder_Developer
		{
			"bordertype"			"scalable_image"
			"backgroundtype"		"2"
			"color"					"QualityColorDeveloper"
			
			"image"					"backpack_rect_mouseover_color"
			"src_corner_height"		"24"				// pixels inside the image
			"src_corner_width"		"24"
			"draw_corner_width"		"2"				// screen size of the corners ( and sides ), proportional
			"draw_corner_height" 	"2"	
		}
		BackpackItemMouseOverBorder_Developer
		{
			"bordertype"			"scalable_image"
			"backgroundtype"		"2"
			"color"					"QualityColorDeveloper"
			
			"image"					"backpack_rect_mouseover_color"
			"src_corner_height"		"24"				// pixels inside the image
			"src_corner_width"		"24"
			"draw_corner_width"		"2"				// screen size of the corners ( and sides ), proportional
			"draw_corner_height" 	"2"	
		}
		BackpackItemGreyedOutBorder_Developer
		{
			"bordertype"			"scalable_image"
			"backgroundtype"		"2"
			"color"					"QualityColorDeveloper_GreyedOut"
			
			"image"					"backpack_rect_color"
			"src_corner_height"		"24"				// pixels inside the image
			"src_corner_width"		"24"
			"draw_corner_width"		"2"				// screen size of the corners ( and sides ), proportional
			"draw_corner_height" 	"2"	
		}
		BackpackItemGreyedOutSelectedBorder_Developer
		{
			"bordertype"			"scalable_image"
			"backgroundtype"		"2"
			"color"					"QualityColorDeveloper_GreyedOut"
			
			"image"					"backpack_rect_mouseover_color"
			"src_corner_height"		"24"				// pixels inside the image
			"src_corner_width"		"24"
			"draw_corner_width"		"2"				// screen size of the corners ( and sides ), proportional
			"draw_corner_height" 	"2"	
		}

		// SelfMade ------------------------------------------------------------------------------------------------
		BackpackItemBorder_SelfMade
		{
			"bordertype"			"scalable_image"
			"backgroundtype"		"2"
			"color"					"QualityColorSelfMade"
			
			"image"					"backpack_rect_mouseover_color"
			"src_corner_height"		"24"				// pixels inside the image
			"src_corner_width"		"24"
			"draw_corner_width"		"2"				// screen size of the corners ( and sides ), proportional
			"draw_corner_height" 	"2"	
		}
		BackpackItemMouseOverBorder_SelfMade
		{
			"bordertype"			"scalable_image"
			"backgroundtype"		"2"
			"color"					"QualityColorSelfMade"
			
			"image"					"backpack_rect_mouseover_color"
			"src_corner_height"		"24"				// pixels inside the image
			"src_corner_width"		"24"
			"draw_corner_width"		"2"				// screen size of the corners ( and sides ), proportional
			"draw_corner_height" 	"2"	
		}
		BackpackItemGreyedOutBorder_SelfMade
		{
			"bordertype"			"scalable_image"
			"backgroundtype"		"2"
			"color"					"QualityColorSelfMade_GreyedOut"
			
			"image"					"backpack_rect_color"
			"src_corner_height"		"24"				// pixels inside the image
			"src_corner_width"		"24"
			"draw_corner_width"		"2"				// screen size of the corners ( and sides ), proportional
			"draw_corner_height" 	"2"	
		}
		BackpackItemGreyedOutSelectedBorder_SelfMade
		{
			"bordertype"			"scalable_image"
			"backgroundtype"		"2"
			"color"					"QualityColorSelfMade_GreyedOut"
			
			"image"					"backpack_rect_mouseover_color"
			"src_corner_height"		"24"				// pixels inside the image
			"src_corner_width"		"24"
			"draw_corner_width"		"2"				// screen size of the corners ( and sides ), proportional
			"draw_corner_height" 	"2"	
		}

		// Customized ------------------------------------------------------------------------------------------------
		BackpackItemBorder_Customized
		{
			"bordertype"			"scalable_image"
			"backgroundtype"		"2"
			"color"					"QualityColorCustomized"
			
			"image"					"backpack_rect_mouseover_color"
			"src_corner_height"		"24"				// pixels inside the image
			"src_corner_width"		"24"
			"draw_corner_width"		"2"				// screen size of the corners ( and sides ), proportional
			"draw_corner_height" 	"2"	
		}
		BackpackItemMouseOverBorder_Customized
		{
			"bordertype"			"scalable_image"
			"backgroundtype"		"2"
			"color"					"QualityColorCustomized"
			
			"image"					"backpack_rect_mouseover_color"
			"src_corner_height"		"24"				// pixels inside the image
			"src_corner_width"		"24"
			"draw_corner_width"		"2"				// screen size of the corners ( and sides ), proportional
			"draw_corner_height" 	"2"	
		}
		BackpackItemGreyedOutBorder_Customized
		{
			"bordertype"			"scalable_image"
			"backgroundtype"		"2"
			"color"					"QualityColorCustomized_GreyedOut"
			
			"image"					"backpack_rect_color"
			"src_corner_height"		"24"				// pixels inside the image
			"src_corner_width"		"24"
			"draw_corner_width"		"2"				// screen size of the corners ( and sides ), proportional
			"draw_corner_height" 	"2"	
		}
		BackpackItemGreyedOutSelectedBorder_Customized
		{
			"bordertype"			"scalable_image"
			"backgroundtype"		"2"
			"color"					"QualityColorCustomized_GreyedOut"
			
			"image"					"backpack_rect_mouseover_color"
			"src_corner_height"		"24"				// pixels inside the image
			"src_corner_width"		"24"
			"draw_corner_width"		"2"				// screen size of the corners ( and sides ), proportional
			"draw_corner_height" 	"2"	
		}

		// Strange ------------------------------------------------------------------------------------------------
		BackpackItemBorder_Strange
		{
			"bordertype"			"scalable_image"
			"backgroundtype"		"2"
			"color"					"QualityColorStrange"
			
			"image"					"backpack_rect_mouseover_color"
			"src_corner_height"		"24"				// pixels inside the image
			"src_corner_width"		"24"
			"draw_corner_width"		"2"				// screen size of the corners ( and sides ), proportional
			"draw_corner_height" 	"2"	
		}
		BackpackItemMouseOverBorder_Strange
		{
			"bordertype"			"scalable_image"
			"backgroundtype"		"2"
			"color"					"QualityColorStrange"
			
			"image"					"backpack_rect_mouseover_color"
			"src_corner_height"		"24"				// pixels inside the image
			"src_corner_width"		"24"
			"draw_corner_width"		"2"				// screen size of the corners ( and sides ), proportional
			"draw_corner_height" 	"2"	
		}
		BackpackItemGreyedOutBorder_Strange
		{
			"bordertype"			"scalable_image"
			"backgroundtype"		"2"
			"color"					"QualityColorStrange_GreyedOut"
			
			"image"					"backpack_rect_color"
			"src_corner_height"		"24"				// pixels inside the image
			"src_corner_width"		"24"
			"draw_corner_width"		"2"				// screen size of the corners ( and sides ), proportional
			"draw_corner_height" 	"2"	
		}
		BackpackItemGreyedOutSelectedBorder_Strange
		{
			"bordertype"			"scalable_image"
			"backgroundtype"		"2"
			"color"					"QualityColorStrange_GreyedOut"
			
			"image"					"backpack_rect_mouseover_color"
			"src_corner_height"		"24"				// pixels inside the image
			"src_corner_width"		"24"
			"draw_corner_width"		"2"				// screen size of the corners ( and sides ), proportional
			"draw_corner_height" 	"2"	
		}

		// Completed ------------------------------------------------------------------------------------------------
		BackpackItemBorder_Completed
		{
			"bordertype"			"scalable_image"
			"backgroundtype"		"2"
			"color"					"QualityColorCompleted"
			
			"image"					"backpack_rect_mouseover_color"
			"src_corner_height"		"24"				// pixels inside the image
			"src_corner_width"		"24"
			"draw_corner_width"		"2"				// screen size of the corners ( and sides ), proportional
			"draw_corner_height" 	"2"	
		}
		BackpackItemMouseOverBorder_Completed
		{
			"bordertype"			"scalable_image"
			"backgroundtype"		"2"
			"color"					"QualityColorCompleted"
			
			"image"					"backpack_rect_mouseover_color"
			"src_corner_height"		"24"				// pixels inside the image
			"src_corner_width"		"24"
			"draw_corner_width"		"2"				// screen size of the corners ( and sides ), proportional
			"draw_corner_height" 	"2"	
		}
		BackpackItemGreyedOutBorder_Completed
		{
			"bordertype"			"scalable_image"
			"backgroundtype"		"2"
			"color"					"QualityColorCompleted_GreyedOut"
			
			"image"					"backpack_rect_color"
			"src_corner_height"		"24"				// pixels inside the image
			"src_corner_width"		"24"
			"draw_corner_width"		"2"				// screen size of the corners ( and sides ), proportional
			"draw_corner_height" 	"2"	
		}
		BackpackItemGreyedOutSelectedBorder_Completed
		{
			"bordertype"			"scalable_image"
			"backgroundtype"		"2"
			"color"					"QualityColorCompleted_GreyedOut"
			
			"image"					"backpack_rect_mouseover_color"
			"src_corner_height"		"24"				// pixels inside the image
			"src_corner_width"		"24"
			"draw_corner_width"		"2"				// screen size of the corners ( and sides ), proportional
			"draw_corner_height" 	"2"	
		}

		// ***************************************************************************
		// Rarity Default
		BackpackItemBorder_RarityDefault
		{
			"bordertype"			"scalable_image"
			"backgroundtype"		"2"
			"color"					"ItemRarityDefault"
			
			"image"					"backpack_rect_mouseover_color"
			"src_corner_height"		"24"				// pixels inside the image
			"src_corner_width"		"24"
			"draw_corner_width"		"2"				// screen size of the corners ( and sides ), proportional
			"draw_corner_height" 	"2"	
		}
		BackpackItemMouseOverBorder_RarityDefault
		{
			"bordertype"			"scalable_image"
			"backgroundtype"		"2"
			"color"					"ItemRarityDefault"
			
			"image"					"backpack_rect_mouseover_color"
			"src_corner_height"		"24"				// pixels inside the image
			"src_corner_width"		"24"
			"draw_corner_width"		"2"				// screen size of the corners ( and sides ), proportional
			"draw_corner_height" 	"2"	
		}
		BackpackItemGreyedOutBorder_RarityDefault
		{
			"bordertype"			"scalable_image"
			"backgroundtype"		"2"
			"color"					"ItemRarityDefault_GreyedOut"
			
			"image"					"backpack_rect_color"
			"src_corner_height"		"24"				// pixels inside the image
			"src_corner_width"		"24"
			"draw_corner_width"		"2"				// screen size of the corners ( and sides ), proportional
			"draw_corner_height" 	"2"	
		}
		BackpackItemGreyedOutSelectedBorder_RarityDefault
		{
			"bordertype"			"scalable_image"
			"backgroundtype"		"2"
			"color"					"ItemRarityDefault_GreyedOut"
			
			"image"					"backpack_rect_mouseover_color"
			"src_corner_height"		"24"				// pixels inside the image
			"src_corner_width"		"24"
			"draw_corner_width"		"2"				// screen size of the corners ( and sides ), proportional
			"draw_corner_height" 	"2"	
		}
		// ***************************************************
		BackpackItemBorder_RarityCommon
		{
			"bordertype"			"scalable_image"
			"backgroundtype"		"2"
			"color"					"ItemRarityCommon"
			
			"image"					"backpack_rect_mouseover_color"
			"src_corner_height"		"24"				// pixels inside the image
			"src_corner_width"		"24"
			"draw_corner_width"		"2"				// screen size of the corners ( and sides ), proportional
			"draw_corner_height" 	"2"	
		}
		BackpackItemMouseOverBorder_RarityCommon
		{
			"bordertype"			"scalable_image"
			"backgroundtype"		"2"
			"color"					"ItemRarityCommon"
			
			"image"					"backpack_rect_mouseover_color"
			"src_corner_height"		"24"				// pixels inside the image
			"src_corner_width"		"24"
			"draw_corner_width"		"2"				// screen size of the corners ( and sides ), proportional
			"draw_corner_height" 	"2"	
		}
		BackpackItemGreyedOutBorder_RarityCommon
		{
			"bordertype"			"scalable_image"
			"backgroundtype"		"2"
			"color"					"ItemRarityCommon_GreyedOut"
			
			"image"					"backpack_rect_color"
			"src_corner_height"		"24"				// pixels inside the image
			"src_corner_width"		"24"
			"draw_corner_width"		"2"				// screen size of the corners ( and sides ), proportional
			"draw_corner_height" 	"2"	
		}
		BackpackItemGreyedOutSelectedBorder_RarityCommon
		{
			"bordertype"			"scalable_image"
			"backgroundtype"		"2"
			"color"					"ItemRarityCommon_GreyedOut"
			
			"image"					"backpack_rect_mouseover_color"
			"src_corner_height"		"24"				// pixels inside the image
			"src_corner_width"		"24"
			"draw_corner_width"		"2"				// screen size of the corners ( and sides ), proportional
			"draw_corner_height" 	"2"	
		}
		//
		BackpackItemBorder_RarityUncommon
		{
			"bordertype"			"scalable_image"
			"backgroundtype"		"2"
			"color"					"ItemRarityUncommon"
			
			"image"					"backpack_rect_mouseover_color"
			"src_corner_height"		"24"				// pixels inside the image
			"src_corner_width"		"24"
			"draw_corner_width"		"2"				// screen size of the corners ( and sides ), proportional
			"draw_corner_height" 	"2"	
		}
		BackpackItemMouseOverBorder_RarityUncommon
		{
			"bordertype"			"scalable_image"
			"backgroundtype"		"2"
			"color"					"ItemRarityUncommon"
			
			"image"					"backpack_rect_mouseover_color"
			"src_corner_height"		"24"				// pixels inside the image
			"src_corner_width"		"24"
			"draw_corner_width"		"2"				// screen size of the corners ( and sides ), proportional
			"draw_corner_height" 	"2"	
		}
		BackpackItemGreyedOutBorder_RarityUncommon
		{
			"bordertype"			"scalable_image"
			"backgroundtype"		"2"
			"color"					"ItemRarityUncommon_GreyedOut"
			
			"image"					"backpack_rect_color"
			"src_corner_height"		"24"				// pixels inside the image
			"src_corner_width"		"24"
			"draw_corner_width"		"2"				// screen size of the corners ( and sides ), proportional
			"draw_corner_height" 	"2"	
		}
		BackpackItemGreyedOutSelectedBorder_RarityUncommon
		{
			"bordertype"			"scalable_image"
			"backgroundtype"		"2"
			"color"					"ItemRarityUncommon_GreyedOut"
			
			"image"					"backpack_rect_mouseover_color"
			"src_corner_height"		"24"				// pixels inside the image
			"src_corner_width"		"24"
			"draw_corner_width"		"2"				// screen size of the corners ( and sides ), proportional
			"draw_corner_height" 	"2"	
		}
		//**************
		BackpackItemBorder_RarityRare
		{
			"bordertype"			"scalable_image"
			"backgroundtype"		"2"
			"color"					"ItemRarityRare"
			
			"image"					"backpack_rect_mouseover_color"
			"src_corner_height"		"24"				// pixels inside the image
			"src_corner_width"		"24"
			"draw_corner_width"		"2"				// screen size of the corners ( and sides ), proportional
			"draw_corner_height" 	"2"	
		}
		BackpackItemMouseOverBorder_RarityRare
		{
			"bordertype"			"scalable_image"
			"backgroundtype"		"2"
			"color"					"ItemRarityRare"
			
			"image"					"backpack_rect_mouseover_color"
			"src_corner_height"		"24"				// pixels inside the image
			"src_corner_width"		"24"
			"draw_corner_width"		"2"				// screen size of the corners ( and sides ), proportional
			"draw_corner_height" 	"2"	
		}
		BackpackItemGreyedOutBorder_RarityRare
		{
			"bordertype"			"scalable_image"
			"backgroundtype"		"2"
			"color"					"ItemRarityRare_GreyedOut"
			
			"image"					"backpack_rect_color"
			"src_corner_height"		"24"				// pixels inside the image
			"src_corner_width"		"24"
			"draw_corner_width"		"2"				// screen size of the corners ( and sides ), proportional
			"draw_corner_height" 	"2"	
		}
		BackpackItemGreyedOutSelectedBorder_RarityRare
		{
			"bordertype"			"scalable_image"
			"backgroundtype"		"2"
			"color"					"ItemRarityRare_GreyedOut"
			
			"image"					"backpack_rect_mouseover_color"
			"src_corner_height"		"24"				// pixels inside the image
			"src_corner_width"		"24"
			"draw_corner_width"		"2"				// screen size of the corners ( and sides ), proportional
			"draw_corner_height" 	"2"	
		}
		//******************
		BackpackItemBorder_RarityMythical
		{
			"bordertype"			"scalable_image"
			"backgroundtype"		"2"
			"color"					"ItemRarityMythical"
			
			"image"					"backpack_rect_mouseover_color"
			"src_corner_height"		"24"				// pixels inside the image
			"src_corner_width"		"24"
			"draw_corner_width"		"2"				// screen size of the corners ( and sides ), proportional
			"draw_corner_height" 	"2"	
		}
		BackpackItemMouseOverBorder_RarityMythical
		{
			"bordertype"			"scalable_image"
			"backgroundtype"		"2"
			"color"					"ItemRarityMythical"
			
			"image"					"backpack_rect_mouseover_color"
			"src_corner_height"		"24"				// pixels inside the image
			"src_corner_width"		"24"
			"draw_corner_width"		"2"				// screen size of the corners ( and sides ), proportional
			"draw_corner_height" 	"2"	
		}
		BackpackItemGreyedOutBorder_RarityMythical
		{
			"bordertype"			"scalable_image"
			"backgroundtype"		"2"
			"color"					"ItemRarityMythical_GreyedOut"
			
			"image"					"backpack_rect_color"
			"src_corner_height"		"24"				// pixels inside the image
			"src_corner_width"		"24"
			"draw_corner_width"		"2"				// screen size of the corners ( and sides ), proportional
			"draw_corner_height" 	"2"	
		}
		BackpackItemGreyedOutSelectedBorder_RarityMythical
		{
			"bordertype"			"scalable_image"
			"backgroundtype"		"2"
			"color"					"ItemRarityMythical_GreyedOut"
			
			"image"					"backpack_rect_mouseover_color"
			"src_corner_height"		"24"				// pixels inside the image
			"src_corner_width"		"24"
			"draw_corner_width"		"2"				// screen size of the corners ( and sides ), proportional
			"draw_corner_height" 	"2"	
		}
		// ***************************************************
		BackpackItemBorder_RarityLegendary
		{
			"bordertype"			"scalable_image"
			"backgroundtype"		"2"
			"color"					"ItemRarityLegendary"
			
			"image"					"backpack_rect_mouseover_color"
			"src_corner_height"		"24"				// pixels inside the image
			"src_corner_width"		"24"
			"draw_corner_width"		"2"				// screen size of the corners ( and sides ), proportional
			"draw_corner_height" 	"2"	
		}
		BackpackItemMouseOverBorder_RarityLegendary
		{
			"bordertype"			"scalable_image"
			"backgroundtype"		"2"
			"color"					"ItemRarityLegendary"
			
			"image"					"backpack_rect_mouseover_color"
			"src_corner_height"		"24"				// pixels inside the image
			"src_corner_width"		"24"
			"draw_corner_width"		"2"				// screen size of the corners ( and sides ), proportional
			"draw_corner_height" 	"2"	
		}
		BackpackItemGreyedOutBorder_RarityLegendary
		{
			"bordertype"			"scalable_image"
			"backgroundtype"		"2"
			"color"					"ItemRarityLegendary_GreyedOut"
			
			"image"					"backpack_rect_color"
			"src_corner_height"		"24"				// pixels inside the image
			"src_corner_width"		"24"
			"draw_corner_width"		"2"				// screen size of the corners ( and sides ), proportional
			"draw_corner_height" 	"2"	
		}
		BackpackItemGreyedOutSelectedBorder_RarityLegendary
		{
			"bordertype"			"scalable_image"
			"backgroundtype"		"2"
			"color"					"ItemRarityLegendary_GreyedOut"
			
			"image"					"backpack_rect_mouseover_color"
			"src_corner_height"		"24"				// pixels inside the image
			"src_corner_width"		"24"
			"draw_corner_width"		"2"				// screen size of the corners ( and sides ), proportional
			"draw_corner_height" 	"2"	
		}
		//*********************************************
		BackpackItemBorder_RarityAncient
		{
			"bordertype"			"scalable_image"
			"backgroundtype"		"2"
			"color"					"ItemRarityAncient"
			
			"image"					"backpack_rect_mouseover_color"
			"src_corner_height"		"24"				// pixels inside the image
			"src_corner_width"		"24"
			"draw_corner_width"		"2"				// screen size of the corners ( and sides ), proportional
			"draw_corner_height" 	"2"	
		}
		BackpackItemMouseOverBorder_RarityAncient
		{
			"bordertype"			"scalable_image"
			"backgroundtype"		"2"
			"color"					"ItemRarityAncient"
			
			"image"					"backpack_rect_mouseover_color"
			"src_corner_height"		"24"				// pixels inside the image
			"src_corner_width"		"24"
			"draw_corner_width"		"2"				// screen size of the corners ( and sides ), proportional
			"draw_corner_height" 	"2"	
		}
		BackpackItemGreyedOutBorder_RarityAncient
		{
			"bordertype"			"scalable_image"
			"backgroundtype"		"2"
			"color"					"ItemRarityAncient_GreyedOut"
			
			"image"					"backpack_rect_color"
			"src_corner_height"		"24"				// pixels inside the image
			"src_corner_width"		"24"
			"draw_corner_width"		"2"				// screen size of the corners ( and sides ), proportional
			"draw_corner_height" 	"2"	
		}
		BackpackItemGreyedOutSelectedBorder_RarityAncient
		{
			"bordertype"			"scalable_image"
			"backgroundtype"		"2"
			"color"					"ItemRarityAncient_GreyedOut"
			
			"image"					"backpack_rect_mouseover_color"
			"src_corner_height"		"24"				// pixels inside the image
			"src_corner_width"		"24"
			"draw_corner_width"		"2"				// screen size of the corners ( and sides ), proportional
			"draw_corner_height" 	"2"	
		}
		
		StoreItemBorder
		{
			"inset" "0 0 0 0"
			"backgroundtype"		"2"
			Left
			{
				"1"
				{
					"color" "TanDarker"
					"offset" "0 0"
				}
			}

			Right
			{
				"1"
				{
					"color" "TanDarker"
					"offset" "0 0"
				}
			}

			Top
			{
				"1"
				{
					"color" "TanDarker"
					"offset" "0 0"
				}
			}

			Bottom
			{
				"1"
				{
					"color" "TanDarker"
					"offset" "0 0"
				}
			}
		}
		StoreItemBorderMouseOver
		{
			"inset" "0 0 0 0"
			"backgroundtype"		"2"
			Left
			{
				"1"
				{
					"color" "TanDark"
					"offset" "0 0"
				}
			}

			Right
			{
				"1"
				{
					"color" "TanDark"
					"offset" "0 0"
				}
			}

			Top
			{
				"1"
				{
					"color" "TanDark"
					"offset" "0 0"
				}
			}

			Bottom
			{
				"1"
				{
					"color" "TanDark"
					"offset" "0 0"
				}
			}
		}
		StoreItemBorderSelected
		{
			"inset" "0 0 0 0"
			"backgroundtype"		"2"
			Left
			{
				"1"
				{
					"color" "TanLight"
					"offset" "0 0"
				}
			}

			Right
			{
				"1"
				{
					"color" "TanLight"
					"offset" "0 0"
				}
			}

			Top
			{
				"1"
				{
					"color" "TanLight"
					"offset" "0 0"
				}
			}

			Bottom
			{
				"1"
				{
					"color" "TanLight"
					"offset" "0 0"
				}
			}
		}

		MainMenuButtonGlow
		{
			"bordertype"			"scalable_image"
			"backgroundtype"		"2"
			"color"					"178 83 22 255"
			
			"image"					"button_glow"
			"src_corner_height"		"4"				// pixels inside the image
			"src_corner_width"		"4"
			"draw_corner_width"		"0"				// screen size of the corners ( and sides ), proportional
			"draw_corner_height" 	"0"	
		}

		MainMenuButtonGlow2
		{
			"bordertype"			"scalable_image"
			"backgroundtype"		"2"
			"color"					"238 103 17 255"
			
			"image"					"button_glow"
			"src_corner_height"		"4"				// pixels inside the image
			"src_corner_width"		"4"
			"draw_corner_width"		"0"				// screen size of the corners ( and sides ), proportional
			"draw_corner_height" 	"0"	
		}
		NotificationDefault
		{
			"bordertype"			"scalable_image"
			"backgroundtype"		"2"
			
			"image"					"alert_rect"
			"src_corner_height"		"32"				// pixels inside the image
			"src_corner_width"		"32"
			"draw_corner_width"		"0"				// screen size of the corners ( and sides ), proportional
			"draw_corner_height" 	"0"	
		}
		NotificationHighPriority
		{
			"bordertype"			"scalable_image"
			"backgroundtype"		"2"

			"image"					"button_holder_central"
			"src_corner_height"		"32"				// pixels inside the image
			"src_corner_width"		"32"
			"draw_corner_width"		"0"				// screen size of the corners ( and sides ), proportional
			"draw_corner_height" 	"0"
		}
		MainMenuButtonDepressed
		{
			"bordertype"			"scalable_image"
			"backgroundtype"		"2"
			
			"image"					"button_central_depressed"
			"src_corner_height"		"32"				// pixels inside the image
			"src_corner_width"		"32"
			"draw_corner_width"		"0"				// screen size of the corners ( and sides ), proportional
			"draw_corner_height" 	"0"	
		}
		MainMenuButtonDepressedArmed
		{
			"bordertype"			"scalable_image"
			"backgroundtype"		"2"
			
			"image"					"button_central_depressed_armed"
			"src_corner_height"		"32"				// pixels inside the image
			"src_corner_width"		"32"
			"draw_corner_width"		"0"				// screen size of the corners ( and sides ), proportional
			"draw_corner_height" 	"0"	
		}		
		MainMenuButtonDefault
		{
			"bordertype"			"scalable_image"
			"backgroundtype"		"2"
			
			"image"					"button_central"
			"src_corner_height"		"32"				// pixels inside the image
			"src_corner_width"		"32"
			"draw_corner_width"		"0"				// screen size of the corners ( and sides ), proportional
			"draw_corner_height" 	"0"	
		}
		MainMenuButtonArmed
		{
			"bordertype"			"scalable_image"
			"backgroundtype"		"2"
			
			"image"					"button_central_hover"
			"src_corner_height"		"32"				// pixels inside the image
			"src_corner_width"		"32"
			"draw_corner_width"		"0"				// screen size of the corners ( and sides ), proportional
			"draw_corner_height" 	"0"	
		}
		MainMenuButtonDisabled
		{
			"bordertype"			"scalable_image"
			"backgroundtype"		"2"
			
			"image"					"button_central_disabled"
			"src_corner_height"		"32"				// pixels inside the image
			"src_corner_width"		"32"
			"draw_corner_width"		"0"				// screen size of the corners ( and sides ), proportional
			"draw_corner_height" 	"0"	
		}
		MainMenuMiniButtonDefault
		{
			"bordertype"			"scalable_image"
			"backgroundtype"		"2"
			
			"image"					"button_central_adv"
			"src_corner_height"		"32"				// pixels inside the image
			"src_corner_width"		"32"
			"draw_corner_width"		"0"				// screen size of the corners ( and sides ), proportional
			"draw_corner_height" 	"0"	
		}
		MainMenuMiniButtonArmed
		{
			"bordertype"			"scalable_image"
			"backgroundtype"		"2"
			
			"image"					"button_central_adv_hover"
			"src_corner_height"		"32"				// pixels inside the image
			"src_corner_width"		"32"
			"draw_corner_width"		"0"				// screen size of the corners ( and sides ), proportional
			"draw_corner_height" 	"0"	
		}
		MainMenuBGBorder
		{
			"bordertype"			"scalable_image"
			"backgroundtype"		"2"
			
			"image"					"replay/thumbnails/bg_dgrey"
			"src_corner_height"		"32"				// pixels inside the image
			"src_corner_width"		"32"
			"draw_corner_width"		"0"				// screen size of the corners ( and sides ), proportional
			"draw_corner_height" 	"0"	
		}
		MainMenuBGBorderAlpha
		{
			"bordertype"			"scalable_image"
			"backgroundtype"		"2"
			
			"image"					"button_holder_central_alpha"
			"src_corner_height"		"32"				// pixels inside the image
			"src_corner_width"		"32"
			"draw_corner_width"		"0"				// screen size of the corners ( and sides ), proportional
			"draw_corner_height" 	"0"	
		}
		MainMenuBlogTabBG
		{
			"bordertype"			"scalable_image"
			"backgroundtype"		"2"
			
			"image"					"blog_tabby"
			"src_corner_height"		"32"				// pixels inside the image
			"src_corner_width"		"32"
			"draw_corner_width"		"0"				// screen size of the corners ( and sides ), proportional
			"draw_corner_height" 	"0"	
		}
		MainMenuHighlightBorder
		{
			"bordertype"			"scalable_image"
			"backgroundtype"		"2"
			
			"image"					"callout_bubble"
			"src_corner_height"		"32"				// pixels inside the image
			"src_corner_width"		"32"
			"draw_corner_width"		"0"				// screen size of the corners ( and sides ), proportional
			"draw_corner_height" 	"0"	
		}

		TrainingResultsBG
		{
			"bordertype"			"scalable_image"
			"backgroundtype"		"2"
			
			"image"					"button_holder_central"
			"src_corner_height"		"32"			// pixels inside the image
			"src_corner_width"		"32"
			"draw_corner_width"		"0"				// screen size of the corners ( and sides ), proportional
			"draw_corner_height" 	"0"	
		}
		
		StoreInnerShadowBorder
		{
			"bordertype"			"scalable_image"
			"backgroundtype"		"2"
			
			"image"					"store/innershadow_border"
			"src_corner_height"		"23"				// pixels inside the image
			"src_corner_width"		"23"
			"draw_corner_width"		"0"				// screen size of the corners ( and sides ), proportional
			"draw_corner_height" 	"0"	
		}
		
		StoreNewBorder
		{
			"bordertype"			"scalable_image"
			"backgroundtype"		"2"
			
			"image"					"new_corner"
			"src_corner_height"		"32"				// pixels inside the image
			"src_corner_width"		"32"
			"draw_corner_width"		"0"				// screen size of the corners ( and sides ), proportional
			"draw_corner_height" 	"0"	
		}
		
		StoreHighlightedBorder
		{
			"bordertype"			"scalable_image"
			"backgroundtype"		"2"
			
			"image"					"featured_corner"
			"src_corner_height"		"32"				// pixels inside the image
			"src_corner_width"		"32"
			"draw_corner_width"		"0"				// screen size of the corners ( and sides ), proportional
			"draw_corner_height" 	"0"	
		}

		StoreHighlightedBackgroundBorder
		{
			"bordertype"			"scalable_image"
			"backgroundtype"		"2"
			
			"image"					"store/store_featured_item_bg01"
			"src_corner_height"		"80"				// pixels inside the image
			"src_corner_width"		"30"
			"draw_corner_width"		"0"				// screen size of the corners ( and sides ), proportional
			"draw_corner_height" 	"0"	
		}
		
		StoreDiscountBorder
		{
			"bordertype"			"scalable_image"
			"backgroundtype"		"2"
			
			"image"					"sale_corner"
			"src_corner_height"		"32"				// pixels inside the image
			"src_corner_width"		"32"
			"draw_corner_width"		"0"				// screen size of the corners ( and sides ), proportional
			"draw_corner_height" 	"0"	
		}

		StorePreviewBorder
		{
			"bordertype"			"scalable_image"
			"backgroundtype"		"2"
			
			"image"					"store/store_inspector_bg_small"
			"src_corner_height"		"32"				// pixels inside the image
			"src_corner_width"		"32"
			"draw_corner_width"		"0"				// screen size of the corners ( and sides ), proportional
			"draw_corner_height" 	"0"	
		}
		StoreAddToCart
		{
			"bordertype"			"scalable_image"
			"backgroundtype"		"2"
			
			"image"					"store/store_add_to_cart"
			"src_corner_height"		"32"				// pixels inside the image
			"src_corner_width"		"32"
			"draw_corner_width"		"0"				// screen size of the corners ( and sides ), proportional
			"draw_corner_height" 	"0"	
		}
		StorePreviewTabSelected
		{
			"bordertype"			"scalable_image"
			"backgroundtype"		"2"
			
			"image"					"store/store_tab_selected"
			"src_corner_height"		"32"				// pixels inside the image
			"src_corner_width"		"32"
			"draw_corner_width"		"0"				// screen size of the corners ( and sides ), proportional
			"draw_corner_height" 	"0"	
		}
		StorePreviewTabUnselected
		{
			"bordertype"			"scalable_image"
			"backgroundtype"		"2"
			
			"image"					"store/store_tab_unselected"
			"src_corner_height"		"32"				// pixels inside the image
			"src_corner_width"		"32"
			"draw_corner_width"		"0"				// screen size of the corners ( and sides ), proportional
			"draw_corner_height" 	"0"	
		}
		StorePromotion
		{
			"bordertype"			"scalable_image"
			"backgroundtype"		"2"
			
			"image"					"store/store_coupon_border"
			"src_corner_height"		"16"				// pixels inside the image
			"src_corner_width"		"16"
			"draw_corner_width"		"0"				// screen size of the corners ( and sides ), proportional
			"draw_corner_height" 	"0"	
		}
		
		ArmoryScrollbarBox
		{
			"bordertype"			"scalable_image"
			"backgroundtype"		"2"
			
			"image"					"scroll_button_off"
			"src_corner_height"		"16"				// pixels inside the image
			"src_corner_width"		"16"
			"draw_corner_width"		"0"				// screen size of the corners ( and sides ), proportional
			"draw_corner_height" 	"0"	
		}
		ArmoryScrollbarWell
		{
			"bordertype"			"scalable_image"
			"backgroundtype"		"2"
			
			"image"					"scroll_well"
			"src_corner_height"		"16"				// pixels inside the image
			"src_corner_width"		"16"
			"draw_corner_width"		"0"				// screen size of the corners ( and sides ), proportional
			"draw_corner_height" 	"0"	
		}
		QuickplayBorder
		{
			"inset" "0 0 0 0"
			Left
			{
				"1"
				{
					"color" "TanDark"
					"offset" "0 0"
				}
			}

			Right
			{
				"1"
				{
					"color" "TanDark"
					"offset" "0 0"
				}
			}

			Top
			{
				"1"
				{
					"color" "TanDark"
					"offset" "0 0"
				}
			}

			Bottom
			{
				"1"
				{
					"color" "TanDark"
					"offset" "0 0"
				}
			}
		}

		SortCategoryBorder
		{
			"inset" "0 0 1 1"
	
			Right
			{
				"1"
				{
					"color" "TanDark"
					"offset" "1 0"
				}
			}
		}

		SteamWorkshopBorder
		{
			"inset" "0 0 0 0"
			Left
			{
				"1"
				{
					"color" "TanDark"
					"offset" "0 0"
				}
			}

			Right
			{
				"1"
				{
					"color" "TanDark"
					"offset" "0 0"
				}
			}

			Top
			{
				"1"
				{
					"color" "TanDark"
					"offset" "0 0"
				}
			}

			Bottom
			{
				"1"
				{
					"color" "TanDark"
					"offset" "0 0"
				}
			}
		}

		ReplayFatLineBorderRedBGOpaque
		{
			"bordertype"			"scalable_image"
			"backgroundtype"		"2"
			
			"image"					"replay/fatlineborder_red"
			"src_corner_height"		"23"				// pixels inside the image
			"src_corner_width"		"23"
			"draw_corner_width"		"0"				// screen size of the corners ( and sides ), proportional
			"draw_corner_height" 	"0"	
		}
		ReplayFatLineBorderOpaque
		{
			"bordertype"			"scalable_image"
			"backgroundtype"		"2"
			
			"image"					"replay/fatlineborder"
			"src_corner_height"		"23"				// pixels inside the image
			"src_corner_width"		"23"
			"draw_corner_width"		"0"				// screen size of the corners ( and sides ), proportional
			"draw_corner_height" 	"0"	
		}
		ReplayGrayDialogBorder
		{
			"bordertype"			"scalable_image"
			"backgroundtype"		"2"
			
			"image"					"replay/graydialogborder"
			"src_corner_height"		"24"				// pixels inside the image
			"src_corner_width"		"24"
			"draw_corner_width"		"0"				// screen size of the corners ( and sides ), proportional
			"draw_corner_height" 	"0"	
		}
		ReplayOutlinedGreyBox
		{
			"bordertype"			"scalable_image"
			"backgroundtype"		"2"
			
			"image"					"replay/outlinedgreybox"
			"src_corner_height"		"24"				// pixels inside the image
			"src_corner_width"		"24"
			"draw_corner_width"		"0"				// screen size of the corners ( and sides ), proportional
			"draw_corner_height" 	"0"	
		}
		ReplayOutlinedDullGreyBox
		{
			"bordertype"			"scalable_image"
			"backgroundtype"		"2"
			
			"image"					"replay/dullgreybox"
			"src_corner_height"		"24"				// pixels inside the image
			"src_corner_width"		"24"
			"draw_corner_width"		"0"				// screen size of the corners ( and sides ), proportional
			"draw_corner_height" 	"0"	
		}
		ReplayThinLineBorder
		{
			"bordertype"			"scalable_image"
			"backgroundtype"		"2"
			
			"image"					"../hud/tournament_panel_brown"
			//"image"					"../hud/color_panel_browner"
			"src_corner_height"		"23"				// pixels inside the image
			"src_corner_width"		"23"
			"draw_corner_width"		"0"				// screen size of the corners ( and sides ), proportional
			"draw_corner_height" 	"0"	
		}
		ReplayDefaultBorder
		{
			"bordertype"			"scalable_image"
			"backgroundtype"		"2"
			
			"image"					"replay/panel_scalable_default"
			"src_corner_height"		"23"			// pixels inside the image
			"src_corner_width"		"23"
			"draw_corner_width"		"0"				// screen size of the corners ( and sides ), proportional
			"draw_corner_height" 	"0"	
		}
		ReplayHighlightBorder
		{
			"bordertype"			"scalable_image"
			"backgroundtype"		"2"
			
			"image"					"replay/panel_scalable_highlight"
			"src_corner_height"		"23"			// pixels inside the image
			"src_corner_width"		"23"
			"draw_corner_width"		"0"				// screen size of the corners ( and sides ), proportional
			"draw_corner_height" 	"0"	
		}
		ReplayBalloonBorder
		{
			"bordertype"			"scalable_image"
			"backgroundtype"		"2"
			
			"image"					"replay/panel_scalable_balloon"
			"src_corner_height"		"23"			// pixels inside the image
			"src_corner_width"		"23"
			"draw_corner_width"		"0"				// screen size of the corners ( and sides ), proportional
			"draw_corner_height" 	"0"	
		}
		ReplayBrowser.ScrollBar.SliderButton.Border
		{
		}
		
		QuestStatusBorder
		{
			"bordertype"			"scalable_image"
			"backgroundtype"		"2"
			
			"image"					"replay/panel_scalable_transparent"
			"src_corner_height"		"23"			// pixels inside the image
			"src_corner_width"		"23"
			"draw_corner_width"		"0"				// screen size of the corners ( and sides ), proportional
			"draw_corner_height" 	"0"	
		}

		RedWithThinBorder
		{
			"bordertype"			"scalable_image"
			"backgroundtype"		"2"
			
			"image"					"replay/thumbnails/bg_red_transparent"
			"src_corner_height"		"23"			// pixels inside the image
			"src_corner_width"		"23"
			"draw_corner_width"		"0"				// screen size of the corners ( and sides ), proportional
			"draw_corner_height" 	"0"	
		}

		BlueWithThinBorder
		{
			"bordertype"			"scalable_image"
			"backgroundtype"		"2"
			
			"image"					"replay/thumbnails/bg_blu_transparent"
			"src_corner_height"		"23"			// pixels inside the image
			"src_corner_width"		"23"
			"draw_corner_width"		"0"				// screen size of the corners ( and sides ), proportional
			"draw_corner_height" 	"0"	
		}

		InnerShadowBorder
		{
			"bordertype"			"scalable_image"
			"backgroundtype"		"2"
			
			"image"					"inner_shadow_border"
			"src_corner_height"		"5"				// pixels inside the image
			"src_corner_width"		"5"
			"draw_corner_width"		"0"				// screen size of the corners ( and sides ), proportional
			"draw_corner_height" 	"0"	
		}

		InnerShadowBorderThin
		{
			"bordertype"			"scalable_image"
			"backgroundtype"		"2"
			
			"image"					"inner_shadow_border"
			"src_corner_height"		"5"				// pixels inside the image
			"src_corner_width"		"5"
			"draw_corner_width"		"0"				// screen size of the corners ( and sides ), proportional
			"draw_corner_height" 	"0"	
		}

		OuterShadowBorder
		{
			"bordertype"			"scalable_image"
			"backgroundtype"		"2"
			
			"image"					"outer_shadow_border"
			"src_corner_height"		"8"				// pixels inside the image
			"src_corner_width"		"8"
			"draw_corner_width"		"0"				// screen size of the corners ( and sides ), proportional
			"draw_corner_height" 	"0"	
		}

		OuterShadowBorderThin
		{
			"bordertype"			"scalable_image"
			"backgroundtype"		"2"
			
			"image"					"outer_shadow_border"
			"src_corner_height"		"8"				// pixels inside the image
			"src_corner_width"		"8"
			"draw_corner_width"		"0"				// screen size of the corners ( and sides ), proportional
			"draw_corner_height" 	"0"	
		}
		CYOAScreenBorder
		{
			"bordertype"			"scalable_image"
			"backgroundtype"		"2"
			
			"image"					"cyoa/cyoa_map_screen_border"
			"src_corner_height"		"63"				// pixels inside the image
			"src_corner_width"		"63"
			"draw_corner_width"		"26"				// screen size of the corners ( and sides ), proportional
			"draw_corner_height" 	"26"	
		}

		CYOANodeViewBorder
		{
			"bordertype"			"scalable_image"
			"backgroundtype"		"2"
			
			"image"					"cyoa/node_view_border"
			"src_corner_height"		"127"				// pixels inside the image
			"src_corner_width"		"127"
			"draw_corner_width"		"24"				// screen size of the corners ( and sides ), proportional
			"draw_corner_height" 	"24"	
		}

		CYOANodeViewBorder_Active
		{
			"bordertype"			"scalable_image"
			"backgroundtype"		"2"
			
			"image"					"cyoa/node_view_border_active"
			"src_corner_height"		"127"				// pixels inside the image
			"src_corner_width"		"127"
			"draw_corner_width"		"24"				// screen size of the corners ( and sides ), proportional
			"draw_corner_height" 	"24"	
		}

		CYOANodeViewBorder_Inactive
		{
			"bordertype"			"scalable_image"
			"backgroundtype"		"2"
			
			"image"					"cyoa/node_view_border_inactive"
			"src_corner_height"		"127"				// pixels inside the image
			"src_corner_width"		"127"
			"draw_corner_width"		"24"				// screen size of the corners ( and sides ), proportional
			"draw_corner_height" 	"24"	
		}

		CYOANodeViewBorder_TurnIn
		{
			"bordertype"			"scalable_image"
			"backgroundtype"		"2"
			
			"image"					"cyoa/node_view_border_turnin"
			"src_corner_height"		"127"				// pixels inside the image
			"src_corner_width"		"127"
			"draw_corner_width"		"24"				// screen size of the corners ( and sides ), proportional
			"draw_corner_height" 	"24"	
		}

		CYOAPopupBorder
		{
			"inset" "0 0 1 1"
			Left
			{
				"1"
				{
					"color" "QuestMap_ActiveOrange"
					"offset" "0 1"
				}
				"2"
				{
					"color" "QuestMap_ActiveOrange"
					"offset" "0 1"
				}
			}

			Right
			{
				"1"
				{
					"color" "QuestMap_ActiveOrange"
					"offset" "1 0"
				}
				"2"
				{
					"color" "QuestMap_ActiveOrange"
					"offset" "1 0"
				}
			}

			Top
			{
				"1"
				{
					"color" "QuestMap_ActiveOrange"
					"offset" "0 0"
				}
				"2"
				{
					"color" "QuestMap_ActiveOrange"
					"offset" "0 0"
				}
			}

			Bottom
			{
				"1"
				{
					"color" "QuestMap_ActiveOrange"
					"offset" "0 0"
				}
				"2"
				{
					"color" "QuestMap_ActiveOrange"
					"offset" "0 0"
				}
			}
		}

		FriendHighlightBorder
		{
			"inset" "0 0 1 1"
			Left
			{
				"1"
				{
					"color" "CreditsGreen"
					"offset" "0 1"
				}

			}

			Right
			{
				"1"
				{
					"color" "CreditsGreen"
					"offset" "1 0"
				}
			}

			Top
			{
				"1"
				{
					"color" "CreditsGreen"
					"offset" "0 0"
				}
			}

			Bottom
			{
				"1"
				{
					"color" "CreditsGreen"
					"offset" "0 0"
				}
			}
		}

		FriendHighlightBorderThick
		{
			"inset" "0 0 1 1"
			Left
			{
				"1"
				{
					"color" "CreditsGreen"
					"offset" "0 1"
				}
				"2"
				{
					"color" "CreditsGreen"
					"offset" "0 1"
				}
			}

			Right
			{
				"1"
				{
					"color" "CreditsGreen"
					"offset" "1 0"
				}
				"2"
				{
					"color" "CreditsGreen"
					"offset" "1 0"
				}
			}

			Top
			{
				"1"
				{
					"color" "CreditsGreen"
					"offset" "0 0"
				}
				"2"
				{
					"color" "CreditsGreen"
					"offset" "0 0"
				}
			}

			Bottom
			{
				"1"
				{
					"color" "CreditsGreen"
					"offset" "0 0"
				}
				"2"
				{
					"color" "CreditsGreen"
					"offset" "0 0"
				}
			}
		}
	}
}