Scheme
{
	Fonts
	{
		// Damage Numbers
		//-----------------------------------

		"nüMediumOutline20"
		{
			"1"
			{
				"name"		"Noto Sans Bold"
				"tall"		"20"
				"antialias" "1"
				"outline"	"1"
			}
		}

		"nüMediumOutline22"
		{
			"1"
			{
				"name"		"Noto Sans Bold"
				"tall"		"22"
				"antialias" "1"
				"outline"	"1"
			}
		}
		
		"nüMediumOutline24"
		{
			"1"
			{
				"name"		"Noto Sans Bold"
				"tall"		"24"
				"antialias" "1"
				"outline"	"1"
			}
		}

		//-----------------------------------


		"nü8"
		{
			"1"
			{
				"name"		"Noto Sans Bold"
				"tall"		"8"
				"antialias" "1"
			}
		}
		"nüShadow8"
		{
			"1"
			{
				"name"		"Noto Sans Bold"
				"tall"		"8"
				"antialias" "1"
				"blur"		"1"
			}
		}
		"nü10"
		{
			"1"
			{
				"name"		"Noto Sans Bold"
				"tall"		"10"
				"antialias" "1"
			}
		}
		"nüShadow10"
		{
			"1"
			{
				"name"		"Noto Sans Bold"
				"tall"		"10"
				"antialias" "1"
				"blur"		"1"
			}
		}
		"nü11"
		{
			"1"
			{
				"name"		"Noto Sans Bold"
				"tall"		"11"
				"antialias" "1"
			}
		}
		"nüShadow11"
		{
			"1"
			{
				"name"		"Noto Sans Bold"
				"tall"		"11"
				"antialias" "1"
				"blur"		"1"
			}
		}
		"nü12"
		{
			"1"
			{
				"name"		"Noto Sans Bold"
				"tall"		"12"
				"antialias" "1"
			}
		}
		"nüShadow12"
		{
			"1"
			{
				"name"		"Noto Sans Bold"
				"tall"		"12"
				"antialias" "1"
				"blur"		"1"
			}
		}
		"nü14"
		{
			"1"
			{
				"name"		"Noto Sans Bold"
				"tall"		"14"
				"antialias" "1"
			}
		}
		"nüShadow14"
		{
			"1"
			{
				"name"		"Noto Sans Bold"
				"tall"		"14"
				"antialias" "1"
				"blur"		"1"
			}
		}
		"nü16"
		{
			"1"
			{
				"name"		"Noto Sans Bold"
				"tall"		"16"
				"antialias" "1"
			}
		}
		"nüShadow16"
		{
			"1"
			{
				"name"		"Noto Sans Bold"
				"tall"		"16"
				"antialias" "1"
				"blur"		"1"
			}
		}
		"nü18"
		{
			"1"
			{
				"name"		"Noto Sans Bold"
				"tall"		"18"
				"antialias" "1"
			}
		}
		"nüShadow18"
		{
			"1"
			{
				"name"		"Noto Sans Bold"
				"tall"		"18"
				"antialias" "1"
				"blur"		"1"
			}
		}
		"nü20"
		{
			"1"
			{
				"name"		"Noto Sans Bold"
				"tall"		"20"
				"antialias" "1"
			}
		}
		"nüShadow20"
		{
			"1"
			{
				"name"		"Noto Sans Bold"
				"tall"		"20"
				"antialias" "1"
				"blur"		"1"
			}
		}
		"nü22"
		{
			"1"
			{
				"name"		"Noto Sans Bold"
				"tall"		"22"
				"antialias" "1"
			}
		}
		"nüShadow22"
		{
			"1"
			{
				"name"		"Noto Sans Bold"
				"tall"		"22"
				"antialias" "1"
				"blur"		"1"
			}
		}
		"nü24"
		{
			"1"
			{
				"name"		"Noto Sans Bold"
				"tall"		"24"
				"antialias" "1"
			}
		}
		"nüShadow24"
		{
			"1"
			{
				"name"		"Noto Sans Bold"
				"tall"		"24"
				"antialias" "1"
				"blur"		"1"
			}
		}
		"nü26"
		{
			"1"
			{
				"name"		"Noto Sans Bold"
				"tall"		"26"
				"antialias" "1"
			}
		}
		"nüShadow26"
		{
			"1"
			{
				"name"		"Noto Sans Bold"
				"tall"		"26"
				"antialias" "1"
				"blur"		"1"
			}
		}
		"nü28"
		{
			"1"
			{
				"name"		"Noto Sans Bold"
				"tall"		"28"
				"antialias" "1"
			}
		}
		"nüShadow28"
		{
			"1"
			{
				"name"		"Noto Sans Bold"
				"tall"		"28"
				"antialias" "1"
				"blur"		"1"
			}
		}
		"nü30"
		{
			"1"
			{
				"name"		"Noto Sans Bold"
				"tall"		"30"
				"antialias" "1"
			}
		}
		"nüShadow30"
		{
			"1"
			{
				"name"		"Noto Sans Bold"
				"tall"		"30"
				"antialias" "1"
				"blur"		"1"
			}
		}
		"nü32"
		{
			"1"
			{
				"name"		"Noto Sans Bold"
				"tall"		"32"
				"antialias" "1"
			}
		}
		"nüShadow32"
		{
			"1"
			{
				"name"		"Noto Sans Bold"
				"tall"		"32"
				"antialias" "1"
				"blur"		"1"
			}
		}
		"nü34"
		{
			"1"
			{
				"name"		"Noto Sans Bold"
				"tall"		"34"
				"antialias" "1"
			}
		}
		"nüShadow34"
		{
			"1"
			{
				"name"		"Noto Sans Bold"
				"tall"		"34"
				"antialias" "1"
				"blur"		"1"
			}
		}
		"nü36"
		{
			"1"
			{
				"name"		"Noto Sans Bold"
				"tall"		"36"
				"antialias" "1"
			}
		}
		"nüShadow36"
		{
			"1"
			{
				"name"		"Noto Sans Bold"
				"tall"		"36"
				"antialias" "1"
				"blur"		"1"
			}
		}
		"nü38"
		{
			"1"
			{
				"name"		"Noto Sans Bold"
				"tall"		"38"
				"antialias" "1"
			}
		}
		"nüShadow38"
		{
			"1"
			{
				"name"		"Noto Sans Bold"
				"tall"		"38"
				"antialias" "1"
				"blur"		"1"
			}
		}
		"nü40"
		{
			"1"
			{
				"name"		"Noto Sans Bold"
				"tall"		"40"
				"antialias" "1"
			}
		}
		"nüShadow40"
		{
			"1"
			{
				"name"		"Noto Sans Bold"
				"tall"		"40"
				"antialias" "1"
				"blur"		"1"
			}
		}
		"nü42"
		{
			"1"
			{
				"name"		"Noto Sans Bold"
				"tall"		"42"
				"antialias" "1"
			}
		}
		"nüShadow42"
		{
			"1"
			{
				"name"		"Noto Sans Bold"
				"tall"		"42"
				"antialias" "1"
				"blur"		"1"
			}
		}
		"nü44"
		{
			"1"
			{
				"name"		"Noto Sans Bold"
				"tall"		"44"
				"antialias" "1"
			}
		}
		"nüShadow44"
		{
			"1"
			{
				"name"		"Noto Sans Bold"
				"tall"		"44"
				"antialias" "1"
				"blur"		"1"
			}
		}
		"nü46"
		{
			"1"
			{
				"name"		"Noto Sans Bold"
				"tall"		"46"
				"antialias" "1"
			}
		}
		"nüShadow46"
		{
			"1"
			{
				"name"		"Noto Sans Bold"
				"tall"		"46"
				"antialias" "1"
				"blur"		"1"
			}
		}
		"nü48"
		{
			"1"
			{
				"name"		"Noto Sans Bold"
				"tall"		"48"
				"antialias" "1"
			}
		}
		"nüShadow48"
		{
			"1"
			{
				"name"		"Noto Sans Bold"
				"tall"		"48"
				"antialias" "1"
				"blur"		"1"
			}
		}
		"nü50"
		{
			"1"
			{
				"name"		"Noto Sans Bold"
				"tall"		"50"
				"antialias" "1"
			}
		}
		"nüShadow50"
		{
			"1"
			{
				"name"		"Noto Sans Bold"
				"tall"		"50"
				"antialias" "1"
				"blur"		"1"
			}
		}
		"nü52"
		{
			"1"
			{
				"name"		"Noto Sans Bold"
				"tall"		"52"
				"antialias" "1"
			}
		}
		"nüShadow52"
		{
			"1"
			{
				"name"		"Noto Sans Bold"
				"tall"		"52"
				"antialias" "1"
				"blur"		"1"
			}
		}
		"nü54"
		{
			"1"
			{
				"name"		"Noto Sans Bold"
				"tall"		"54"
				"antialias" "1"
			}
		}
		"nüShadow54"
		{
			"1"
			{
				"name"		"Noto Sans Bold"
				"tall"		"54"
				"antialias" "1"
				"blur"		"1"
			}
		}
		"nü56"
		{
			"1"
			{
				"name"		"Noto Sans Bold"
				"tall"		"56"
				"antialias" "1"
			}
		}
		"nüShadow56"
		{
			"1"
			{
				"name"		"Noto Sans Bold"
				"tall"		"56"
				"antialias" "1"
				"blur"		"1"
			}
		}
		"nü58"
		{
			"1"
			{
				"name"		"Noto Sans Bold"
				"tall"		"58"
				"antialias" "1"
			}
		}
		"nüShadow58"
		{
			"1"
			{
				"name"		"Noto Sans Bold"
				"tall"		"58"
				"antialias" "1"
				"blur"		"1"
			}
		}
		"nü60"
		{
			"1"
			{
				"name"		"Noto Sans Bold"
				"tall"		"60"
				"antialias" "1"
			}
		}
		"nüShadow60"
		{
			"1"
			{
				"name"		"Noto Sans Bold"
				"tall"		"60"
				"antialias" "1"
				"blur"		"1"
			}
		}
		
		"nüMedium8"
		{
			"1"
			{
				"name"		"Noto Sans Bold"
				"tall"		"8"
				"antialias" "1"
			}
		}
		"nüMediumShadow8"
		{
			"1"
			{
				"name"		"Noto Sans Bold"
				"tall"		"8"
				"antialias" "1"
				"blur"		"1"
			}
		}
		"nüMedium10"
		{
			"1"
			{
				"name"		"Noto Sans Bold"
				"tall"		"10"
				"antialias" "1"
			}
		}
		"nüMediumShadow10"
		{
			"1"
			{
				"name"		"Noto Sans Bold"
				"tall"		"10"
				"antialias" "1"
				"blur"		"1"
			}
		}
		"nüMedium11"
		{
			"1"
			{
				"name"		"Noto Sans Bold"
				"tall"		"11"
				"antialias" "1"
			}
		}
		"nüMediumShadow11"
		{
			"1"
			{
				"name"		"Noto Sans Bold"
				"tall"		"11"
				"antialias" "1"
				"blur"		"1"
			}
		}
		"nüMedium12"
		{
			"1"
			{
				"name"		"Noto Sans Bold"
				"tall"		"12"
				"antialias" "1"
			}
		}
		"nüMediumShadow12"
		{
			"1"
			{
				"name"		"Noto Sans Bold"
				"tall"		"12"
				"antialias" "1"
				"blur"		"1"
			}
		}
		"nüMedium14"
		{
			"1"
			{
				"name"		"Noto Sans Bold"
				"tall"		"14"
				"antialias" "1"
			}
		}
		"nüMediumShadow14"
		{
			"1"
			{
				"name"		"Noto Sans Bold"
				"tall"		"14"
				"antialias" "1"
				"blur"		"1"
			}
		}
		"nüMedium16"
		{
			"1"
			{
				"name"		"Noto Sans Bold"
				"tall"		"16"
				"antialias" "1"
			}
		}
		"nüMediumShadow16"
		{
			"1"
			{
				"name"		"Noto Sans Bold"
				"tall"		"16"
				"antialias" "1"
				"blur"		"1"
			}
		}
		"nüMedium18"
		{
			"1"
			{
				"name"		"Noto Sans Bold"
				"tall"		"18"
				"antialias" "1"
			}
		}
		"nüMediumShadow18"
		{
			"1"
			{
				"name"		"Noto Sans Bold"
				"tall"		"18"
				"antialias" "1"
				"blur"		"1"
			}
		}
		"nüMedium20"
		{
			"1"
			{
				"name"		"Noto Sans Bold"
				"tall"		"20"
				"antialias" "1"
			}
		}
		"nüMediumShadow20"
		{
			"1"
			{
				"name"		"Noto Sans Bold"
				"tall"		"20"
				"antialias" "1"
				"blur"		"1"
			}
		}
		"nüMedium22"
		{
			"1"
			{
				"name"		"Noto Sans Bold"
				"tall"		"22"
				"antialias" "1"
			}
		}
		"nüMediumShadow22"
		{
			"1"
			{
				"name"		"Noto Sans Bold"
				"tall"		"22"
				"antialias" "1"
				"blur"		"1"
			}
		}
		"nüMedium24"
		{
			"1"
			{
				"name"		"Noto Sans Bold"
				"tall"		"24"
				"antialias" "1"
			}
		}
		"nüMediumShadow24"
		{
			"1"
			{
				"name"		"Noto Sans Bold"
				"tall"		"24"
				"antialias" "1"
				"blur"		"1"
			}
		}
		"nüMedium26"
		{
			"1"
			{
				"name"		"Noto Sans Bold"
				"tall"		"26"
				"antialias" "1"
			}
		}
		"nüMediumShadow26"
		{
			"1"
			{
				"name"		"Noto Sans Bold"
				"tall"		"26"
				"antialias" "1"
				"blur"		"1"
			}
		}
		"nüMedium28"
		{
			"1"
			{
				"name"		"Noto Sans Bold"
				"tall"		"28"
				"antialias" "1"
			}
		}
		"nüMediumShadow28"
		{
			"1"
			{
				"name"		"Noto Sans Bold"
				"tall"		"28"
				"antialias" "1"
				"blur"		"1"
			}
		}
		"nüMedium30"
		{
			"1"
			{
				"name"		"Noto Sans Bold"
				"tall"		"30"
				"antialias" "1"
			}
		}
		"nüMediumShadow30"
		{
			"1"
			{
				"name"		"Noto Sans Bold"
				"tall"		"30"
				"antialias" "1"
				"blur"		"1"
			}
		}
		"nüMedium32"
		{
			"1"
			{
				"name"		"Noto Sans Bold"
				"tall"		"32"
				"antialias" "1"
			}
		}
		"nüMediumShadow32"
		{
			"1"
			{
				"name"		"Noto Sans Bold"
				"tall"		"32"
				"antialias" "1"
				"blur"		"1"
			}
		}
		"nüMedium34"
		{
			"1"
			{
				"name"		"Noto Sans Bold"
				"tall"		"34"
				"antialias" "1"
			}
		}
		"nüMediumShadow34"
		{
			"1"
			{
				"name"		"Noto Sans Bold"
				"tall"		"34"
				"antialias" "1"
				"blur"		"1"
			}
		}
		"nüMedium36"
		{
			"1"
			{
				"name"		"Noto Sans Bold"
				"tall"		"36"
				"antialias" "1"
			}
		}
		"nüMediumShadow36"
		{
			"1"
			{
				"name"		"Noto Sans Bold"
				"tall"		"36"
				"antialias" "1"
				"blur"		"1"
			}
		}
		"nüMedium38"
		{
			"1"
			{
				"name"		"Noto Sans Bold"
				"tall"		"38"
				"antialias" "1"
			}
		}
		"nüMediumShadow38"
		{
			"1"
			{
				"name"		"Noto Sans Bold"
				"tall"		"38"
				"antialias" "1"
				"blur"		"1"
			}
		}
		"nüMedium40"
		{
			"1"
			{
				"name"		"Noto Sans Bold"
				"tall"		"40"
				"antialias" "1"
			}
		}
		"nüMediumShadow40"
		{
			"1"
			{
				"name"		"Noto Sans Bold"
				"tall"		"40"
				"antialias" "1"
				"blur"		"1"
			}
		}
		"nüMedium42"
		{
			"1"
			{
				"name"		"Noto Sans Bold"
				"tall"		"42"
				"antialias" "1"
			}
		}
		"nüMediumShadow42"
		{
			"1"
			{
				"name"		"Noto Sans Bold"
				"tall"		"42"
				"antialias" "1"
				"blur"		"1"
			}
		}
		"nüMedium44"
		{
			"1"
			{
				"name"		"Noto Sans Bold"
				"tall"		"44"
				"antialias" "1"
			}
		}
		"nüMediumShadow44"
		{
			"1"
			{
				"name"		"Noto Sans Bold"
				"tall"		"44"
				"antialias" "1"
				"blur"		"1"
			}
		}
		"nüMedium46"
		{
			"1"
			{
				"name"		"Noto Sans Bold"
				"tall"		"46"
				"antialias" "1"
			}
		}
		"nüMediumShadow46"
		{
			"1"
			{
				"name"		"Noto Sans Bold"
				"tall"		"46"
				"antialias" "1"
				"blur"		"1"
			}
		}
		"nüMedium48"
		{
			"1"
			{
				"name"		"Noto Sans Bold"
				"tall"		"48"
				"antialias" "1"
			}
		}
		"nüMediumShadow48"
		{
			"1"
			{
				"name"		"Noto Sans Bold"
				"tall"		"48"
				"antialias" "1"
				"blur"		"1"
			}
		}
		"nüMedium50"
		{
			"1"
			{
				"name"		"Noto Sans Bold"
				"tall"		"50"
				"antialias" "1"
			}
		}
		"nüMediumShadow50"
		{
			"1"
			{
				"name"		"Noto Sans Bold"
				"tall"		"50"
				"antialias" "1"
				"blur"		"1"
			}
		}
		"nüMedium52"
		{
			"1"
			{
				"name"		"Noto Sans Bold"
				"tall"		"52"
				"antialias" "1"
			}
		}
		"nüMediumShadow52"
		{
			"1"
			{
				"name"		"Noto Sans Bold"
				"tall"		"52"
				"antialias" "1"
				"blur"		"1"
			}
		}
		"nüMedium54"
		{
			"1"
			{
				"name"		"Noto Sans Bold"
				"tall"		"54"
				"antialias" "1"
			}
		}
		"nüMediumShadow54"
		{
			"1"
			{
				"name"		"Noto Sans Bold"
				"tall"		"54"
				"antialias" "1"
				"blur"		"1"
			}
		}
		"nüMedium56"
		{
			"1"
			{
				"name"		"Noto Sans Bold"
				"tall"		"56"
				"antialias" "1"
			}
		}
		"nüMediumShadow56"
		{
			"1"
			{
				"name"		"Noto Sans Bold"
				"tall"		"56"
				"antialias" "1"
				"blur"		"1"
			}
		}
		"nüMedium58"
		{
			"1"
			{
				"name"		"Noto Sans Bold"
				"tall"		"58"
				"antialias" "1"
			}
		}
		"nüMediumShadow58"
		{
			"1"
			{
				"name"		"Noto Sans Bold"
				"tall"		"58"
				"antialias" "1"
				"blur"		"1"
			}
		}
		"nüMedium60"
		{
			"1"
			{
				"name"		"Noto Sans Bold"
				"tall"		"60"
				"antialias" "1"
			}
		}
		"nüMediumShadow60"
		{
			"1"
			{
				"name"		"Noto Sans Bold"
				"tall"		"60"
				"antialias" "1"
				"blur"		"1"
			}
		}
		
		"nüBold8"
		{
			"1"
			{
				"name"		"Noto Sans Bold"
				"tall"		"8"
				"antialias" "1"
			}
		}
		"nüBoldShadow8"
		{
			"1"
			{
				"name"		"Noto Sans Bold"
				"tall"		"8"
				"antialias" "1"
				"blur"		"1"
			}
		}
		"nüBold10"
		{
			"1"
			{
				"name"		"Noto Sans Bold"
				"tall"		"10"
				"antialias" "1"
			}
		}
		"nüBoldShadow10"
		{
			"1"
			{
				"name"		"Noto Sans Bold"
				"tall"		"10"
				"antialias" "1"
				"blur"		"1"
			}
		}
		"nüBold12"
		{
			"1"
			{
				"name"		"Noto Sans Bold"
				"tall"		"12"
				"antialias" "1"
			}
		}
		"nüBoldShadow12"
		{
			"1"
			{
				"name"		"Noto Sans Bold"
				"tall"		"12"
				"antialias" "1"
				"blur"		"1"
			}
		}
		"nüBold14"
		{
			"1"
			{
				"name"		"Noto Sans Bold"
				"tall"		"14"
				"antialias" "1"
			}
		}
		"nüBoldShadow14"
		{
			"1"
			{
				"name"		"Noto Sans Bold"
				"tall"		"14"
				"antialias" "1"
				"blur"		"1"
			}
		}
		"nüBold16"
		{
			"1"
			{
				"name"		"Noto Sans Bold"
				"tall"		"16"
				"antialias" "1"
			}
		}
		"nüBoldShadow16"
		{
			"1"
			{
				"name"		"Noto Sans Bold"
				"tall"		"16"
				"antialias" "1"
				"blur"		"1"
			}
		}
		"nüBold18"
		{
			"1"
			{
				"name"		"Noto Sans Bold"
				"tall"		"18"
				"antialias" "1"
			}
		}
		"nüBoldShadow18"
		{
			"1"
			{
				"name"		"Noto Sans Bold"
				"tall"		"18"
				"antialias" "1"
				"blur"		"1"
			}
		}
		"nüBold20"
		{
			"1"
			{
				"name"		"Noto Sans Bold"
				"tall"		"20"
				"antialias" "1"
			}
		}
		"nüBoldShadow20"
		{
			"1"
			{
				"name"		"Noto Sans Bold"
				"tall"		"20"
				"antialias" "1"
				"blur"		"1"
			}
		}
		"nüBold22"
		{
			"1"
			{
				"name"		"Noto Sans Bold"
				"tall"		"22"
				"antialias" "1"
			}
		}
		"nüBoldShadow22"
		{
			"1"
			{
				"name"		"Noto Sans Bold"
				"tall"		"22"
				"antialias" "1"
				"blur"		"1"
			}
		}
		"nüBold24"
		{
			"1"
			{
				"name"		"Noto Sans Bold"
				"tall"		"24"
				"antialias" "1"
			}
		}
		"nüBoldShadow24"
		{
			"1"
			{
				"name"		"Noto Sans Bold"
				"tall"		"24"
				"antialias" "1"
				"blur"		"1"
			}
		}
		"nüBold26"
		{
			"1"
			{
				"name"		"Noto Sans Bold"
				"tall"		"26"
				"antialias" "1"
			}
		}
		"nüBoldShadow26"
		{
			"1"
			{
				"name"		"Noto Sans Bold"
				"tall"		"26"
				"antialias" "1"
				"blur"		"1"
			}
		}
		"nüBold28"
		{
			"1"
			{
				"name"		"Noto Sans Bold"
				"tall"		"28"
				"antialias" "1"
			}
		}
		"nüBoldShadow28"
		{
			"1"
			{
				"name"		"Noto Sans Bold"
				"tall"		"28"
				"antialias" "1"
				"blur"		"1"
			}
		}
		"nüBold30"
		{
			"1"
			{
				"name"		"Noto Sans Bold"
				"tall"		"30"
				"antialias" "1"
			}
		}
		"nüBoldShadow30"
		{
			"1"
			{
				"name"		"Noto Sans Bold"
				"tall"		"30"
				"antialias" "1"
				"blur"		"1"
			}
		}
		"nüBold32"
		{
			"1"
			{
				"name"		"Noto Sans Bold"
				"tall"		"32"
				"antialias" "1"
			}
		}
		"nüBoldShadow32"
		{
			"1"
			{
				"name"		"Noto Sans Bold"
				"tall"		"32"
				"antialias" "1"
				"blur"		"1"
			}
		}
		"nüBold34"
		{
			"1"
			{
				"name"		"Noto Sans Bold"
				"tall"		"34"
				"antialias" "1"
			}
		}
		"nüBoldShadow34"
		{
			"1"
			{
				"name"		"Noto Sans Bold"
				"tall"		"34"
				"antialias" "1"
				"blur"		"1"
			}
		}
		"nüBold36"
		{
			"1"
			{
				"name"		"Noto Sans Bold"
				"tall"		"36"
				"antialias" "1"
			}
		}
		"nüBoldShadow36"
		{
			"1"
			{
				"name"		"Noto Sans Bold"
				"tall"		"36"
				"antialias" "1"
				"blur"		"1"
			}
		}
		"nüBold38"
		{
			"1"
			{
				"name"		"Noto Sans Bold"
				"tall"		"38"
				"antialias" "1"
			}
		}
		"nüBoldShadow38"
		{
			"1"
			{
				"name"		"Noto Sans Bold"
				"tall"		"38"
				"antialias" "1"
				"blur"		"1"
			}
		}
		"nüBold40"
		{
			"1"
			{
				"name"		"Noto Sans Bold"
				"tall"		"40"
				"antialias" "1"
			}
		}
		"nüBoldShadow40"
		{
			"1"
			{
				"name"		"Noto Sans Bold"
				"tall"		"40"
				"antialias" "1"
				"blur"		"1"
			}
		}
		"nüBold42"
		{
			"1"
			{
				"name"		"Noto Sans Bold"
				"tall"		"42"
				"antialias" "1"
			}
		}
		"nüBoldShadow42"
		{
			"1"
			{
				"name"		"Noto Sans Bold"
				"tall"		"42"
				"antialias" "1"
				"blur"		"1"
			}
		}
		"nüBold44"
		{
			"1"
			{
				"name"		"Noto Sans Bold"
				"tall"		"44"
				"antialias" "1"
			}
		}
		"nüBoldShadow44"
		{
			"1"
			{
				"name"		"Noto Sans Bold"
				"tall"		"44"
				"antialias" "1"
				"blur"		"1"
			}
		}
		"nüBold46"
		{
			"1"
			{
				"name"		"Noto Sans Bold"
				"tall"		"46"
				"antialias" "1"
			}
		}
		"nüBoldShadow46"
		{
			"1"
			{
				"name"		"Noto Sans Bold"
				"tall"		"46"
				"antialias" "1"
				"blur"		"1"
			}
		}
		"nüBold48"
		{
			"1"
			{
				"name"		"Noto Sans Bold"
				"tall"		"48"
				"antialias" "1"
			}
		}
		"nüBoldShadow48"
		{
			"1"
			{
				"name"		"Noto Sans Bold"
				"tall"		"48"
				"antialias" "1"
				"blur"		"1"
			}
		}
		"nüBold50"
		{
			"1"
			{
				"name"		"Noto Sans Bold"
				"tall"		"50"
				"antialias" "1"
			}
		}
		"nüBoldShadow50"
		{
			"1"
			{
				"name"		"Noto Sans Bold"
				"tall"		"50"
				"antialias" "1"
				"blur"		"1"
			}
		}
		"nüBold52"
		{
			"1"
			{
				"name"		"Noto Sans Bold"
				"tall"		"52"
				"antialias" "1"
			}
		}
		"nüBoldShadow52"
		{
			"1"
			{
				"name"		"Noto Sans Bold"
				"tall"		"52"
				"antialias" "1"
				"blur"		"1"
			}
		}
		"nüBold54"
		{
			"1"
			{
				"name"		"Noto Sans Bold"
				"tall"		"54"
				"antialias" "1"
			}
		}
		"nüBoldShadow54"
		{
			"1"
			{
				"name"		"Noto Sans Bold"
				"tall"		"54"
				"antialias" "1"
				"blur"		"1"
			}
		}
		"nüBold56"
		{
			"1"
			{
				"name"		"Noto Sans Bold"
				"tall"		"56"
				"antialias" "1"
			}
		}
		"nüBoldShadow56"
		{
			"1"
			{
				"name"		"Noto Sans Bold"
				"tall"		"56"
				"antialias" "1"
				"blur"		"1"
			}
		}
		"nüBold58"
		{
			"1"
			{
				"name"		"Noto Sans Bold"
				"tall"		"58"
				"antialias" "1"
			}
		}
		"nüBoldShadow58"
		{
			"1"
			{
				"name"		"Noto Sans Bold"
				"tall"		"58"
				"antialias" "1"
				"blur"		"1"
			}
		}
		"nüBold60"
		{
			"1"
			{
				"name"		"Noto Sans Bold"
				"tall"		"60"
				"antialias" "1"
			}
		}
		"nüBoldShadow60"
		{
			"1"
			{
				"name"		"Noto Sans Bold"
				"tall"		"60"
				"antialias" "1"
				"blur"		"1"
			}
		}
		
		"Default"
		{
			"1"
			{
				"name"		"Noto Sans Bold"
				"tall"		"10"
				"antialias" "1"
			}
			"2"
			{
				"name"		"Arial"
				"tall"		"12"
				"range" 	"0x0000 0x00FF"
				"weight"	"800"
			}
		}
		"DefaultUnderline"
		{
			"1"
			{
				"name"		"Noto Sans Bold"
				"tall"		"12"
				"underline" "1"
				"antialias" "1"
			}
			"2"
			{
				"name"		"Tahoma"
				"tall"		"12"
				"weight"	"500"
				"underline" "1"
				"range"		"0x0000 0x017F" //	Basic Latin, Latin-1 Supplement, Latin Extended-A
			}
		}
		"DefaultSmall"
		{
			"1"
			{
				"name"		"Noto Sans Bold"
				"tall"		"12"
				"range"		"0x0000 0x017F"
				"yres"	"480 599"
				"antialias" "1"
			}
			"2"
			{
				"name"		"Noto Sans Bold"
				"tall"		"13"
				"range"		"0x0000 0x017F"
				"yres"	"600 767"
				"antialias" "1"
			}
			"3"
			{
				"name"		"Noto Sans Bold"
				"tall"		"14"
				"range"		"0x0000 0x017F"
				"yres"	"768 1023"
				"antialias"	"1"
			}
			"4"
			{
				"name"		"Noto Sans Bold"
				"tall"		"20"
				"range"		"0x0000 0x017F"
				"yres"	"1024 1199"
				"antialias"	"1"
			}
			"5"
			{
				"name"		"Noto Sans Bold"
				"tall"		"22"
				"range"		"0x0000 0x017F"
				"yres"	"1200 6000"
				"antialias"	"1"
			}
		}


		"DefaultVerySmall"
		{
			"1"
			{
				"name"		"Verdana"
				"tall"		"12"
				"range"		"0x0000 0x017F" //	Basic Latin, Latin-1 Supplement, Latin Extended-A
				"yres"	"480 599"
				"antialias" "1"
			}
			"2"
			{
				"name"		"Verdana"
				"tall"		"12"
				"range"		"0x0000 0x017F" //	Basic Latin, Latin-1 Supplement, Latin Extended-A
				"yres"	"600 767"
				"antialias" "1"
			}
			"3"
			{
				"name"		"Verdana"
				"tall"		"12"
				"range"		"0x0000 0x017F" //	Basic Latin, Latin-1 Supplement, Latin Extended-A
				"yres"	"768 1023"
				"antialias"	"1"
			}
			"4"
			{
				"name"		"Verdana"
				"tall"		"14"
				"range"		"0x0000 0x017F" //	Basic Latin, Latin-1 Supplement, Latin Extended-A
				"yres"	"1024 1199"
				"antialias"	"1"
			}
			"5"
			{
				"name"		"Verdana"
				"tall"		"16"
				"range"		"0x0000 0x017F" //	Basic Latin, Latin-1 Supplement, Latin Extended-A
				"yres"	"1200 6000"
				"antialias"	"1"
			}
		}
		DefaultLarge
		{
			"1"
			{
				"name"		"Noto Sans Bold"
				"tall"		"18"
				"range"		"0x0000 0x017F" //	Basic Latin, Latin-1 Supplement, Latin Extended-A
				"yres"		"480 599"
				"antialias" "1"
			}
			"2"
			{
				"name"		"Noto Sans Bold"
				"tall"		"21"
				"range"		"0x0000 0x017F" //	Basic Latin, Latin-1 Supplement, Latin Extended-A
				"yres"		"600 767"
				"antialias" "1"
			}
			"3"
			{
				"name"		"Noto Sans Bold"
				"tall"		"22"
				"range"		"0x0000 0x017F" //	Basic Latin, Latin-1 Supplement, Latin Extended-A
				"yres"		"768 1023"
				"antialias"	"1"
			}
			"4"
			{
				"name"		"Noto Sans Bold"
				"tall"		"28"
				"range"		"0x0000 0x017F" //	Basic Latin, Latin-1 Supplement, Latin Extended-A
				"yres"		"1024 1199"
				"antialias"	"1"
			}
			"5"
			{
				"name"		"Noto Sans Bold"
				"tall"		"30"
				"range"		"0x0000 0x017F" //	Basic Latin, Latin-1 Supplement, Latin Extended-A
				"yres"	"1200 6000"
				"antialias"	"1"
			}
		}
		CenterPrintText
		{
			// note that this scales with the screen resolution
			"1"
			{
				"name"		"Trebuchet MS" [!$OSX]
				"name"		"Helvetica" [$OSX]
				"tall"		"18"
				"weight"	"900"
				"antialias" "1"
				"additive"	"1"
			}
		}

		"PlayerPanelPlayerName"
		{
			"1"
			{
				"name"		"Verdana"
				"tall"		"6"
				"weight"	"500"
				"additive"	"0"
				"antialias" "1"
			}
		}
		HudHintText
		{
			"1"
			{
				"name"		"Verdana"
				"tall"		"12"
				"weight"	"700"
				"yres"	"480 599"
			}
			"2"
			{
				"name"		"Verdana"
				"tall"		"13"	[$WIN32]
				"tall"		"23"	[$X360]
				"weight"	"700"
				"yres"	"600 767"
			}
			"3"
			{
				"name"		"Verdana"
				"tall"		"14"
				"weight"	"700"
				"yres"	"768 1023"
			}
			"4"
			{
				"name"		"Verdana"
				"tall"		"20"
				"weight"	"700"
				"yres"	"1024 1199"
			}
			"5"
			{
				"name"		"Verdana"
				"tall"		"24"
				"weight"	"700"
				"yres"	"1200 10000"
			}
		}
		"HudFontGiant"
		{
			"1"
			{
				"name"		"Noto Sans Bold"
				"tall"		"24"
				"tall_lodef"	"80"
				"weight"	"500"
				"additive"	"0"
				"antialias" "1"
				"yres"		"480 599"
			}
			"2"
			{
				"name"		"Noto Sans Bold"
				"tall"		"32"
				"tall_hidef"	"120"
				"weight"	"500"
				"additive"	"0"
				"antialias" "1"
				"yres"		"600 767"
			}
			"3"
			{
				"name"		"Noto Sans Bold"
				"tall"		"44"
				"weight"	"500"
				"additive"	"0"
				"antialias" "1"
				"yres"		"768 1023"
			}
			"4"
			{
				"name"		"Noto Sans Bold"
				"tall"		"48"
				"weight"	"500"
				"additive"	"0"
				"antialias" "1"
				"yres"		"1024 1199"
			}
			"5"
			{
				"name"		"Noto Sans Bold"
				"tall"		"52"
				"weight"	"500"
				"additive"	"0"
				"antialias" "1"
				"yres"		"1200 10000"
			}
		}
		"HudFontGiantBold"
		{
			"1"
			{
				"name"		"Noto Sans Bold"
				"tall"		"44"
				"tall_lodef"	"52"
				"weight"	"500"
				"additive"	"0"
				"antialias" "1"
			}
		}

		"HudFontBiggerBold"
		{
			"1"
			{
				"name"		"Noto Sans Bold"
				"tall"		"35"
				"tall_lodef"	"40"
				"weight"	"500"
				"additive"	"0"
				"antialias" "1"
			}
		}

		"HudFontBig"
		{
			"1"
			{
				"name"		"Noto Sans Bold"
				"tall"		"36"
				"tall_hidef"	"48"
				"weight"	"500"
				"additive"	"0"
				"antialias" "1"
			}
		}
		"HudFontMediumBig"
		{
			"1"
			{
				"name"		"Noto Sans Bold"
				"tall"		"30"
				"weight"	"500"
				"additive"	"0"
				"antialias" "1"
			}
		}	
		"HudFontMediumBigBold"
		{
			"1"
			{
				"name"		"Noto Sans Bold"
				"tall"		"30"
				"weight"	"500"
				"additive"	"0"
				"antialias" "1"
			}
		}		
		"HudFontMedium"
		{
			"1"
			{
				"name"		"Noto Sans Bold"
				"tall"		"24"
				"tall_lodef"		"28"
				"weight"	"500"
				"additive"	"0"
				"antialias" "1"
			}
		}
		"HudFontMediumSecondary"
		{
			"1"
			{
				"name"		"Noto Sans Bold"
				"tall"		"24"
				"weight"	"500"
				"additive"	"0"
				"antialias" "1"
			}
		}
		"HudFontMediumBold"
		{
			"1"
			{
				"name"		"Noto Sans Bold"
				"tall"		"24"
				"weight"	"500"
				"additive"	"0"
				"antialias" "1"
			}
		}
		"HudFontMediumSmallBold"
		{
			"1"
			{
				"name"		"Noto Sans Bold"
				"tall"		"18"
				"weight"	"500"
				"additive"	"0"
				"antialias" "1"
			}
		}
		"HudFontMediumSmall"
		{
			"1"
			{
				"name"		"Noto Sans Bold"
				"tall"		"18"
				"tall_hidef"	"24"
				"tall_lodef"	"18"
				"weight"	"500"
				"additive"	"0"
				"antialias" "1"
			}
		}
		"HudFontMediumSmallSecondary"
		{
			"1"
			{
				"name"		"Noto Sans Bold"
				"tall"		"18"
				"tall_hidef"	"24"
				"tall_lodef"	"20"
				"weight"	"500"
				"additive"	"0"
				"antialias" "1"
			}
		}
		"HudFontSmall"
		{
			"1"
			{
				"name"		"Noto Sans Bold"
				"tall"		"14"
				"tall_lodef"	"16"
				"weight"	"500"
				"additive"	"0"
				"antialias" 	"1"
			}
		}	
		"HudFontSmallishBold"
		{
			"1"
			{
				"name"		"Noto Sans Bold"
				"tall"		"16"
				"weight"	"500"
				"additive"	"0"
				"antialias" "1"
			}
		}
		"HudFontSmallBold"
		{
			"1"
			{
				"name"		"Noto Sans Bold"
				"tall"		"14"
				"weight"	"500"
				"additive"	"0"
				"antialias" "1"
			}
		}
		"HudFontSmallBoldShadow"
		{
			"1"
			{
				"name"		"Noto Sans Bold"
				"tall"		"14"
				"weight"	"500"
				"additive"	"0"
				"antialias" "1"
				"dropshadow"	"1"
			}
		}
		"HudFontSmallest"
		{
			"1"
			{
				"name"		"Noto Sans Bold"
				"tall"		"11"
				"weight"	"500"
				"additive"	"0"
				"antialias" 	"1"
			}
		}
		"HudFontSmallestShadow"
		{
			"1"
			{
				"name"		"Noto Sans Bold"
				"tall"		"11"
				"weight"	"500"
				"additive"	"0"
				"antialias" 	"1"
				"dropshadow"	"1"
			}
		}
		"HudFontSmallestBold"
		{
			"1"
			{
				"name"		"Noto Sans Bold"
				"tall"		"11"
				"weight"	"500"
				"additive"	"0"
				"antialias" "1"
			}
		}
		"PerformanceModeSmall"
		{
			"1"
			{
				"name"		"Noto Sans Bold"
				"tall"		"4"
				"weight"	"500"
				"additive"	"0"
				"antialias" "1"
			}
		}
		"StorePromotionsTitle"
		{
			"1"
			{
				"name"		"Noto Sans Bold"
				"tall"		"10"
				"weight"	"500"
				"additive"	"0"
				"antialias" "1"
			}
		}
		"FontCartPrice"
		{
			"1"
			{
				"name"		"Noto Sans Bold"
				"tall"		"16"
				"weight"	"500"
				"additive"	"0"
				"antialias" "1"
			}
		}
		"FontStorePrice"
		{
			"1"
			{
				"name"		"Noto Sans Bold"
				"tall"		"9"
				"weight"	"0"
				"additive"	"0"
				"antialias" "1"
			}
		}
		"FontStoreOriginalPrice"
		{
			"1"
			{
				"name"		"Noto Sans Bold"
				"tall"		"9"
				"weight"	"0"
				"additive"	"0"
				"antialias" "1"
			}
		}
		"FontStorePriceSmall"
		{
			"1"
			{
				"name"		"Noto Sans Bold"
				"tall"		"6"
				"weight"	"0"
				"additive"	"0"
				"antialias" "1"
			}
		}
		"FontStorePromotion"
		{
			"1"
			{
				"name"		"Noto Sans Bold"
				"tall"		"12"
				"tall_hidef"	"14"
				"tall_lodef"	"16"
				"weight"	"400"
				"additive"	"0"
				"antialias" "1"
			}
		}
		"TextTooltipFont"
		{
			"1"
			{
				"name"		"Noto Sans Bold"
				"tall"		"11"
				"weight"	"500"
				"additive"	"0"
				"antialias" "1"
			}
		}
		GameUIButtons
		{
			"1"	//[$X360]
			{
				"bitmap"	"1"
				"name"		"Buttons"
				"scalex"	"0.5"
				"scalex_lodef"		"0.75"
				"scaley"	"0.5"
				"scaley_lodef"		"0.75"
			}
		}
		GameUIButtonsSmall
		{
			"1"	[$X360]
			{
				"bitmap"	"1"
				"name"		"Buttons"
				"scalex"	"0.5"
				"scaley"	"0.5"
			}
		}
		GameUIButtonsSmallest
		{
			"1"	[$X360]
			{
				"bitmap"	"1"
				"name"		"Buttons"
				"scalex"	"0.4"
				"scaley"	"0.4"
			}
		}
		"GameUIButtonText"
		{
			"1"
			{
				"name"		"Noto Sans Bold"
				"tall"		"18"
				"tall_hidef"	"24"
				"tall_lodef"	"18"
				"weight"	"500"
				"additive"	"0"
				"antialias" "1"
			}
		}
		"HudClassHealth"
		{
			"1"
			{
				"name"		"Noto Sans Bold"
				"tall"		"16"
				"tall_hidef"	"22"
				"tall_lodef"	"22"
				"weight"	"500"
				"additive"	"0"
				"antialias" "1"
			}
		}
		"SpectatorKeyHints"
		{
			"1"
			{
				"name"		"Verdana"
				"tall"		"8"
				"weight"	"500"
				"additive"	"0"
				"antialias" "1"
			}
		}
		"ClockSubText"
		{
			"1"
			{
				"name"		"Verdana"
				"tall"		"9"
				"weight"	"500"
				"additive"	"0"
				"antialias" "1"
			}
		}
		"ClockSubTextSuddenDeath"
		{
			"1"
			{
				"name"		"Verdana"
				"tall"		"8"
				"tall_hidef"	"9"
				"tall_lodef"	"10"
				"weight"	"500"
				"additive"	"0"
				"antialias" "1"
			}
		}
		"ClockSubTextTiny"
		{
			"1"
			{
				"name"		"Verdana"
				"tall"		"8"
				"tall_hidef"	"7"
				"weight"	"500"
				"additive"	"0"
				"antialias" "1"
			}
		}
		"HudSelectionText"
		{
			"1"
			{
				"name"		"Noto Sans Bold"
				"tall"		"15"
				"weight"	"700"
				"antialias" 	"1"
				"yres"		"1 599"
				"range"		"0x0000 0x017F" //	Basic Latin, Latin-1 Supplement, Latin Extended-A
				"additive"	"1"
			}
			"2"
			{
				"name"		"Noto Sans Bold"
				"tall"		"15"	[$WIN32]
				"tall"		"21"	[$X360]
				"weight"	"700"
				"antialias" 	"1"
				"yres"		"600 767"
				"range"		"0x0000 0x017F" //	Basic Latin, Latin-1 Supplement, Latin Extended-A
				"additive"	"1"
			}
			"3"
			{
				"name"		"Noto Sans Bold"
				"tall"		"18"
				"weight"	"900"
				"antialias" 	"1"
				"yres"		"768 1023"
				"range"		"0x0000 0x017F" //	Basic Latin, Latin-1 Supplement, Latin Extended-A
			}
			"4"
			{
				"name"		"Noto Sans Bold"
				"tall"		"21"
				"weight"	"900"
				"antialias" 	"1"
				"yres"		"1024 1199"
				"range"		"0x0000 0x017F" //	Basic Latin, Latin-1 Supplement, Latin Extended-A
			}
			"5"
			{
				"name"		"Noto Sans Bold"
				"tall"		"24"
				"weight"	"1000"
				"antialias" 	"1"
				"yres"		"1200 10000"
				"range"		"0x0000 0x017F" //	Basic Latin, Latin-1 Supplement, Latin Extended-A
			}
		}
		DebugOverlay
		{
			"1"	[$WIN32]
			{
				"name"		"Courier New"
				"tall"		"14"
				"weight"	"400"
				"outline"	"1"
				"range"		"0x0000 0x017F" // Basic Latin, Latin-1 Supplement, Latin Extended-A
			}
			"1"	[$X360]
			{
				"name"		"Tahoma"
				"tall"		"18"
				"weight"	"200"
				"outline"	"1"
			}
		}		
		TFTypeDeath
		{
			"1"
			{
				"name"  	"tfd" // tfd.ttf
				"tall"  	"28"
				"weight" 	"0"
				"additive" 	"0"
				"antialias" 	"1"
			}
		}
		
		Icons
		{
			"1"
			 {
				"name"  	"Team Fortress" // tf.ttf
				"tall"  	"28"
				"weight" 	"0"
				"additive" 	"1"
				"antialias" 	"1"
			}
		}
		"BetaFont"
		{
			"1"
			{
				"name"		"Courier New"
				"tall"		"90"
				"weight"	"900"
				"range"		"0x0000 0x007F"	//	Basic Latin
				"antialias" "1"
				"additive"	"0"
			}
		}

		HudNumbers
		{
			"1"
			{
				"name"  "Team Fortress" // tf.ttf
				"tall"  "28"
				"weight" "0"
				"additive" "1"
				"antialias" "1"
			}
			"2"
			{
				"name"  "Verdana"
				"tall"  "28"
				"weight" "0"
				"additive" "1"
				"antialias" "1"
			}
		}
		"CloseCaption_Normal"
		{
			"1"
			{
				"name"		"Tahoma"
				"tall"		"24"
				"tall_hidef"	"32"
				"weight"	"500"
				"range"		"0x0000 0x017F" //	Basic Latin, Latin-1 Supplement, Latin Extended-A
			}
		}
		"CloseCaption_Italic"
		{
			"1"
			{
				"name"		"Tahoma"
				"tall"		"24"
				"tall_hidef"	"32"
				"weight"	"500"
				"italic"	"1"
				"range"		"0x0000 0x017F" //	Basic Latin, Latin-1 Supplement, Latin Extended-A
			}
		}
		"CloseCaption_Bold"
		{
			"1"
			{
				"name"		"Tahoma"
				"tall"		"24"
				"tall_hidef"	"32"
				"weight"	"900"
				"range"		"0x0000 0x017F" //	Basic Latin, Latin-1 Supplement, Latin Extended-A
			}
		}
		"CloseCaption_BoldItalic"
		{
			"1"
			{
				"name"		"Tahoma"
				"tall"		"24"
				"tall_hidef"	"32"
				"weight"	"900"
				"italic"	"1"
				"range"		"0x0000 0x017F" //	Basic Latin, Latin-1 Supplement, Latin Extended-A
			}
		}
		"CloseCaption_Small"
		{
			"1"
			{
				"name"		"Tahoma"
				"tall"		"16"
				"tall_hidef"	"24"
				"weight"	"900"
				"range"		"0x0000 0x017F" //	Basic Latin, Latin-1 Supplement, Latin Extended-A
			}
		}
		
		// this is the symbol font
		"Marlett"
		{
			"1"
			{
				"name"		"Marlett"
				"tall"		"20"
				"weight"	"0"
				"symbol"	"1"
				"range"		"0x0000 0x007F"	//	Basic Latin
			}
		}
		"MarlettSmall"
		{
			"1"
			{
				"name"		"Marlett"
				"tall"		"14"
				"weight"	"0"
				"symbol"	"1"
				"range"		"0x0000 0x007F"	//	Basic Latin
			}
		}
		"MenuMainTitle"
		{
			"1"
			{
				"name"		"Noto Sans Bold"
				"tall"		"24"
				"antialias" "1"
				"weight"	"500"
			}
		}
		"MenuClassBuckets"
		{
			"1"
			{
				"name"		"Noto Sans Bold"
				"tall"		"11"
				"tall_lodef"	"14"
				"antialias" "1"
				"weight"	"500"
			}
		}
		"MenuKeys"
		{
			"1"
			{
				"name"		"Noto Sans Bold"
				"tall"		"12"
				"antialias" "1"
				"weight"	"500"
			}
		}
		
		"GoalText"
		{
			"1"
			{
				"name"		"Verdana"
				"tall"		"13"
				"tall_hidef"	"14"
				"tall_lodef"	"17"
				"weight"	"800"
				"additive"	"0"
				"antialias" 	"1"
			}
		}		
		
		"ChalkboardTitle"
		{
			"1"
			{
				"name"			"Noto Sans Bold"
				"tall"			"28"
				"tall_lodef"	"48"
				"tall_hidef"	"48"
				"antialias"		"1" 
				"custom"		"1" [$OSX]
				"weight"		"500"
				"weight_lodef"	"800"
				"weight_hidef"	"1000"
			}
		}
		"ChalkboardTitleBig"
		{
			"1"
			{
				"name"			"Noto Sans Bold"
				"tall"			"40"
				"tall_lodef"	"48"
				"tall_hidef"	"48"
				"antialias"		"1"
				"custom"		"1" [$OSX]
				"weight"		"500"
				"weight_lodef"	"800"
				"weight_hidef"	"1000"
			}
		}
		"ChalkboardTitleMedium"
		{
			"1"
			{
				"name"		"Noto Sans Bold"
				"tall"		"24"
				"tall_lodef"	"36"
				"tall_hidef"	"36"
				"antialias" "1"
				"custom"		"1" [$OSX]
				"weight"	"500"
			}
		}
		"ChalkboardText"
		{
			"1"
			{
				"name"			"Noto Sans Bold"
				"tall"			"14" [!$OSX]
				"tall"			"15" [$OSX]
				"tall_lodef"	"32"
				"tall_hidef"	"32"
				"antialias"		"1"
				"custom"		"1" [$OSX]
				"weight"		"500"
			}
		}
		"ScoreboardSmallest"
		{
			"1"
			{
				"name"		"Verdana"
				"tall"		"6"
				"weight"	"400"
				"additive"	"0"
				"antialias" "1"
			}
		}
		"ScoreboardVerySmall"
		{
			"1"
			{
				"name"		"Noto Sans Bold"
				"tall"		"10"
				"weight"	"400"
				"additive"	"0"
				"antialias" "1"
			}
		}
		"ScoreboardSmall"
		{
			"1"
			{
				"name"		"Noto Sans Bold"
				"tall"		"10"
				"weight"	"400"
				"additive"	"0"
				"antialias" "1"
			}
		}
		"ScoreboardMediumSmall"
		{
			"1"
			{
				"name"		"Noto Sans Bold"
				"tall"		"10"
				"weight"	"500"
				"range"		"0x0000 0x007F"	//	Basic Latin
				"antialias" "1"
				"additive"	"0"
			}
		}
		"ScoreboardMedium"
		{
			"1"
			{
				"name"		"Noto Sans Bold"
				"tall"		"20"
				"weight"	"500"
				"range"		"0x0000 0x007F"	//	Basic Latin
				"antialias" "1"
				"additive"	"0"
			}
		}
		"ScoreboardTeamName"
		{
			"1"
			{
				"name"		"Noto Sans Bold"
				"tall"		"20"
				"tall_hidef"	"24"
				"tall_lodef"	"24"
				"weight"	"500"
				"range"		"0x0000 0x007F"	//	Basic Latin
				"antialias" "1"
				"additive"	"0"
			}
		}
		"ScoreboardTeamCountNew"
		{
			"1"
			{
				"name"		"Noto Sans Bold"
				"tall"		"14"
				"weight"	"500"
				"range"		"0x0000 0x007F"	//	Basic Latin
				"antialias" "1"
				"additive"	"0"
			}
		}
		"ScoreboardTeamNameNew"
		{
			"1"
			{
				"name"		"Noto Sans Bold"
				"tall"		"14"
				"tall_hidef"	"24"
				"tall_lodef"	"24"
				"weight"	"500"
				"range"		"0x0000 0x007F"	//	Basic Latin
				"antialias" "1"
				"additive"	"0"
			}
		}
		"ScoreboardTeamNameLarge"
		{
			"1"
			{
				"name"		"Noto Sans Bold"
				"tall"		"34"
				"tall_hidef"	"38"
				"tall_lodef"	"38"
				"weight"	"500"
				"range"		"0x0000 0x007F"	//	Basic Latin
				"antialias" "1"
				"additive"	"0"
			}
		}

		"ScoreboardTeamScoreNew"
 		{
			"1"
			{
				"name"		"Noto Sans Bold"
				"tall"		"36"
				"tall_hidef"	"48"
				"weight"	"500"
				"additive"	"0"
				"antialias" "1"
			}
		}
		"ScoreboardTeamScore"
		{
			"1"
			{
				"name"		"Noto Sans Bold"
				"tall"		"52"
				"tall_lodef"		"80"
				"range" 	"0x0000 0x00FF"
				"weight"	"400"
				"yres"		"1 599"
				"antialias" "1"
			}
			"2"
			{
				"name"		"Noto Sans Bold"
				"tall"		"72"
				"tall_hidef"	"120"
				"range" 	"0x0000 0x00FF"
				"weight"	"400"
				"yres"		"600 767"
				"antialias" "1"
			}
			"3"
			{
				"name"		"Noto Sans Bold"
				"tall"		"100"
				"range" 	"0x0000 0x00FF"
				"weight"	"400"
				"yres"		"768 1023"
				"antialias" "1"
			}
			"4"
			{
				"name"		"Noto Sans Bold"
				"tall"		"140"
				"range" 	"0x0000 0x00FF"
				"weight"	"400"
				"yres"		"1024 1199"
				"antialias" "1"
			}
			"5"
			{
				"name"		"Noto Sans Bold"
				"tall"		"180"
				"range" 	"0x0000 0x00FF"
				"weight"	"400"
				"yres"		"1200 10000"
				"antialias" "1"
			}
		}
		"MatchSummaryTeamScores"
		{
			"1"
			{
				"name"		"Noto Sans Bold"
				"tall"		"36"
				"weight"	"500"
				"range"		"0x0000 0x007F"	//	Basic Latin
				"antialias" "1"
				"additive"	"0"
			}
		}
		"MatchSummaryStatsAndMedals"
		{
			"1"
			{
				"name"		"Noto Sans Bold"
				"tall"		"14"
				"weight"	"400"
				"additive"	"0"
				"antialias" "1"
			}
		}
		"MatchSummaryWinner"
		{
			"1"
			{
				"name"		"Noto Sans Bold"
				"tall"		"20"
				"weight"	"400"
				"additive"	"0"
				"antialias" "1"
			}
		}
		"CompMatchStartTeamNames"
		{
			"1"
			{
				"name"		"Noto Sans Bold"
				"tall"		"14"
				"weight"	"400"
				"additive"	"0"
				"antialias" "1"
			}
		}
		"ControlPointTimer"
		{
			"1"
			{
				"name"		"Noto Sans Bold"
				"tall"		"10"
				"weight"	"400"
				"additive"	"0"
				"antialias" "1"
			}
		}
		"ControlPointTimerSmaller"
		{
			"1"
			{
				"name"		"Noto Sans Bold"
				"tall"		"7"
				"weight"	"400"
				"additive"	"0"
				"antialias" "1"
			}
		}

		"Link"
		{
			"1"
			{
				"name"		"Noto Sans Bold"
				"tall"		"10"
				"tall_hidef"	"12"
				"tall_lodef"	"14"
				"weight"	"400"
				"additive"	"0"
				"antialias" "1"
			}
		}
		
		"TargetID"
		{
			"1"
			{
				"name"		"Verdana"
				"tall"		"12"
				"weight"	"700"
				"yres"		"480 599"
				"dropshadow"	"0"
			}
			"2"
			{
				"name"		"Verdana"
				"tall"		"13"
				"weight"	"700"
				"yres"		"600 767"
				"dropshadow"	"0"
			}
			"3"
			{
				"name"		"Verdana"
				"tall"		"14"
				"weight"	"700"
				"yres"		"768 1023"
				"dropshadow"	"0"
			}
			"4"
			{
				"name"		"Verdana"
				"tall"		"20"
				"weight"	"700"
				"yres"		"1024 1199"
				"dropshadow"	"0"
			}
			"5"
			{
				"name"		"Verdana"
				"tall"		"24"
				"weight"	"700"
				"yres"		"1200 10000"
				"dropshadow"	"0"
			}
		}
		"ChatFont"
		{
			"1"
			{
				"name"		"Noto Sans Bold"
				"tall"		"12"
				"weight"	"700"
				"yres"		"480 599"
				"dropshadow"	"1"
			}
			"2"
			{
				"name"		"Verdana"
				"tall"		"13"
				"weight"	"700"
				"yres"		"600 767"
				"dropshadow"	"1"
			}
			"3"
			{
				"name"		"Verdana"
				"tall"		"14"
				"weight"	"700"
				"yres"		"768 1023"
				"dropshadow"	"1"
			}
			"4"
			{
				"name"		"Verdana"
				"tall"		"20"
				"weight"	"700"
				"yres"		"1024 1199"
				"dropshadow"	"1"
			}
			"5"
			{
				"name"		"Verdana"
				"tall"		"24"
				"weight"	"700"
				"yres"		"1200 10000"
				"dropshadow"	"1"
			}
		}
		"ChatMiniFont"
		{
			"1"
			{
				"name"		"Verdana"
				"tall"		"10"
				"weight"	"700"
				"yres"		"480 599"
				"dropshadow"	"1"
			}
			"2"
			{
				"name"		"Verdana"
				"tall"		"10"
				"weight"	"700"
				"yres"		"600 767"
				"dropshadow"	"1"
			}
			"3"
			{
				"name"		"Verdana"
				"tall"		"13"
				"weight"	"700"
				"yres"		"768 1023"
				"dropshadow"	"1"
			}
			"4"
			{
				"name"		"Verdana"
				"tall"		"14"
				"weight"	"700"
				"yres"		"1024 1199"
				"dropshadow"	"1"
			}
			"5"
			{
				"name"		"Verdana"
				"tall"		"15"
				"weight"	"700"
				"yres"		"1200 10000"
				"dropshadow"	"1"
			}
		}

		MenuSmallestFont
		{
			"1"
			{
				"name"			"Arial Black"
				"tall"			"8"
				"tall_lodef"	"12"
				"range" 		"0x0000 0x00FF"
				"weight"		"300"
				"antialias"		"1"
			}
		}	
		
		MenuSmallFont
		{
			"1"
			{
				"name"		"Noto Sans Bold"
				"tall"		"14"
				"tall_lodef"	"18"
				"range" 		"0x0000 0x00FF"
				"weight"		"300"
				"weight_lodef"	"600"
				"antialias"		"1"
			}
		}			
		CapPlayerFont
		{
			"1"
			{
				"name"		"Noto Sans Bold"
				"tall"		"12"
				"weight"	"500"
				"range"		"0x0000 0x017F" //	Basic Latin, Latin-1 Supplement, Latin Extended-A
				"TextColor"	"Black"
				"antialias" 	"1"
			}
		}
		CapPlayerFontSmall
		{
			"1"
			{
				"name"		"Noto Sans Bold"
				"tall"		"8"
				"weight"	"500"
				"range"		"0x0000 0x017F" //	Basic Latin, Latin-1 Supplement, Latin Extended-A
				"TextColor"	"Black"
				"antialias" 	"1"
			}
		}

		TFFontSmall
		{
			"1"
			{
				"name"		"Verdana"
				"tall"		"8"
				"tall_hidef"	"10"
				"tall_lodef"	"12"
				"weight"	"0"
				"additive"	"1"
				"antialias" 	"1"
			}
		}		
		TFFontMedium
		{
			"1"
			{
				"name"		"Verdana"
				"tall"		"9"
				"tall_hidef"	"10"
				"tall_lodef"	"16"
				"weight"	"400"
				"additive"	"0"
				"antialias" 	"1"
			}
		}		
		
		InstructionalText
		{
			"1"
			{
				"name"		"Verdana"
				"tall"		"11"  [!$OSX]
				"tall"		"9"  [$OSX]
				"weight"	"800"
				"additive"	"0"
				"antialias" 	"1"
			}
		}		
		
		MatchmakingDialogTitle
		{
			"1"
			{
				"name"		"Noto Sans Bold"
				"tall"		"36"
				"tall_lodef"		"28"
				"weight"	"500"
			}
		}
		MatchmakingDialogSessionOptionsTitle
		{
			"1"
			{
				"name"		"Noto Sans Bold"
				"tall"		"30"
				"tall_lodef"		"22"
				"weight"	"500"
			}
		}
		MatchmakingDialogMenuLarge
		{
			"1"
			{
				"name"		"Noto Sans Bold"
				"tall"		"28"
				"tall_lodef"	"24"
				"weight"	"500"
			}
		}
		MatchmakingDialogMenuBrowserHostname
		{
			"1"			// brower item hostname
			{
				"name"		"Trebuchet MS"
				"tall"		"22"
				"weight"	"900"
			}
		}
		MatchmakingDialogMenuBrowserDetails
		{
			"1"			// browser item players and map name
			{
				"name"		"Trebuchet MS"
				"tall"		"18"
				"weight"	"900"
			}
		}		
		MatchmakingDialogMenuMedium
		{
			"1"
			{
				"name"		"Noto Sans Bold"
				"tall"		"22"
				"weight"	"500"
			}
		}
		MatchmakingDialogMenuMediumSmall
		{
			"1"
			{
				"name"		"Noto Sans Bold"
				"tall"		"18"
				"weight"	"500"
			}
		}
		MatchmakingDialogMenuSmall
		{
			"1"
			{
				"name"		"Verdana"
				"tall"		"22"
				"tall_lodef"		"18"
				"weight"	"900"
			}
		}
		MatchmakingDialogMenuSmallest
		{
			"1"
			{
				"name"		"Verdana"
				"tall"		"18"
				"tall_lodef"		"18"
				"weight"	"900"
			}
		}
		RankingDialogHeaders
		{
			"1"
			{
				"name"		"Verdana"
				"tall"		"15"
				"weight"	"900"
			}
		}
		
		"TeamMenuBold"
		{
			"1"
			{
				"name"		"Noto Sans Bold"
				"tall"		"36"
				"weight"	"500"
				"additive"	"0"
				"antialias" "1"
			}
		}
		"TeamMenu"
		{
			"1"
			{
				"name"		"Noto Sans Bold"
				"tall"		"11"
				"weight"	"600"
				"additive"	"0"
				"antialias" 	"1"
			}
		}		
		"IntroMenuCaption"
		{
			"1"
			{
				"name"		"Noto Sans Bold"
				"tall"		"18"
				"weight"	"400"
				"additive"	"0"
				"antialias" 	"1"
			}
		}			
		"AchievementNotification"
		{
			"1"
			{
				"name"		"Trebuchet MS"
				"tall"		"14"
				"weight"	"900"
				"antialias" "1"
			}
		}
		"ImportToolSmallestBold"
		{
			"1"
			{
				"name"		"Verdana"
				"tall"		"10"
				"weight"	"600"
				"additive"	"0"
				"antialias" 	"1"
			}
		}
		"ImportToolSmallest"
		{
			"1"
			{
				"name"		"Verdana"
				"tall"		"10"
				"weight"	"500"
				"additive"	"0"
				"antialias" 	"1"
			}
		}
		"SpectatorVerySmall"
		{
			"1"
			{
				"name"		"Noto Sans Bold"
				"tall"		"8"
				"weight"	"400"
				"additive"	"0"
				"antialias" "1"
			}
		}
		// Used by scoreboard and spectator UI for names which don't map in the normal fashion
		"DefaultVerySmallFallBack"
		{
			"1"
			{
				"name"		"Verdana"
				"tall"		"10"
				"weight"	"0"
				"range"		"0x0000 0x017F" //	Basic Latin, Latin-1 Supplement, Latin Extended-A
				"yres"		"480 599"
				"antialias"	"1"
			}
			"2"
			{
				"name"		"Verdana"
				"tall"		"12"
				"weight"	"0"
				"range"		"0x0000 0x017F" //	Basic Latin, Latin-1 Supplement, Latin Extended-A
				"yres"		"600 1199"
				"antialias"	"1"
			}
			"3"
			{
				"name"		"Verdana"
				"tall"		"15"
				"weight"	"0"
				"range"		"0x0000 0x017F" //	Basic Latin, Latin-1 Supplement, Latin Extended-A
				"yres"		"1200 6000"
				"antialias"	"1"
			}
		}
		
		"ItemFontNameSmallest"
		{
			"1"
			{
				"name"		"Noto Sans Bold"
				"tall"		"12"
				"weight"	"500"
				"additive"	"0"
				"antialias" "1"
			}
		}
		"ItemFontNameSmall"
		{
			"1"
			{
				"name"		"Noto Sans Bold"
				"tall"		"12"
				"weight"	"500"
				"additive"	"0"
				"antialias" "1"
			}
		}
		"ItemFontNameLarge"
		{
			"1"
			{
				"name"		"Noto Sans Bold"
				"tall"		"12"
				"weight"	"500"
				"additive"	"0"
				"antialias" "1"
			}
		}
		"ItemFontNameLarger"
		{
			"1"
			{
				"name"		"Noto Sans Bold"
				"tall"		"18"
				"weight"	"500"
				"additive"	"0"
				"antialias" "1"
			}
		}
		"ItemFontAttribSmallest"
		{
			"1"
			{
				"name"		"Noto Sans Bold"
				"tall"		"7"
				"weight"	"500"
				"additive"	"0"
				"antialias" 	"1"
			}
		}
		"ItemFontAttribSmall"
		{
			"1"
			{
				"name"		"Noto Sans Bold"
				"tall"		"8"
				"weight"	"500"
				"additive"	"0"
				"antialias" 	"1"
			}
		}
		"ItemFontAttribSmallv2"
		{
			"1"
			{
				"name"		"Noto Sans Bold"
				"tall"		"8"
				"antialias" "1"
				"weight"	"500"
			}
		}
		"ItemFontAttribLarge"
		{
			"1"
			{
				"name"		"Noto Sans Bold"
				"tall"		"11"
				"weight"	"500"
				"additive"	"0"
				"antialias" 	"1"
			}
		}	
		"ItemFontAttribLarger"
		{
			"1"
			{
				"name"		"Noto Sans Bold"
				"tall"		"14"
				"weight"	"500"
				"additive"	"0"
				"antialias" 	"1"
			}
		}
		
		"AchievementTracker_Name"
		{
			"1"
			{
				"name"		"Noto Sans Bold"
				"tall"		"9"
				"weight"	"500"
				"additive"	"0"
				"antialias" 	"1"
			}
		}
		"AchievementTracker_NameGlow"
		{
			"1"
			{
				"name"		"Noto Sans Bold"
				"tall"		"9"
				"weight"	"500"
				"blur"		"1"
				"additive"	"1"
				"antialias" 	"1"
			}
		}
		"AchievementTracker_Desc"
		{
			"1"
			{
				"name"		"Verdana"
				"tall"		"7"
				"weight"	"0"
				"additive"	"1"
				"antialias" 	"1"
			}
		}
		"QuestObjectiveTracker_Desc"
		{
			"1"
			{
				"name"		"Verdana"
				"tall"		"7"
				"weight"	"0"
				"additive"	"1"
				"antialias" 	"1"
			}
		}
		"QuestObjectiveTracker_DescGlow"
		{
			"1"
			{
				"name"		"Verdana"
				"tall"		"7"
				"weight"	"0"
				"antialias" 	"1"
			}
		}
		"QuestObjectiveTracker_DescBlur"
		{
			"1"
			{
				"name"		"Verdana"
				"tall"		"7"
				"weight"	"0"
				"blur"		"1"
				"additive"	"1"
				"antialias" 	"1"
			}
		}
		"ItemTrackerScore_InGame"
		{
			"1"
			{
				"name"		"Verdana"
				"tall"		"7"
				"weight"	"0"
				"antialias" 	"1"
			}
		}

		"QuestFlavorText"
		{
			"1"
			{
				"name"		"ocra"
				"tall"		"10"
				"weight"	"400"
				"yres"		"480 599"
				"additive"	"0"
				"antialias"	"1"
			}
			"2"
			{
				"name"		"ocra"
				"tall"		"14"
				"weight"	"400"
				"additive"	"0"
				"yres"		"600 1023"
				"antialias"	"1"
			}
			"3"
			{
				"name"		"ocra"
				"tall"		"18"
				"weight"	"400"
				"additive"	"0"
				"yres"		"1024 6000"
				"antialias"	"1"
			}
		}

		"QuestObjectiveText"
		{
			"1"
			{
				"name"		"ocra"
				"tall"		"10"
				"weight"	"800"
				"yres"		"480 599"
				"additive"	"0"
				"antialias"	"1"
			}
			"2"
			{
				"name"		"ocra"
				"tall"		"14"
				"weight"	"800"
				"additive"	"0"
				"yres"		"600 1023"
				"antialias"	"1"
			}
			"3"
			{
				"name"		"ocra"
				"tall"		"18"
				"weight"	"800"
				"additive"	"0"
				"yres"		"1024 6000"
				"antialias"	"1"
			}
		}
		
		"QuestLargeText"
		{
			"1"
			{
				"name"		"ocra"
				"tall"		"16"
				"weight"	"400"
				"additive"	"0"
				"antialias" "1"
			}
		}

		"QuestStickyText"
		{
			"1"
			{
				"name"		"Noto Sans Bold"
				"tall"		"20"
				"antialias" "1"
				"custom"		"1" [$OSX]
				"weight"	"500"
			}
		}

		"QuestInstructionText_Merasmus"
		{
			"1"
			{
				"name"		"Noto Sans Bold"
				"tall"		"10"
				"weight"	"400"
				"yres"		"480 599"
				"additive"	"0"
				"antialias"	"1"
			}
			"2"
			{
				"name"		"Noto Sans Bold"
				"tall"		"14"
				"weight"	"400"
				"additive"	"0"
				"yres"		"600 1023"
				"antialias"	"1"
			}
			"3"
			{
				"name"		"Noto Sans Bold"
				"tall"		"22"
				"weight"	"400"
				"additive"	"0"
				"yres"		"1024 6000"
				"antialias"	"1"
			}
		}

		"QuestFlavorText_Merasmus"
		{
			"1"
			{
				"name"		"Noto Sans Bold"
				"tall"		"10"
				"weight"	"400"
				"yres"		"480 599"
				"additive"	"0"
				"antialias"	"1"
				"italic"	"1"
			}
			"2"
			{
				"name"		"Noto Sans Bold"
				"tall"		"14"
				"weight"	"400"
				"additive"	"0"
				"yres"		"600 1023"
				"antialias"	"1"
				"italic"	"1"
			}
			"3"
			{
				"name"		"Noto Sans Bold"
				"tall"		"22"
				"weight"	"400"
				"additive"	"0"
				"yres"		"1024 6000"
				"antialias"	"1"
				"italic"	"1"
			}
		}

		"QuestObjectiveText_Merasmus"
		{
			"1"
			{
				"name"		"Noto Sans Bold"
				"tall"		"10"
				"weight"	"800"
				"yres"		"480 599"
				"additive"	"0"
				"antialias"	"1"
			}
			"2"
			{
				"name"		"Noto Sans Bold"
				"tall"		"14"
				"weight"	"800"
				"additive"	"0"
				"yres"		"600 1023"
				"antialias"	"1"
			}
			"3"
			{
				"name"		"Noto Sans Bold"
				"tall"		"18"
				"weight"	"800"
				"additive"	"0"
				"yres"		"1024 6000"
				"antialias"	"1"
			}
		}

		"QuestMediumText_Merasmus"
		{
			"1"
			{
				"name"		"Noto Sans Bold"
				"tall"		"13"
				"weight"	"400"
				"additive"	"0"
				"antialias" "1"
			}
		}
		
		"QuestLargeText_Merasmus"
		{
			"1"
			{
				"name"		"Noto Sans Bold"
				"tall"		"16"
				"weight"	"400"
				"additive"	"0"
				"antialias" "1"
			}
		}
		"AdFont_ItemName"
		{
			"1"
			{
				"name"		"Noto Sans Bold"
				"tall"		"10"
				"weight"	"400"
				"additive"	"0"
				"antialias" "1"
			}
		}
		
		"AdFont_AdText"
		{
			"1"
			{
				"name"		"Verdana"
				"tall"		"8"
				"weight"	"400"
				"additive"	"0"
				"antialias" "1"
			}
		}
		"AdFont_PurchaseButton"
		{
			"1"
			{
				"name"		"Verdana"
				"tall"		"8"
				"weight"	"0"
				"antialias" 	"1"
			}
		}

		"TradeUp_Text"
		{
			"1"
			{
				"name"		"Verdana"
				"tall"		"8"
				"weight"	"400"
				"antialias" "1"
				"additive"	"0"
			}
		}

		"TradeUp_Quote"
		{
			"1"
			{
				"name"		"Trebuchet MS"
				"tall"		"9"
				"weight"	"400"
				"antialias" "1"
				"additive"	"0"
				"italic"	"1"
			}
		}
		
		//
		//////////////////// REPLAY FONTS //////////////////////////////
		//
		"ReplayVerySmall"
		{
			"1"
			{
				"name"		"Verdana"
				"tall"		"12"
				"weight"	"0"
				"range"		"0x0000 0x017F" //	Basic Latin, Latin-1 Supplement, Latin Extended-A
				"yres"	"480 599"
			}
			"2"
			{
				"name"		"Verdana"
				"tall"		"12"
				"weight"	"0"
				"range"		"0x0000 0x017F" //	Basic Latin, Latin-1 Supplement, Latin Extended-A
				"yres"	"600 767"
			}
			"3"
			{
				"name"		"Verdana"
				"tall"		"12"
				"weight"	"0"
				"range"		"0x0000 0x017F" //	Basic Latin, Latin-1 Supplement, Latin Extended-A
				"yres"	"768 1023"
				"antialias"	"1"
			}
			"4"
			{
				"name"		"Verdana"
				"tall"		"14"
				"weight"	"0"
				"range"		"0x0000 0x017F" //	Basic Latin, Latin-1 Supplement, Latin Extended-A
				"yres"	"1024 1199"
				"antialias"	"1"
			}
			"5"
			{
				"name"		"Verdana"
				"tall"		"16"
				"weight"	"0"
				"range"		"0x0000 0x017F" //	Basic Latin, Latin-1 Supplement, Latin Extended-A
				"yres"	"1200 6000"
				"antialias"	"1"
			}
		}
		"ReplayBrowserSmallest"
		{
			"1"
			{
				"name"		"Noto Sans Bold"
				"tall"		"11"
				"weight"	"500"
				"additive"	"0"
				"antialias" 	"1"
			}
		}
		"ReplaySmaller"
		{
			"1"
			{
				"name"		"Verdana"
				"tall"		"12"
				"weight"	"0"
				"range"		"0x0000 0x017F"
				"yres"	"480 599"
			}
			"2"
			{
				"name"		"Verdana"
				"tall"		"13"
				"weight"	"0"
				"range"		"0x0000 0x017F"
				"yres"	"600 767"
			}
			"3"
			{
				"name"		"Verdana"
				"tall"		"14"
				"weight"	"0"
				"range"		"0x0000 0x017F"
				"yres"	"768 1023"
				"antialias"	"1"
			}
			"4"
			{
				"name"		"Verdana"
				"tall"		"20"
				"weight"	"0"
				"range"		"0x0000 0x017F"
				"yres"	"1024 1199"
				"antialias"	"1"
			}
			"5"
			{
				"name"		"Verdana"
				"tall"		"22"
				"weight"	"0"
				"range"		"0x0000 0x017F"
				"yres"	"1200 6000"
				"antialias"	"1"
			}
			"6"
			{
				"name"		"Arial"
				"tall"		"12"
				"range" 		"0x0000 0x00FF"
				"weight"		"0"
			}
		}
		"ReplayMediumSmall"
		{
			"1"
			{
				"name"		"Noto Sans Bold"
				"tall"		"11"
				"weight"	"500"
				"additive"	"0"
				"antialias" "1"
			}
		}
		"ReplayMedium"
		{
			"1"
			{
				"name"		"Noto Sans Bold"
				"tall"		"14"
				"weight"	"500"
				"additive"	"0"
				"antialias" "1"
			}
		}
		"ReplayMediumBig"
		{
			"1"
			{
				"name"		"Noto Sans Bold"
				"tall"		"18"
				"tall_hidef"	"24"
				"tall_lodef"	"18"
				"weight"	"500"
				"additive"	"0"
				"antialias" "1"
			}
		}
		"ReplayBrowserTab"
		{
			"1"
			{
				"name"		"Noto Sans Bold"
				"tall"		"24"
				"weight"	"500"
				"additive"	"0"
				"antialias" "1"
			}
		}
		"ReplayLarger"
		{
			"1"
			{
				"name"		"Noto Sans Bold"
				"tall"		"18"
				"tall_hidef"	"24"
				"tall_lodef"	"20"
				"weight"	"500"
				"additive"	"0"
				"antialias" "1"
			}
		}
		
		//
		//////////////////// ECON FONTS //////////////////////////////
		//
		"EconFontSmall"
		{
			"1"
			{
				"name"		"Noto Sans Bold"
				"tall"		"14"
				"weight"	"500"
				"additive"	"0"
				"antialias" "1"
			}
		}
		"EconFontMedium"
		{
			"1"
			{
				"name"		"Noto Sans Bold"
				"tall"		"24"
				"weight"	"500"
				"additive"	"0"
				"antialias" "1"
			}
		}

		ControllerHintText
		{
			"1"
			{
				"name"		"Noto Sans Bold"
				"tall"		"15"
				"weight"	"500"
				"range"		"0x0000 0x007F"	//	Basic Latin
				"antialias" "1"
				"additive"	"0"
			}
		}

		"MMenuPlayListDesc"
		{
			"1"
			{
				"name"		"Noto Sans Bold"
				"tall"		"9"
				"weight"	"400"
				"additive"	"0"
				"antialias" 	"1"
			}
		}

		"XPSource"
		{
			"1"
			{
				"name"		"Noto Sans Bold"
				"tall"		"11"
				"weight"	"500"
				"antialias" 	"1"
			}
		}

		"XPSource_Glow"
		{
			"1"
			{
				"name"		"Noto Sans Bold"
				"tall"		"11"
				"weight"	"500"
				"blur"		"3"
				"additive"	"1"
				"antialias" 	"1"
			}
		}

		"MapVotesPercentage"
		{
			"1"
			{
				"name"		"Noto Sans Bold"
				"tall"		"12"
				"weight"	"500"
				"additive"	"0"
				"antialias" "1"
				"dropshadow"	"1"
			}	
		}
		"QuestMap_Small_Blur"
		{
			"1"
			{
				"name"		"ocra"
				"tall"		"7"
				"weight"	"0"
				"blur"		"3"
				"additive"	"1"
				"antialias" 	"1"
			}
		}

		"QuestMap_Small"
		{
			"1"
			{
				"name"		"ocra"
				"tall"		"7"
				"weight"	"400"
				"additive"	"0"
				"antialias" "1"
			}
		}

		"QuestMap_Medium"
		{
			"1"
			{
				"name"		"ocra"
				"tall"		"10"
				"weight"	"400"
				"additive"	"0"
				"antialias" "1"
			}
		}

		"QuestMap_Large"
		{
			"1"
			{
				"name"		"ocra"
				"tall"		"14"
				"weight"	"400"
				"additive"	"0"
				"antialias" "1"
			}
		}

		"QuestMap_Huge"
		{
			"1"
			{
				"name"		"ocra"
				"tall"		"30"
				"weight"	"400"
				"additive"	"0"
				"antialias" "1"
			}
		}
	}
}